date,category,title,amount
2017-10-31,Transporte,Eucatur 5/10,12.35
2017-10-31,Vestuário,Mercpago-Mercadolivre 1/12,24.24
2017-10-31,Vestuário,Mercadolivre 4/4,24.23
2017-10-31,Vestuário,Netshoes 4/7,44.06
2017-10-31,Eletrônicos,Mercpago-Mercadolivre 4/12,11.66
2017-10-31,Eletrônicos,Mercpago*Mercadolivre 5/6,8.65
2017-10-31,Vestuário,Fmmotos 2/5,26.4
2017-10-31,Vestuário,Traxart 8/12,49.91
2017-10-31,Eletrônicos,Mercpago-Mercadolivre 3/12,9.91
2017-10-31,Eletrônicos,Mercpago*Mercadolivre 5/6,9.98
2017-10-31,Vestuário,Decathlon 2/4,59.99
2017-10-31,Eletrônicos,Pagsegurouol*Boacompra 3/4,5.14
2017-10-31,Vestuário,Centauro 46-Eldorado 5/5,37.99
2017-10-31,Eletrônicos,Mercpago*Mercadolivre 5/6,8.65
2017-10-31,Transporte,Eucatur 4/5,11
2017-10-31,Eletrônicos,Mercpago-Mercadolivre 5/12,12.48
2017-11-01,Ajuste,IOF de "Www.Ovh.Com",0.76
2017-11-01,Serviços,Www.Ovh.Com,11.89
2017-11-01,Outros,Facebook Inc.*5crnueac,0.23
2017-11-02,Restaurante,Habibs Cerro Cora,11.83
2017-11-02,Restaurante,Uspao Conveniencia,4
2017-11-02,Serviços,Recarga Tim Autom,50
2017-11-03,Eletrônicos,Netflix.Com,27.9
2017-11-03,Restaurante,Mc Donalds Acc,14.5
2017-11-04,Restaurante,Uspao Conveniencia,12.5
2017-11-04,Transporte,Intersul Transp B Fund,69.05
2017-11-04,Outros,Tecban Mini Extra V,50
2017-11-04,Supermercado,Mania Mais,4.5
2017-11-04,Transporte,99* Pop 03nov 17h40min,14.99
2017-11-04,Ajuste,IOF de "Tecban Mini Extra V",0.33
2017-11-06,Restaurante,Restaurante Kaverna,28.25
2017-11-06,Transporte,Mercpago*Bamcaf,68.97
2017-11-06,Vestuário,Caravelle Sports 1/2,42
2017-11-07,Restaurante,R C Empadas,8
2017-11-07,Pagamento,Pagamento recebido,-676.8
2017-11-07,Restaurante,Reiko Tsuno de Oliveir,10
2017-11-07,Transporte,99* Pop 06nov 11h27min,14.88
2017-11-07,Ajuste,Variação cambial,1.16
2017-11-07,Pagamento,Pagamento recebido,-1189
2017-11-08,Eletrônicos,Mercpago*Mercadolivre,102.49
2017-11-08,Transporte,Ciclo Caravelle,10
2017-11-08,Restaurante,Ke Supimpa,5
2017-11-10,Supermercado,Tamoio Ferragens,16.85
2017-11-10,Restaurante,Ke Supimpa,5
2017-11-11,Restaurante,Habibs Cerro Cora,9.74
2017-11-11,Restaurante,Zensho,27
2017-11-11,Supermercado,Pao de Acucar Lj,44.17
2017-11-13,Restaurante,Maruyama Food,10
2017-11-13,Supermercado,Pao de Acucar Lj,82.97
2017-11-13,Eletrônicos,Ec*Spotify,8.5
2017-11-14,Restaurante,Nutricap Com Prod Alim,21.5
2017-11-14,Ajuste,IOF de "Tecban Mini Extra V",0.86
2017-11-14,Restaurante,Ke Supimpa,8
2017-11-14,Outros,Tecban Mini Extra V,150
2017-11-15,Restaurante,Eldorado Mate,13.9
2017-11-15,Transporte,99* Pop 14nov 17h58min,16.03
2017-11-16,Saúde,Shmg Distribuidora 1/6,19.35
2017-11-16,Restaurante,Habibs Cerro Cora,12.63
2017-11-17,Outros,Mercadolivre 1/4,8.19
2017-11-17,Restaurante,Nutricap Com Prod Alim,9.5
2017-11-17,Saúde,Drogaria Sao Paulo,36.33
2017-11-18,Restaurante,Habibs Cerro Cora,6.93
2017-11-20,Lazer,Pag*Pittas,24
2017-11-20,Restaurante,Habibs Cerro Cora,8.75
2017-11-20,Supermercado,Supermercado Padrao,19.62
2017-11-20,Restaurante,Habibs Cerro Cora,9.85
2017-11-21,Restaurante,Habibs Cerro Cora,5.94
2017-11-22,Restaurante,Lanchonete da Fisica,4
2017-11-22,Eletrônicos,Google Play*App Holdin,11.99
2017-11-22,Restaurante,Zensho,24.5
2017-11-22,Eletrônicos,Google Play*Crafty App,11.23
2017-11-22,Restaurante,Ke Supimpa,4.5
2017-11-23,Supermercado,Pao de Acucar Lj,57.68
2017-11-23,Restaurante,Xis -Carrefour Express,2.99
2017-11-23,Vestuário,Decathlon,29.99
2017-11-23,Outros,Mercpago,419
2017-11-23,Restaurante,Habibs Cerro Cora,9.85
2017-11-24,Restaurante,Lanchonete da Fisica,18
2017-11-24,Vestuário,Mercpago,230
2017-11-24,Ajuste,Crédito de "Mercpago",-419
2017-11-25,Restaurante,Ke Supimpa,4.5
2017-11-27,Supermercado,Mercadinho Tangara,31
2017-11-27,Restaurante,Aldo Jose Delducas,5
2017-11-27,Supermercado,Fafe Padaria,19.55
2017-11-28,Eletrônicos,Mercpago*Mercadolivre 1/6,9.65
2017-11-29,Restaurante,Habibs Cerro Cora,9.86