date,category,title,amount
2017-05-07,Vestuário,Tray*Outletclube 2/6,15.91
2017-05-07,Outros,Mercadolivre 2/3,11.7
2017-05-07,Outros,Mercpago*Mercadolivre 2/12,6.73
2017-05-07,Vestuário,Eskala 2/3,19.99
2017-05-07,Outros,Mercadopago 12/12,15.56
2017-05-07,Eletrônicos,Mercpago Mercadolivre 12/12,23.09
2017-05-07,Outros,Mercpago*Mercadolivre 2/10,7.41
2017-05-07,Eletrônicos,Mercadopago 12/12,7.23
2017-05-07,Outros,Decathlon Vl Leopoldin 3/3,49.99
2017-05-07,Eletrônicos,Mercadopago Trocafone 6/6,181.5
2017-05-07,Outros,Centauro 46 Eldorado 3/10,139.99
2017-05-07,Eletrônicos,Mercpago Mercadolivre 12/12,8.4
2017-05-07,Transporte,Kaiowa 6/6,19.03
2017-05-07,Transporte,Kaiowa 6/6,37.46
2017-05-07,Outros,Mercpago*Mercadolivre 2/12,7.65
2017-05-07,Eletrônicos,Mercpago Mercadolivre 4/12,8.4
2017-05-07,Eletrônicos,Mercpago Mercadolivre 4/12,18.44
2017-05-07,Outros,Mercadopago 12/12,10.99
2017-05-07,Outros,Pagseguro Boacompra 2/3,12.33
2017-05-07,Outros,Mercadopago 12/12,13.67
2017-05-07,Vestuário,Traxart 2/12,49.91
2017-05-07,Outros,F J S P Com e Locacao 2/12,6.61
2017-05-08,Supermercado,Panificadora Bom Jardi,35.83
2017-05-08,Restaurante,Pichelluccio,26.9
2017-05-08,Serviços,Google Play*Ilixa,5.89
2017-05-09,Restaurante,Nutricap Com Prod Alim,4
2017-05-10,Ajuste,IOF de "Paypal *Chenli",0.81
2017-05-10,Vestuário,Paypal *Chenli,12.66
2017-05-10,Restaurante,Nutricap Com Prod Alim,4
2017-05-10,Restaurante,Lanchonete da Fisica,11.8
2017-05-11,Restaurante,Agnaldo Cardoso da Sil,4.5
2017-05-11,Restaurante,Lanchonete da Fisica,17
2017-05-11,Restaurante,Ke Supimpa,4
2017-05-12,Transporte,Uber Uber Br May11 Yry,18.88
2017-05-12,Serviços,Google Play*Google Mus,14.9
2017-05-12,Transporte,Uber Uber Br May11 K6t,11.86
2017-05-13,Transporte,Uber Uber Br May12 Kpg,11
2017-05-13,Saúde,Minha Otica On Line 1/6,29.35
2017-05-15,Ajuste,Variação cambial,-0.04
2017-05-15,Pagamento,Pagamento recebido,-1619.21
2017-05-15,Restaurante,Casa de Batidas do Pad,13
2017-05-15,Saúde,Drogasil,37.8
2017-05-15,Transporte,Uber Uber Br May13 Ufy,10.26
2017-05-15,Restaurante,Panificadora Bom Jardi,8.25
2017-05-15,Restaurante,Lirio de Prata,10.99
2017-05-15,Restaurante,Bonefood Comercio de A,10
2017-05-15,Transporte,Uber Uber Br May12 H2e,10.14
2017-05-16,Restaurante,Lanchonete da Fisica,18
2017-05-16,Restaurante,Lanchonete da Fisica,4
2017-05-17,Restaurante,Hellen Aparecida Macha,7
2017-05-17,Restaurante,Hellen Aparecida Macha,8.5
2017-05-17,Restaurante,Luciana Maria da Silva,12.03
2017-05-18,Educação,Pagsegurouol*Casadopap 1/2,46.85
2017-05-18,Restaurante,Lanchonete da Fisica,12
2017-05-18,Restaurante,Lanchonete da Fisica,20.35
2017-05-18,Serviços,Recarga Tim Autom,50
2017-05-18,Restaurante,Lanchonete da Fisica,5
2017-05-19,Supermercado,Minimercado Lj,10.52
2017-05-19,Restaurante,Cavalli Cavalli Lancho,11
2017-05-19,Ajuste,IOF de "Sao Paulo",0.95
2017-05-19,Restaurante,Lirio de Prata,11.15
2017-05-19,Restaurante,Lanchonete da Fisica,7
2017-05-19,Transporte,Uber Uber Br May18 Ho2,5.78
2017-05-19,Outros,Sao Paulo,160
2017-05-19,Supermercado,Carrefour Praca Isai L,34.47
2017-05-20,Eletrônicos,Mercpago*Mercadolivre,199
2017-05-20,Restaurante,Dona Ju Restaurante,20
2017-05-20,Transporte,Uber Uber Br May18 Vyk,7.9
2017-05-20,Restaurante,Lanchonete da Fisica,8
2017-05-22,Restaurante,Pagsegurouol*Clagh2904,10
2017-05-22,Restaurante,Lirio de Prata,14.45
2017-05-22,Supermercado,Varejao Novo Bonfiglio,20.3
2017-05-22,Restaurante,Lirio de Prata,15.18
2017-05-23,Educação,Fenix Com Estudantil,17
2017-05-24,Restaurante,Lanchonete da Fisica,4
2017-05-24,Restaurante,Rodosnack Turmalina,34.08
2017-05-24,Ajuste,IOF de "Sao Paulo",0.22
2017-05-24,Restaurante,Pasteko Pastelaria,25
2017-05-24,Serviços,Sao Paulo,40
2017-05-25,Serviços,Bike Brasilia*Bike,10
2017-05-25,Restaurante,Dionson Borges Siqueir,6
2017-05-25,Restaurante,Torre Pastelaria e Lan,19.9
2017-05-25,Restaurante,Ester Nogueira Marinho,7
2017-05-26,Restaurante,Churrascaria Menegon,21.8
2017-05-26,Restaurante,Rodosnack Coral Lanch,12.25
2017-05-27,Eletrônicos,Google Play*Vieyrasoft,8.79
2017-05-29,Supermercado,Emporio Azuki,6.99
2017-05-29,Restaurante,1burguer Hamburgueria,29
2017-05-29,Saúde,Drogasil,28.91
2017-05-29,Transporte,Uber Uber Br May27 Qay,7.99
2017-05-29,Restaurante,Celio Soares de Carval,18.8
2017-05-29,Restaurante,Lirio de Prata,10.8
2017-05-29,Supermercado,Minimercado Lj,11.58
2017-05-30,Restaurante,Luciana Maria da Silva,9.95
2017-06-01,Restaurante,J.M.J Piripa,7.5
2017-06-01,Supermercado,Barriga de Lontra Rest,5.5
2017-06-02,Supermercado,Varejao Novo Bonfiglio,9.7
2017-06-02,Restaurante,Bonefood Comercio de A,12
2017-06-02,Restaurante,Pichelluccio,28.9
2017-06-03,Supermercado,Supermercado Padrao,29.08
2017-06-03,Vestuário,Com e Conf Perusp 1/2,44.25
2017-06-03,Outros,Google Play*Tinder,25.45
2017-06-05,Restaurante,Uspao Conveniencia,4
2017-06-05,Transporte,Uber*Uber Trip 42c7p H,24.87
2017-06-05,Transporte,Uber Uber Trip Fok3a H,17.23
2017-06-05,Serviços,Seg Youse*Youse,1.08
2017-06-06,Restaurante,Super Hot Dog,12.5
2017-06-06,Restaurante,Ifoodbr,31.5