date,category,title,amount
2016-04-04,Ajuste,IOF de "Netflix Com",2.85
2016-04-05,Serviços,Netflix Com,44.6
2016-04-05,Restaurante,Habibs,41.47
2016-04-05,Supermercado,Dia Loja,72.58
2016-04-06,Restaurante,Ke Supimpa,8
2016-04-07,Outros,Google Play Wallet,22.82
2016-04-08,Restaurante,Lanchonete da Fisica,8.5
2016-04-08,Outros,Mercadopago Mlivre 1/6,7.93
2016-04-09,Eletrônicos,Ebanx Spotify,14.9
2016-04-12,Supermercado,Dia Loja,34.92
2016-04-12,Supermercado,Fufu Lia,7
2016-04-13,Ajuste,IOF de "Paypal Jerrychsz",3.92
2016-04-13,Outros,Google Play Cheparev,7.79
2016-04-14,Restaurante,Habibs,9.84
2016-04-14,Restaurante,Habibs,7.86
2016-04-15,Restaurante,Ke Supimpa,4
2016-04-15,Supermercado,Supermercado Padrao,30.02
2016-04-15,Restaurante,Ke Supimpa,5
2016-04-15,Restaurante,Mc Donalds Av Fco Mto,8.5
2016-04-15,Pagamento,Pagamento recebido,-1519.95
2016-04-16,Outros,Mercadopago Mlivre 2/3,8.39
2016-04-16,Outros,Mercadopago 2/10,6.62
2016-04-16,Transporte,Eucatur 9/10,13.1
2016-04-16,Casa,Loja do Mecanico 2/8,9.96
2016-04-16,Outros,Mercadopago 5/10,6.22
2016-04-16,Outros,Mercadopago 4/12,6.11
2016-04-16,Transporte,Eucatur 3/10,14.2
2016-04-16,Outros,Mercadopago 2/9,6.36
2016-04-16,Outros,Mercadopago 5/10,6.23
2016-04-16,Eletrônicos,Paypal Jerrychsz,61.43
2016-04-16,Restaurante,Ke Supimpa,4
2016-04-16,Outros,Mercadopago 3/12,16.33
2016-04-16,Transporte,Expresso Itamarati 4/6,65.66
2016-04-16,Outros,Mercadopago*Mlivr 6/6,5.86
2016-04-16,Transporte,Expresso Itamarati 3/6,47.66
2016-04-16,Outros,Mercadopago Mlivre 2/6,7.97
2016-04-16,Outros,Mercadopago 2/12,6.91
2016-04-19,Restaurante,Lanches Bh Ltda,12.2
2016-04-19,Supermercado,Segredo dos Doces,6.1
2016-04-19,Restaurante,Star,100
2016-04-19,Restaurante,The Fifties Eldorado,51
2016-04-19,Restaurante,Baccio Di Latte,11
2016-04-20,Restaurante,Outback Bz 07 Eldorado,129.03
2016-04-20,Restaurante,Burger King,28.9
2016-04-21,Restaurante,The Fifties,98.02
2016-04-23,Restaurante,Ke Supimpa,4
2016-04-23,Restaurante,Habibs,23.45
2016-04-23,Restaurante,Chez Mis,35.2
2016-04-26,Restaurante,Mc Donalds Hsc,37.5
2016-04-26,Supermercado,Carrefour Ere,121.43
2016-04-26,Outros,Mercadopago 1/6,7.05
2016-04-26,Supermercado,Dia Loja,3.33
2016-04-26,Eletrônicos,Casas Bahiacom 1/3,11.06
2016-04-28,Restaurante,Habibs,9.9
2016-04-29,Saúde,Ultrafarma Saude 1/2,23.55
2016-04-30,Restaurante,Ke Supimpa,5
2016-05-04,Restaurante,Habibs,13.8