date,category,title,amount
2015-07-20,Ajuste,Estorno de "Netflix Com",-22.9
2015-08-05,Restaurante,Lanchonete Biglanche,3
2015-08-06,Supermercado,Juninho Soft Cafe,8
2015-08-07,Transporte,Eucatur 1/10,13.1
2015-08-08,Supermercado,Shop Ig Sup Irmaos Gon,2.57
2015-08-08,Restaurante,Lanchonete Capital do,7
2015-08-08,Supermercado,Shop Ig Sup Irmaos Gon,6.2
2015-08-08,Outros,Pagseguro 1/3,16.68
2015-08-11,Restaurante,Mc Donalds Vbr,19.5
2015-08-11,Supermercado,Minimercado Lj,37.45
2015-08-11,Supermercado,Fufu Lia,10
2015-08-11,Restaurante,Subway,16.75
2015-08-11,Supermercado,Minimercado Lj,16.58
2015-08-11,Vestuário,Arte em Pedras,34
2015-08-11,Supermercado,Shoucolandia,24
2015-08-14,Restaurante,Ke Supimpa,7.5
2015-08-17,Pagamento,Pagamento recebido,-1159.17
2015-08-18,Restaurante,Ke Supimpa,3.5
2015-08-18,Saúde,Pense Farma,14.3
2015-08-18,Serviços,Casa das Biciclet 2/3,57.33
2015-08-18,Serviços,Mercadopago Mlivre 3/6,6.52
2015-08-18,Restaurante,Lanchonete da Fisica,4
2015-08-18,Serviços,Ciclo Felline 3/3,48.33
2015-08-18,Restaurante,Ke Supimpa,7.5
2015-08-18,Serviços,Ciclo Felline 2/3,74.33
2015-08-18,Serviços,Mercadopago Mlivre 3/5,6.79
2015-08-19,Serviços,Mercadopago Wikimediaf,20
2015-08-20,Serviços,Recarga Tim,20
2015-08-21,Restaurante,Lanchonete da Fisica,7
2015-08-21,Outros,Ciclo Seabra,7
2015-08-21,Serviços,Ciclo Felline,45
2015-08-22,Supermercado,Minimercado Lj,23.28
2015-08-22,Restaurante,Salpicante Restaurante,38.9
2015-08-22,Supermercado,Minimercado Lj,28.4
2015-08-22,Supermercado,Minimercado Lj,1.81
2015-08-25,Restaurante,Lanchonete da Fisica,7
2015-08-25,Casa,Roldao Superatacado,107.96
2015-08-26,Serviços,Mercadopago Wikimediaf,10
2015-09-01,Casa,Silvio S Bispo Santos,21.9
2015-09-01,Restaurante,Lanchonete Belo Alto,24.43