date,category,title,amount
2017-08-25,Vestuário,Mercadolivre 2/4,24.23
2017-08-25,Vestuário,Centauro 46-Eldorado 3/5,37.99
2017-08-25,Eletrônicos,Mercpago*Mercadolivre 3/6,9.98
2017-08-25,Eletrônicos,Mercpago-Mercadolivre 3/12,12.48
2017-08-25,Eletrônicos,Mercadolivre 3/4,9.34
2017-08-25,Vestuário,Netshoes 2/7,44.06
2017-08-25,Eletrônicos,Mercpago*Mercadolivre 3/6,8.65
2017-08-25,Transporte,Eucatur 2/5,11
2017-08-25,Eletrônicos,Mercpago*Mercadolivre 3/6,8.65
2017-08-25,Transporte,Eucatur 2/3,10
2017-08-25,Transporte,Eucatur 3/10,12.35
2017-08-25,Eletrônicos,Paypal*Robocore 3/3,72.42
2017-08-25,Vestuário,Traxart 6/12,49.91
2017-08-25,Eletrônicos,Mercpago-Mercadolivre 2/12,11.66
2017-08-26,Restaurante,Ifood*Br,20.9
2017-08-26,Restaurante,Lanchonete da Fisica,5
2017-08-26,Restaurante,Pizza Hut,9.9
2017-08-28,Restaurante,Lirio de Prata Panif,9.36
2017-08-28,Restaurante,Gulla e Cia,5.5
2017-08-28,Restaurante,Real Arcoverde Lanches,13.5
2017-08-28,Restaurante,Gulla e Cia,8
2017-08-28,Restaurante,Ifood*Br,35
2017-08-28,Restaurante,Real Arcoverde Lanches,3.5
2017-08-29,Restaurante,Nutricap Com Prod Alim,4
2017-08-30,Restaurante,Trescalini Pizzaria,34.22
2017-08-30,Restaurante,Ifood*Br,29.9
2017-08-30,Restaurante,Lanchonete Princesa da,14.36
2017-08-31,Ajuste,Rewards - Assinatura,190
2017-08-31,Restaurante,Silvana Aparecida Mach,15
2017-08-31,Ajuste,Rewards - Estorno da assinatura,-190
2017-09-01,Ajuste,Variação cambial,0.07
2017-09-01,Pagamento,Pagamento recebido,-1615.72
2017-09-01,Restaurante,Panificadora Bom Jardi,5.76
2017-09-04,Restaurante,Ana Alves,18
2017-09-04,Ajuste,IOF de "Sao Paulo",0.24
2017-09-04,Restaurante,Bonefood Comercio de A,8
2017-09-04,Outros,Sao Paulo,40
2017-09-04,Supermercado,Euphoria Ice Cream,22.5
2017-09-04,Restaurante,Lirio de Prata,6.65
2017-09-04,Eletrônicos,Netflix.Com,22.9
2017-09-04,Eletrônicos,Ponto Friocom 1/6,17.8
2017-09-04,Serviços,Recarga Tim,50
2017-09-05,Ajuste,IOF de "Tecban Mini Extra V",0.3
2017-09-05,Vestuário,Netshoes 1/2,43.12
2017-09-05,Saúde,Mercpago*Mercadolivre,23.39
2017-09-05,Outros,Tecban Mini Extra V,50
2017-09-07,Restaurante,Ifood*Br,43.9
2017-09-07,Restaurante,Bar e Lanc.Estadao,16
2017-09-07,Restaurante,Rei do Mate Top Center,11
2017-09-07,Restaurante,Croasonho,12.05
2017-09-07,Eletrônicos,Loja do Mane,14.36
2017-09-08,Supermercado,Merc Silva e Barbosa,35.03
2017-09-08,Supermercado,Petit Mambo,36.34
2017-09-08,Supermercado,Merc Silva e Barbosa,29.95
2017-09-11,Restaurante,Lirio de Prata,9
2017-09-11,Supermercado,Merc Silva e Barbosa,23.93
2017-09-11,Restaurante,Pizzaria Picheluccio,29.9
2017-09-12,Supermercado,Varejao Novo Bonfiglio,18.31
2017-09-12,Eletrônicos,Mercpago-Mercadolivre 1/12,9.99
2017-09-13,Restaurante,Ke Supimpa,9
2017-09-13,Saúde,Drogasil,8.63
2017-09-13,Eletrônicos,Ec*Spotify,8.5
2017-09-14,Restaurante,Lirio de Prata,6.75
2017-09-14,Restaurante,Bonefood Comercio de A,10
2017-09-14,Restaurante,Bar e Lanc.Estadao,16
2017-09-15,Saúde,Drogasil,8.49
2017-09-15,Eletrônicos,Google Play*Daylio,8.09
2017-09-15,Restaurante,Lirio de Prata,10
2017-09-15,Restaurante,Uspao Conveniencia,6
2017-09-16,Supermercado,Extra Itaim,9.44
2017-09-18,Restaurante,Bonefood Comercio de A,10
2017-09-18,Saúde,Drogasil,8.49
2017-09-18,Restaurante,Lanches B H,9.8
2017-09-18,Supermercado,Merc Silva e Barbosa,20.73
2017-09-18,Transporte,Uber Uber Trip Nbehh H,16.13
2017-09-19,Restaurante,Nutricap Com Prod Alim,3
2017-09-19,Restaurante,Lanchonete da Fisica,12.6
2017-09-19,Restaurante,Ifood*Br,40
2017-09-19,Restaurante,Nutricap Com Prod Alim,4
2017-09-20,Restaurante,Tesca Pizzaria,16.45
2017-09-20,Supermercado,Merc Silva e Barbosa,48.16
2017-09-20,Restaurante,Nutricap Com Prod Alim,9
2017-09-20,Restaurante,Lanchonete da Fisica,16.1
2017-09-21,Restaurante,Ke Supimpa,9
2017-09-22,Restaurante,Pag*Elenita,6.5
2017-09-22,Eletrônicos,Pagsegurouol*Boacompra 1/4,5.17
2017-09-23,Restaurante,Nutricap Com Prod Alim,10
2017-09-23,Serviços,Hostgator Hosp Sites,44.99