date,category,title,amount
2017-04-06,Transporte,Uber Uber Br Apr05 Ypz,18.25
2017-04-06,Transporte,Uber Uber Br Apr05 4bq,13.57
2017-04-06,Casa,Dep Tamoio,38.2
2017-04-07,Outros,Mercadopago 11/12,13.67
2017-04-07,Outros,Mercadopago 11/12,15.56
2017-04-07,Outros,Decathlon Vl Leopoldin 2/3,49.99
2017-04-07,Transporte,Kaiowa 5/6,37.46
2017-04-07,Eletrônicos,Mercpago Mercadolivre 3/12,8.4
2017-04-07,Eletrônicos,Mercpago Mercadolivre 11/12,23.09
2017-04-07,Eletrônicos,Mercadopago 11/12,7.23
2017-04-07,Outros,Centauro 46 Eldorado 2/10,139.99
2017-04-07,Transporte,Eucatur 10/10,13
2017-04-07,Transporte,Kaiowa 5/6,19.03
2017-04-07,Outros,Mercadopago 11/12,10.99
2017-04-07,Transporte,Uber Uber Br Apr06 Zsp,11.41
2017-04-07,Eletrônicos,Mercpago Mercadolivre 11/12,8.4
2017-04-07,Supermercado,Yahabibi,4.5
2017-04-07,Eletrônicos,Mercpago Mercadolivre 3/12,18.44
2017-04-07,Transporte,Eucatur 10/10,25.4
2017-04-07,Eletrônicos,Mercadopago Trocafone 5/6,181.5
2017-04-10,Supermercado,Merc Silva e Barbosa,110.87
2017-04-10,Eletrônicos,Ricardoeletro,159.6
2017-04-10,Restaurante,Star,11.5
2017-04-10,Supermercado,Supermercado Padrao,34.62
2017-04-10,Saúde,Drogaria Sao Paulo,49.58
2017-04-10,Restaurante,Lirio de Prata Paes e,6.38
2017-04-10,Restaurante,Super Hot Dog,9
2017-04-10,Restaurante,Rpf Lanches,17
2017-04-10,Outros,Pagseguro Boacompra 1/3,12.33
2017-04-10,Vestuário,Centauro 46 Eldorado,34.99
2017-04-11,Serviços,Google Play Google Mus,14.9
2017-04-12,Pagamento,Pagamento recebido,-2839.62
2017-04-14,Supermercado,Merc Silva e Barbosa,85.89
2017-04-15,Restaurante,Pastel Deliver,13.05
2017-04-17,Outros,Mercpago*Mercadolivre,15.87
2017-04-17,Restaurante,Panificadora Bom Jardi,11.75
2017-04-17,Saúde,Drogasil,56.86
2017-04-17,Ajuste,Variação cambial,-0.05
2017-04-17,Transporte,Uber Uber Br Apr15 I6d,13.53
2017-04-17,Restaurante,Rei das Batidas,20.9
2017-04-17,Transporte,Uber Uber Br Apr15 Q3m,11.36
2017-04-18,Transporte,Uber Uber Br Apr17 Ojm,9.84
2017-04-18,Transporte,Uber*Uber Br Apr17 N6j,9.92
2017-04-18,Restaurante,Ke Supimpa,5
2017-04-19,Lazer,Tradeinn,224.57
2017-04-19,Serviços,Google Play*Martin Sta,1.32
2017-04-19,Serviços,Estetica e Cabelo,44
2017-04-19,Supermercado,Varejao Bonfiglioli,15.51
2017-04-19,Ajuste,IOF de "Tradeinn",14.33
2017-04-19,Outros,F J S P Com e Locacao 1/12,6.72
2017-04-19,Restaurante,Ifoodbr,59.1
2017-04-20,Restaurante,Lanchonete da Fisica,4
2017-04-20,Restaurante,Uspao Conveniencia,4
2017-04-20,Outros,Formosa Presentes,10
2017-04-20,Restaurante,Spoleto Eldolrado,34.8
2017-04-20,Vestuário,Traxart 1/12,49.99
2017-04-20,Vestuário,Pagsegurouol*Uspapelar,79.9
2017-04-20,Vestuário,Eskala 1/3,20.01
2017-04-22,Transporte,Uber Uber Br Apr20 Goe,10.03
2017-04-22,Transporte,Uber Uber Br Apr21 Afe,15.85
2017-04-22,Restaurante,Antonio da Paixao,8
2017-04-24,Transporte,Uber Uber Br Apr22 Evw,10
2017-04-24,Transporte,Uber Uber Br Apr22 Kfv,15.85
2017-04-24,Restaurante,Monte Neve,10.42
2017-04-24,Transporte,Uber Uber Br Apr22 Aen,7.5
2017-04-24,Outros,Mercpago*Mercadolivre 1/12,6.77
2017-04-24,Outros,Mercpago*Mercadolivre 1/12,7.73
2017-04-24,Transporte,Uber Uber Br Apr22 Izb,4
2017-04-24,Supermercado,Lc 2167 Vital Brasil,17.33
2017-04-24,Ajuste,Crédito de "MERCPAGO",-859.9
2017-04-25,Restaurante,Lanchonete da Fisica,12
2017-04-25,Restaurante,Ke Supimpa,5
2017-04-25,Transporte,Uber Uber Br Apr24 Ptj,50.02
2017-04-26,Restaurante,Ifood Com,29.5
2017-04-27,Transporte,Uber Uber Br Apr26 6je,4
2017-04-27,Restaurante,Lirio de Prata,8.2
2017-04-27,Transporte,Uber*Uber Br Apr26 Ryy,20.11
2017-04-27,Restaurante,Lanchonete da Fisica,4
2017-04-27,Transporte,Uber Uber Br Apr26 Ust,15.2
2017-04-28,Transporte,Uber Uber Br Apr27 Yrb,7.97
2017-04-28,Restaurante,Lanchonete da Fisica,16.1
2017-04-28,Restaurante,Nutricap Com Prod Alim,2
2017-04-28,Transporte,Uber Uber Br Apr26 Ze6,3.93
2017-04-29,Restaurante,Antonio da Paixao,14
2017-04-29,Transporte,Auto Posto Estoril,10.5
2017-05-01,Restaurante,Lirio de Prata,10.96
2017-05-01,Restaurante,Tax Redondo Ltda,7
2017-05-01,Restaurante,Lirio de Prata,16.45
2017-05-02,Saúde,Drogasil,8.49
2017-05-02,Supermercado,Varejao Novo Bonfiglio,20.14
2017-05-02,Outros,Mercadolivre 1/3,11.69
2017-05-02,Outros,Mercpago*Mercadolivre 1/10,7.43
2017-05-03,Serviços,Google Play*Tinder,25.45
2017-05-03,Restaurante,Lanchonete Socios e Am,9
2017-05-03,Restaurante,Nutricap Com Prod Alim,4
2017-05-03,Restaurante,Lanchonete da Fisica,18
2017-05-03,Vestuário,Tray*Outletclube 1/6,15.93
2017-05-04,Restaurante,Lirio de Prata,13.09
2017-05-04,Serviços,Www.Ovh.Com,11.53
2017-05-04,Ajuste,IOF de "Www.Ovh.Com",0.74
2017-05-04,Serviços,Seg Youse*Youse,1.08
2017-05-04,Restaurante,Eldorado Mate,11.5
2017-05-05,Restaurante,Ronan Donizeti Silva R,18.25
2017-05-06,Restaurante,Luciana Maria da Silva,11.36