date,category,title,amount
2017-01-02,Eletrônicos,Mercadopago,479
2017-01-02,Pagamento,Pagamento recebido,-700
2017-01-03,Outros,Mercadopago 12/12,16.33
2017-01-03,Outros,Parana Lentes 3/3,68.66
2017-01-03,Eletrônicos,Mercadopago Trocafone 2/6,181.5
2017-01-03,Transporte,Kaiowa 2/6,37.46
2017-01-03,Outros,Mercadopago 8/12,13.67
2017-01-03,Outros,Mercadopago 11/12,6.91
2017-01-03,Outros,Mercadopago 8/12,15.56
2017-01-03,Vestuário,Lojao do Bras 2/4,37.25
2017-01-03,Transporte,Eucatur 7/10,13
2017-01-03,Eletrônicos,Walmart Comercio Eletr 7/8,83.73
2017-01-03,Outros,Mercadopago 8/12,10.99
2017-01-03,Serviços,Mercadopago 8/10,6.58
2017-01-03,Transporte,Eucatur 7/10,25.4
2017-01-03,Transporte,Kaiowa 2/6,19.03
2017-01-04,Outros,Www Ovh Com,35.49
2017-01-04,Outros,Seg Youse Youse,1.08
2017-01-04,Ajuste,IOF de "Www Ovh Com",2.26
2017-01-04,Restaurante,Fernanda Bar e Lanches,6
2017-01-04,Supermercado,Carrefour Ere,28.27
2017-01-05,Restaurante,Mc Donalds Av Fco Mto,19
2017-01-05,Saúde,Onofre Mega Store,14.62
2017-01-05,Eletrônicos,Paypal Chenguocai,11.89
2017-01-05,Eletrônicos,Paypal Zhang Tao,21.44
2017-01-05,Ajuste,IOF de "Paypal Zhang Tao",1.37
2017-01-05,Eletrônicos,Mercadopago 1/12,7.27
2017-01-05,Ajuste,IOF de compra internacional,0.76
2017-01-05,Restaurante,Lanches Bh Ltda,21.9
2017-01-09,Restaurante,Mc Donalds Av Fco Mto,28
2017-01-09,Ajuste,IOF de compra internacional,1.08
2017-01-09,Restaurante,Pizzaria Impor Felicci,27
2017-01-09,Supermercado,Merc Silva e Barbosa,5.63
2017-01-09,Eletrônicos,Paypal Yao Baojia,17
2017-01-10,Pagamento,Pagamento recebido,-1044.91
2017-01-11,Ajuste,Variação cambial,-1.04
2017-01-12,Lazer,Unibanco Arteplex,24.5
2017-01-12,Lazer,Unibanco Arteplex,24
2017-01-12,Serviços,Rpc Rede Ponto Certo R,33.8
2017-01-16,Serviços,Recarga Tim,50
2017-01-16,Eletrônicos,Paypal Zhang Tao,14.16
2017-01-16,Ajuste,IOF de compra internacional,0.9
2017-01-16,Supermercado,Supermercado Padrao,152.07
2017-01-16,Restaurante,Pastel Deliver,31.5
2017-01-16,Restaurante,Pizzaria Delivery,27
2017-01-16,Eletrônicos,Google Play Exoware,15.99
2017-01-17,Restaurante,Lucigreison dos Santos,20
2017-01-19,Outros,Paypro,33.5
2017-01-19,Ajuste,IOF de compra internacional,2.14
2017-01-20,Eletrônicos,Mercpago Mercadolivre 1/12,32.7
2017-01-23,Eletrônicos,Mercpago Mercadolivre 3/12,32.62
2017-01-23,Eletrônicos,Mercpago Mercadolivre 2/12,32.62
2017-01-23,Eletrônicos,Mercadopago 5/12,7.23
2017-01-23,Eletrônicos,Mercadopago 4/12,7.23
2017-01-23,Eletrônicos,Mercpago Mercadolivre 5/12,32.62
2017-01-23,Restaurante,Bramex Spoleto,30.81
2017-01-23,Ajuste,Desconto Antecipação Mercadopago,-1.59
2017-01-23,Eletrônicos,Mercpago Mercadoliv,33.16
2017-01-23,Eletrônicos,Mercpago Mercadolivre 1/12,8.4
2017-01-23,Serviços,Ebanx Spotify,26.9
2017-01-23,Eletrônicos,Mercadopago 2/12,7.23
2017-01-23,Supermercado,Emporio Azuki,4.99
2017-01-23,Ajuste,Desconto Antecipação Mercpago Mercadolivre,-7.18
2017-01-23,Ajuste,Desconto Antecipação Mercpago Mercadolivre,-8.31
2017-01-23,Eletrônicos,Mercadopago 6/12,7.23
2017-01-23,Supermercado,Supermercado Padrao,136.45
2017-01-23,Eletrônicos,Mercadopago 3/12,7.23
2017-01-23,Eletrônicos,Mercpago Mercadolivre 4/12,32.62
2017-01-23,Ajuste,Desconto Antecipação Mercadopago,-1.84
2017-01-23,Eletrônicos,Mercpago Mercadolivre 6/12,32.62
2017-01-24,Restaurante,Pizzaria Empório Florença,29
2017-01-24,Restaurante,Maria Emilia Correia D,2.5
2017-01-25,Eletrônicos,Paypal Uleason,4.97
2017-01-25,Ajuste,IOF de "Paypal Uleason",0.32
2017-01-25,Restaurante,Mc Donalds Av Fco Mto,11.5
2017-01-26,Restaurante,Mc Donalds Av Fco Mto,8
2017-01-30,Eletrônicos,Mercpago Mercadolivre 3/12,8.4
2017-01-30,Eletrônicos,Mercpago Mercadolivre 6/12,8.4
2017-01-30,Eletrônicos,Mercpago Mercadolivre 2/12,8.4
2017-01-30,Eletrônicos,Mercpago Mercadolivre 5/12,8.4
2017-01-30,Eletrônicos,Mercpago Mercadolivre 7/12,8.4
2017-01-30,Eletrônicos,Mercpago Mercadolivre 4/12,8.4
2017-01-30,Ajuste,Desconto Antecipação Mercpago Mercadolivre,-2.49
2017-01-31,Eletrônicos,Mercpago Mercadolivre 9/12,32.62
2017-01-31,Ajuste,Desconto Antecipação Mercpago Mercadolivre,-2.11
2017-01-31,Pagamento,Pagamento recebido,-800
2017-01-31,Ajuste,Desconto Antecipação Mercpago Mercadolivre,-0.25
2017-01-31,Ajuste,Desconto Antecipação Mercadopago,-0.47
2017-01-31,Eletrônicos,Mercpago Mercadolivre 10/12,32.62
2017-01-31,Eletrônicos,Mercpago Mercadolivre 8/12,32.62
2017-01-31,Transporte,Uber Uber Br Jan27 Q7t,14.94
2017-01-31,Eletrônicos,Mercadopago 8/12,7.23
2017-01-31,Eletrônicos,Mercpago Mercadolivre 7/12,32.62
2017-01-31,Eletrônicos,Mercpago Mercadolivre 8/12,8.4
2017-01-31,Eletrônicos,Paypal do Brasil,33.44
2017-01-31,Eletrônicos,Mercadopago 7/12,7.23
2017-01-31,Ajuste,Desconto Antecipação Mercpago Mercadolivre,-1.35
2017-01-31,Restaurante,Maria Emilia Correia D,6
2017-02-01,Serviços,Recarga Tim,30
2017-02-01,Eletrônicos,Mercpago Mercadolivre 1/12,23.12
2017-02-01,Casa,Klein e Klein,12.9
2017-02-01,Restaurante,Uber Uber Br Jan29 Xjd,37
2017-02-03,Ajuste,Desconto Antecipação Mercpago Mercadolivre,-6.04
2017-02-03,Eletrônicos,Mercpago Mercadolivre 3/12,23.09
2017-02-03,Eletrônicos,Mercpago Mercadolivre 4/12,23.09
2017-02-03,Eletrônicos,Mercpago Mercadolivre 5/12,23.09
2017-02-03,Eletrônicos,Mercpago Mercadolivre 6/12,23.09
2017-02-03,Eletrônicos,Mercpago Mercadolivre 2/12,23.09
2017-02-05,Eletrônicos,Mercpago Mercadolivre 7/12,23.09
2017-02-05,Ajuste,Desconto Antecipação Mercpago Mercadolivre,-1.54
2017-02-05,Eletrônicos,Mercpago Mercadolivre 8/12,23.09