date,category,title,amount
2017-11-30,Eletrônicos,Mercpago*Mercadolivre 6/6,8.65
2017-11-30,Supermercado,Xis -Carrefour Express,19.88
2017-11-30,Eletrônicos,Mercpago*Mercadolivre 6/6,9.98
2017-11-30,Vestuário,Netshoes 5/7,44.06
2017-11-30,Transporte,Eucatur 5/5,11
2017-11-30,Eletrônicos,Pagsegurouol*Boacompra 4/4,5.14
2017-11-30,Vestuário,Traxart 9/12,49.91
2017-11-30,Vestuário,Caravelle Sports 2/2,42
2017-11-30,Eletrônicos,Mercpago-Mercadolivre 6/12,12.48
2017-11-30,Transporte,Eucatur 6/10,12.35
2017-11-30,Eletrônicos,Mercpago-Mercadolivre 4/12,9.91
2017-11-30,Saúde,Shmg Distribuidora 2/6,19.33
2017-11-30,Eletrônicos,Mercpago*Mercadolivre 2/6,9.65
2017-11-30,Vestuário,Decathlon 3/4,59.99
2017-11-30,Vestuário,Mercpago-Mercadolivre 2/12,24.16
2017-11-30,Outros,Mercadolivre 2/4,8.18
2017-11-30,Vestuário,Fmmotos 3/5,26.4
2017-11-30,Eletrônicos,Mercpago-Mercadolivre 5/12,11.66
2017-11-30,Eletrônicos,Mercpago*Mercadolivre 6/6,8.65
2017-11-30,Restaurante,Nutricap Com Prod Alim,9
2017-12-02,Restaurante,Bog Mania,10
2017-12-02,Serviços,Recarga Tim Autom,50
2017-12-02,Restaurante,Nutricap Com Prod Alim,10.5
2017-12-02,Restaurante,Tia Bia Lanches,13.7
2017-12-04,Eletrônicos,Google Play Tinder,47.99
2017-12-04,Lazer,Pag*Boacompra,4.99
2017-12-04,Restaurante,Mc Donalds Acc,14.5
2017-12-04,Lazer,Pag*Boacompra,1.15
2017-12-04,Eletrônicos,Netflix.Com,27.9
2017-12-04,Supermercado,Pa 2408 Panamericana,29.75
2017-12-04,Restaurante,Habibs Cerro Cora,4.95
2017-12-05,Ajuste,IOF de "Www.Ovh.Com",0.96
2017-12-05,Transporte,99* Taxi 04dez 09h56mi,8.1
2017-12-05,Restaurante,Lanchonete da Fisica,7
2017-12-05,Serviços,Www.Ovh.Com,15.11
2017-12-06,Transporte,Uber do Brasil Tecnolo,54.82
2017-12-06,Restaurante,Rei do Mate,22.5
2017-12-06,Viagem,Azul Linhas Aereas Web 1/2,20
2017-12-06,Restaurante,Bobs,16
2017-12-06,Restaurante,Bobs Burgers,13
2017-12-06,Pagamento,Pagamento recebido,-1979.68
2017-12-07,Ajuste,Variação cambial,0.05
2017-12-07,Eletrônicos,Netflix.Com,22.9
2017-12-07,Transporte,Bicicletaria Jaciara,35
2017-12-07,Supermercado,Irmaos Goncalves F22,30.71
2017-12-07,Saúde,Farmacia Sao Paulo,75.44
2017-12-07,Supermercado,Inovacao,13.98
2017-12-07,Transporte,Bicicletaria Jaciara 1/2,54.5
2017-12-07,Restaurante,Acai Mania,27
2017-12-08,Restaurante,Restaurante Boi Na,22.46
2017-12-09,Supermercado,Naturelabrasil,19.5
2017-12-09,Supermercado,Irmaos Goncalves F22,10.04
2017-12-09,Restaurante,Chiquinho Sorvetes,10
2017-12-11,Restaurante,Pizzas Dom Lucas,60.67
2017-12-11,Restaurante,Anderson,8
2017-12-11,Restaurante,Fogao Cia.,60.63
2017-12-12,Supermercado,Irmaos Goncalves F22,15.54
2017-12-13,Supermercado,Speedy Conveniencia,11
2017-12-13,Restaurante,A M da Conceicao,20.75
2017-12-15,Serviços,Google Play Kitxoo,3.97
2017-12-16,Restaurante,Acai Gold,10
2017-12-16,Restaurante,Subway,11
2017-12-16,Supermercado,Irmaos Goncalves F22,13.77
2017-12-16,Lazer,Cine Laser Cinemas,30
2017-12-18,Supermercado,Irmaos Goncalves F22,16.44
2017-12-18,Saúde,Farmacia Sao Paulo,5
2017-12-18,Restaurante,Lanchonete Jequetiba,32
2017-12-18,Restaurante,Pag*Pastelorei,10
2017-12-19,Vestuário,Bicicletaria Jaciara 1/2,40
2017-12-19,Outros,Fsp Assinaturas,1.9
2017-12-19,Restaurante,Lanchonete O Gaudencio,22
2017-12-19,Supermercado,Irmaos Goncalves F22,39.06
2017-12-19,Restaurante,Marineuza M de Lima,15
2017-12-19,Restaurante,Jn Comercio de Alimen,12.23
2017-12-19,Restaurante,Panqueca Mania,27.99
2017-12-19,Supermercado,Cacau Show,64.65
2017-12-20,Outros,Mercpago 1/12,9.12
2017-12-20,Transporte,Solimoes Transp Passag,76
2017-12-21,Supermercado,Speedy Conveniencia,16
2017-12-25,Viagem,Azul Linhas Aereas Cap 1/2,20
2017-12-25,Restaurante,Panificadora e Cafeter,50.93
2017-12-25,Restaurante,Elsossego,32.79
2017-12-27,Restaurante,Rei do Mate,9.2
2017-12-27,Supermercado,Supermercado Nova Era,26.16
2017-12-28,Serviços,Google Play Tinder,12.99
2017-12-28,Serviços,Www.Ovh.Com,15.36
2017-12-28,Ajuste,IOF de "Www.Ovh.Com",0.98
2017-12-30,Eletrônicos,Ebanx-Spotify,8.5