date,category,title,amount
2015-09-04,Restaurante,Ke Supimpa,10
2015-09-09,Lazer,Cinemark Eldorado,30
2015-09-09,Restaurante,Burger King Shopping e,36.9
2015-09-09,Serviços,Associacao Floricultor,22.5
2015-09-09,Supermercado,Minimercado Lj,27.19
2015-09-09,Restaurante,Ke Supimpa,7
2015-09-09,Outros,Uber Uber,20.1
2015-09-09,Restaurante,Tubaina,59.73
2015-09-09,Lazer,Pagsegurouol Escape,79
2015-09-10,Casa,Materias Bergamini,63.8
2015-09-10,Supermercado,Minimercado Lj,40.18
2015-09-11,Transporte,Kaiowa Ldk 1/3,57.22
2015-09-11,Restaurante,Pizzaria Express,9
2015-09-11,Supermercado,Biscoito da Vov,9.56
2015-09-11,Supermercado,Mania Mais,4
2015-09-12,Restaurante,Paloma Rest Lanchon,20.59
2015-09-15,Serviços,Mercadopago Mlivre 1/3,5.55
2015-09-15,Transporte,Kaiowa Ldk 1/3,56.88
2015-09-15,Outros,Mlivre 1/6,6.14
2015-09-15,Restaurante,Panificadora Marialva,19.32
2015-09-15,Outros,Mlivre 1/6,6.84
2015-09-15,Restaurante,Mc Donalds Asp,8
2015-09-15,Restaurante,Subway,14
2015-09-15,Supermercado,Minimercado Lj,5.11
2015-09-15,Pagamento,Pagamento recebido,-784.71
2015-09-15,Serviços,Batatas Fritas Amelia,5
2015-09-15,Restaurante,Paloma Rest Lanchon,41.15
2015-09-16,Transporte,Eucatur 2/10,13.1
2015-09-16,Transporte,Ciclo Felline,30
2015-09-16,Outros,Pagseguro 2/3,16.66
2015-09-16,Serviços,Mercadopago Mlivre 4/6,6.52
2015-09-16,Serviços,Casa das Biciclet 3/3,57.33
2015-09-16,Serviços,Ciclo Felline 3/3,74.33
2015-09-16,Serviços,Mercadopago Mlivre 4/5,6.79
2015-09-19,Serviços,Recarga Tim,30
2015-09-19,Restaurante,Ke Supimpa,4
2015-09-22,Restaurante,Habib S,24.06
2015-09-22,Transporte,Raposo Tavares,15
2015-09-25,Restaurante,Ke Supimpa,3.5
2015-09-29,Lazer,Cinemark Eldorado,34
2015-09-29,Supermercado,Minimercado Lj,46.24
2015-09-29,Restaurante,Habibs Corifeu,38.26
2015-09-29,Restaurante,Ke Supimpa,6
2015-09-29,Supermercado,Carrefour Ere,47.31
2015-09-30,Vestuário,Centauro Com 1/4,25.26
2015-10-01,Restaurante,Nutricap Com Prod Alim,4