V(canais);V(calib);i(canais);E(i);n(i)
0;0.0000;0.0000;0.0000;0;
1;0.1715;0.0000;0.0000;0;
2;0.3431;0.0000;118.4622;8;
3;0.5146;0.0450;29.8102;200;
4;0.6862;0.0650;29.5798;200;
5;0.8577;0.0000;25.0694;200;
6;1.0292;0.0270;63.7533;37;
7;1.2008;0.0333;64.7746;30;
8;1.3723;0.0323;77.1940;31;
9;1.5438;0.0000;79.1652;27;
10;1.7154;0.0833;89.9243;24;
11;1.8869;0.0400;90.2546;25;
12;2.0585;0.2857;92.6229;28;
13;2.2300;0.1905;90.4829;21;
14;2.4015;0.4194;76.5660;31;
15;2.5731;0.3333;93.8367;12;
16;2.7446;0.2105;87.8813;19;
17;2.9162;0.4000;58.9307;30;
18;3.0877;0.2857;72.2973;21;
19;3.2592;0.1000;73.5697;20;
20;3.4308;0.6364;76.7829;22;
21;3.6023;0.7500;91.2607;20;
22;3.7738;0.2500;87.0976;20;
23;3.9454;0.3684;74.3712;19;
24;4.1169;1.0800;76.3167;25;
25;4.2885;0.6667;102.6737;15;
26;4.4600;0.6000;78.6527;20;
27;4.6315;1.0000;81.2733;16;
28;4.8031;0.2857;79.4831;21;
29;4.9746;1.8333;58.3522;30;
30;5.1462;0.8333;83.9212;18;
31;5.3177;1.0000;84.3608;8;
32;5.4892;1.5000;66.3868;18;
33;5.6608;0.8636;67.8823;22;
34;5.8323;0.5263;73.4803;19;
35;6.0038;3.6522;49.5884;23;
36;6.1754;1.0769;80.8894;13;
37;6.3469;1.8235;57.0156;17;
38;6.5185;1.8421;62.4130;19;
39;6.6900;1.0556;87.4418;18;
40;6.8615;1.1765;104.6768;17;
41;7.0331;1.4000;122.4017;15;
42;7.2046;6.0000;107.1066;20;
43;7.3762;1.8667;174.8940;15;
44;7.5477;8.5455;183.4611;22;
45;7.7192;18.1304;217.0676;23;
46;7.8908;13.2727;213.8801;22;
47;8.0623;20.5000;327.0416;8;
48;8.2338;22.2105;230.4046;19;
49;8.4054;12.9130;226.2289;23;
50;8.5769;20.0000;220.4979;26;
51;8.7485;12.9091;242.1817;22;
52;8.9200;16.5789;254.3186;19;
53;9.0915;31.8571;283.0040;14;
54;9.2631;9.6500;242.1044;20;
55;9.4346;10.9444;233.2886;18;
56;9.6062;11.1667;271.2233;18;
57;9.7777;13.8750;232.6902;24;
58;9.9492;9.9231;325.8185;13;
59;10.1208;24.2143;328.4631;14;
60;10.2923;20.8947;299.5278;19;
61;10.4638;20.0000;307.6441;23;
62;10.6354;11.3810;315.2611;21;
63;10.8069;28.9231;394.9117;13;
64;10.9785;32.0000;446.0597;16;
65;11.1500;37.0476;418.7019;21;
66;11.3215;82.8958;297.4451;48;
67;11.4931;74.3111;310.0344;45;
68;11.6646;80.6744;323.1092;43;
69;11.8362;77.2000;349.7265;35;
70;12.0077;17.8667;434.4180;15;
71;12.1792;11.5833;231.2600;12;
72;12.3508;22.1667;170.7277;24;
73;12.5223;12.5455;164.9518;22;
74;12.6938;10.2000;193.3531;15;
75;12.8654;11.0714;200.1143;14;
76;13.0369;10.4706;193.2313;17;
77;13.2085;19.6875;203.4718;16;
78;13.3800;11.8421;164.5442;19;
79;13.5515;13.9444;165.5932;18;
80;13.7231;17.5714;229.5563;14;
81;13.8946;32.8750;226.7637;16;
82;14.0662;38.3043;168.2056;23;
83;14.2377;36.1176;195.8796;17;
84;14.4092;25.6842;192.9847;19;
85;14.5808;41.3750;172.2525;24;
86;14.7523;45.9412;208.5443;17;
87;14.9238;61.2308;214.1945;13;
88;15.0954;56.3636;167.9160;22;
89;15.2669;54.2105;188.3989;19;
90;15.4385;66.2500;166.2881;20;
91;15.6100;65.3636;154.1250;22;
92;15.7815;83.2632;162.2717;19;
93;15.9531;75.8500;152.6507;20;
94;16.1246;89.7500;129.0557;20;
95;16.2962;83.3333;147.9438;12;
96;16.4677;92.9130;104.2515;23;
97;16.6392;100.8636;107.4060;22;
98;16.8108;105.2500;94.5942;16;
99;16.9823;109.0526;85.9169;19;
100;17.1538;113.2941;69.9028;17;
101;17.3254;120.0000;62.6720;15;
102;17.4969;126.7917;53.7586;24;
103;17.6685;128.0000;20.5063;22;
104;17.8400;128.0000;17.3411;12;
105;18.0115;0.0000;0.0000;0;
106;18.1831;0.0000;0.0000;0;
107;18.3546;0.0000;0.0000;0;
108;18.5262;0.0000;0.0000;0;
109;18.6977;0.0000;0.0000;0;
110;18.8692;0.0000;0.0000;0;
111;19.0408;0.0000;0.0000;0;
112;19.2123;0.0000;0.0000;0;
113;19.3838;0.0000;0.0000;0;
114;19.5554;0.0000;0.0000;0;
115;19.7269;0.0000;0.0000;0;
116;19.8985;0.0000;0.0000;0;
117;20.0700;0.0000;0.0000;0;
118;20.2415;0.0000;0.0000;0;
119;20.4131;0.0000;0.0000;0;
120;20.5846;0.0000;0.0000;0;
121;20.7562;0.0000;0.0000;0;
122;20.9277;0.0000;0.0000;0;
123;21.0992;0.0000;0.0000;0;
124;21.2708;0.0000;0.0000;0;
125;21.4423;0.0000;0.0000;0;
126;21.6138;0.0000;0.0000;0;
127;21.7854;0.0000;0.0000;0;
128;21.9569;0.0000;0.0000;0;
129;22.1285;0.0000;0.0000;0;
130;22.3000;0.0000;0.0000;0;
131;22.4715;0.0000;0.0000;0;
132;22.6431;0.0000;0.0000;0;
133;22.8146;0.0000;0.0000;0;
134;22.9862;0.0000;0.0000;0;
135;23.1577;0.0000;0.0000;0;
136;23.3292;0.0000;0.0000;0;
137;23.5008;0.0000;0.0000;0;
138;23.6723;0.0000;0.0000;0;
139;23.8438;0.0000;0.0000;0;
140;24.0154;0.0000;0.0000;0;
141;24.1869;0.0000;0.0000;0;
142;24.3585;0.0000;0.0000;0;
143;24.5300;0.0000;0.0000;0;
144;24.7015;0.0000;0.0000;0;
145;24.8731;0.0000;0.0000;0;
146;25.0446;0.0000;0.0000;0;
147;25.2162;0.0000;0.0000;0;
148;25.3877;0.0000;0.0000;0;
149;25.5592;0.0000;0.0000;0;
150;25.7308;0.0000;0.0000;0;
151;25.9023;0.0000;0.0000;0;
152;26.0738;0.0000;0.0000;0;
153;26.2454;0.0000;0.0000;0;
154;26.4169;0.0000;0.0000;0;
155;26.5885;0.0000;0.0000;0;
156;26.7600;0.0000;0.0000;0;
157;26.9315;0.0000;0.0000;0;
158;27.1031;0.0000;0.0000;0;
159;27.2746;0.0000;0.0000;0;
160;27.4462;0.0000;0.0000;0;
161;27.6177;0.0000;0.0000;0;
162;27.7892;0.0000;0.0000;0;
163;27.9608;0.0000;0.0000;0;
164;28.1323;0.0000;0.0000;0;
165;28.3038;0.0000;0.0000;0;
166;28.4754;0.0000;0.0000;0;
167;28.6469;0.0000;0.0000;0;
168;28.8185;0.0000;0.0000;0;
169;28.9900;0.0000;0.0000;0;
170;29.1615;0.0000;0.0000;0;
171;29.3331;0.0000;0.0000;0;
172;29.5046;0.0000;0.0000;0;
173;29.6762;0.0000;0.0000;0;
174;29.8477;0.0000;0.0000;0;
175;30.0192;0.0000;0.0000;0;
176;30.1908;0.0000;0.0000;0;
177;30.3623;0.0000;0.0000;0;
178;30.5338;0.0000;0.0000;0;
179;30.7054;0.0000;0.0000;0;
180;30.8769;0.0000;0.0000;0;
181;31.0485;0.0000;0.0000;0;
182;31.2200;0.0000;0.0000;0;
183;31.3915;0.0000;0.0000;0;
184;31.5631;0.0000;0.0000;0;
185;31.7346;0.0000;0.0000;0;
186;31.9062;0.0000;0.0000;0;
187;32.0777;0.0000;0.0000;0;
188;32.2492;0.0000;0.0000;0;
189;32.4208;0.0000;0.0000;0;
190;32.5923;0.0000;0.0000;0;
191;32.7638;0.0000;0.0000;0;
192;32.9354;0.0000;0.0000;0;
193;33.1069;0.0000;0.0000;0;
194;33.2785;0.0000;0.0000;0;
195;33.4500;0.0000;0.0000;0;
196;33.6215;0.0000;0.0000;0;
197;33.7931;0.0000;0.0000;0;
198;33.9646;0.0000;0.0000;0;
199;34.1362;0.0000;0.0000;0;
200;34.3077;0.0000;0.0000;0;
201;34.4792;0.0000;0.0000;0;
202;34.6508;0.0000;0.0000;0;
203;34.8223;0.0000;0.0000;0;
204;34.9938;0.0000;0.0000;0;
205;35.1654;0.0000;0.0000;0;
206;35.3369;0.0000;0.0000;0;
207;35.5085;0.0000;0.0000;0;
208;35.6800;0.0000;0.0000;0;
209;35.8515;0.0000;0.0000;0;
210;36.0231;0.0000;0.0000;0;
211;36.1946;0.0000;0.0000;0;
212;36.3662;0.0000;0.0000;0;
213;36.5377;0.0000;0.0000;0;
214;36.7092;0.0000;0.0000;0;
215;36.8808;0.0000;0.0000;0;
216;37.0523;0.0000;0.0000;0;
217;37.2238;0.0000;0.0000;0;
218;37.3954;0.0000;0.0000;0;
219;37.5669;0.0000;0.0000;0;
220;37.7385;0.0000;0.0000;0;
221;37.9100;0.0000;0.0000;0;
222;38.0815;0.0000;0.0000;0;
223;38.2531;0.0000;0.0000;0;
224;38.4246;0.0000;0.0000;0;
225;38.5962;0.0000;0.0000;0;
226;38.7677;0.0000;0.0000;0;
227;38.9392;0.0000;0.0000;0;
228;39.1108;0.0000;0.0000;0;
229;39.2823;0.0000;0.0000;0;
230;39.4538;0.0000;0.0000;0;
231;39.6254;0.0000;0.0000;0;
232;39.7969;0.0000;0.0000;0;
233;39.9685;0.0000;0.0000;0;
234;40.1400;0.0000;0.0000;0;
235;40.3115;0.0000;0.0000;0;
236;40.4831;0.0000;0.0000;0;
237;40.6546;0.0000;0.0000;0;
238;40.8262;0.0000;0.0000;0;
239;40.9977;0.0000;0.0000;0;
240;41.1692;0.0000;0.0000;0;
241;41.3408;0.0000;0.0000;0;
242;41.5123;0.0000;0.0000;0;
243;41.6838;0.0000;0.0000;0;
244;41.8554;0.0000;0.0000;0;
245;42.0269;0.0000;0.0000;0;
246;42.1985;0.0000;0.0000;0;
247;42.3700;0.0000;0.0000;0;
248;42.5415;0.0000;0.0000;0;
249;42.7131;0.0000;0.0000;0;
250;42.8846;0.0000;0.0000;0;
251;43.0562;0.0000;0.0000;0;
252;43.2277;0.0000;0.0000;0;
253;43.3992;0.0000;0.0000;0;
254;43.5708;0.0000;0.0000;0;
Canal 130 = 22.3000V
Fundo de escala(A)= 30.00 nA
Fator de calib=0.1715