V(canais);V(calib);i(canais);E(i);n(i)
0;0.0000;0.0000;0.0000;0;
1;0.1715;0.0000;0.0000;0;
2;0.3431;0.0000;68.3942;24;
3;0.5146;0.0450;29.8075;200;
4;0.6862;0.0850;29.5758;200;
5;0.8577;0.0100;25.0691;200;
6;1.0292;0.0571;65.5491;35;
7;1.2008;0.0000;65.8812;29;
8;1.3723;0.0000;81.2238;28;
9;1.5438;0.0000;82.2700;25;
10;1.7154;0.0741;84.7805;27;
11;1.8869;0.0667;82.3889;30;
12;2.0585;0.0417;100.0404;24;
13;2.2300;0.2593;79.7922;27;
14;2.4015;0.1667;100.4725;18;
15;2.5731;0.4444;76.6109;18;
16;2.7446;0.3462;75.1198;26;
17;2.9162;0.1667;65.8782;24;
18;3.0877;0.2857;72.2886;21;
19;3.2592;0.6471;79.7844;17;
20;3.4308;0.2857;78.5685;21;
21;3.6023;0.1905;89.0406;21;
22;3.7738;0.7419;69.9343;31;
23;3.9454;0.5000;76.3811;18;
24;4.1169;0.4000;98.4734;15;
25;4.2885;0.4737;91.1745;19;
26;4.4600;1.1739;73.2998;23;
27;4.6315;0.7500;66.2363;24;
28;4.8031;0.4762;79.3996;21;
29;4.9746;0.9000;71.2674;20;
30;5.1462;0.4615;98.4948;13;
31;5.3177;0.5833;68.6601;12;
32;5.4892;2.4138;52.0250;29;
33;5.6608;0.9091;67.4800;22;
34;5.8323;1.5333;82.4127;15;
35;6.0038;0.7857;62.5008;14;
36;6.1754;1.4118;70.0408;17;
37;6.3469;0.7647;56.2738;17;
38;6.5185;3.6400;53.8020;25;
39;6.6900;1.9474;84.2899;19;
40;6.8615;1.6667;123.9977;12;
41;7.0331;1.4000;121.6044;15;
42;7.2046;2.4211;108.6607;19;
43;7.3762;1.2632;154.2145;19;
44;7.5477;1.4444;198.1327;18;
45;7.7192;11.3200;184.4746;25;
46;7.8908;16.8824;224.5992;17;
47;8.0623;22.4615;244.5979;13;
48;8.2338;13.4091;196.7705;22;
49;8.4054;13.5909;213.6176;22;
50;8.5769;9.5000;251.4941;18;
51;8.7485;16.8889;249.5510;18;
52;8.9200;14.6667;302.3672;12;
53;9.0915;15.3500;220.6079;20;
54;9.2631;16.3684;234.4458;19;
55;9.4346;17.8571;202.3907;21;
56;9.6062;22.7000;242.7462;20;
57;9.7777;28.6250;265.1096;16;
58;9.9492;21.0000;279.5194;16;
59;10.1208;11.6667;276.7910;18;
60;10.2923;16.5238;274.3606;21;
61;10.4638;11.1000;313.9272;20;
62;10.6354;18.6842;319.2218;19;
63;10.8069;38.6667;556.6042;6;
64;10.9785;17.3333;447.8764;15;
65;11.1500;17.7619;405.4298;21;
66;11.3215;35.2000;373.0244;25;
67;11.4931;93.7317;291.9880;41;
68;11.6646;76.5476;296.0793;42;
69;11.8362;77.9091;329.3692;33;
70;12.0077;14.3158;375.9960;19;
71;12.1792;15.1111;177.7520;18;
72;12.3508;25.1905;169.0814;21;
73;12.5223;15.9412;170.4532;17;
74;12.6938;8.3889;158.3366;18;
75;12.8654;11.8462;183.1685;13;
76;13.0369;10.2941;175.4275;17;
77;13.2085;15.9048;162.1974;21;
78;13.3800;11.4762;143.3981;21;
79;13.5515;16.4615;178.0947;13;
80;13.7231;34.1429;202.2290;14;
81;13.8946;38.4286;176.2299;21;
82;14.0662;29.3810;158.5108;21;
83;14.2377;27.7368;164.5428;19;
84;14.4092;38.4783;154.1326;23;
85;14.5808;45.7857;199.7179;14;
86;14.7523;45.1250;193.9511;16;
87;14.9238;55.6842;155.7254;19;
88;15.0954;48.9474;161.1870;19;
89;15.2669;60.3200;146.6986;25;
90;15.4385;68.5294;159.9285;17;
91;15.6100;66.0435;133.5514;23;
92;15.7815;72.4375;158.9174;16;
93;15.9531;81.8095;133.7162;21;
94;16.1246;77.0000;113.4815;21;
95;16.2962;89.0526;108.0001;19;
96;16.4677;90.1333;116.8652;15;
97;16.6392;95.0385;90.3415;26;
98;16.8108;106.3750;86.9442;16;
99;16.9823;100.7368;82.0438;19;
100;17.1538;111.5455;59.2639;22;
101;17.3254;114.9048;51.6855;21;
102;17.4969;123.1765;63.5616;17;
103;17.6685;127.5882;23.3122;17;
104;17.8400;128.0000;11.5607;27;
105;18.0115;128.0000;4.2165;8;
106;18.1831;0.0000;0.0000;0;
107;18.3546;0.0000;0.0000;0;
108;18.5262;0.0000;0.0000;0;
109;18.6977;0.0000;0.0000;0;
110;18.8692;0.0000;0.0000;0;
111;19.0408;0.0000;0.0000;0;
112;19.2123;0.0000;0.0000;0;
113;19.3838;0.0000;0.0000;0;
114;19.5554;0.0000;0.0000;0;
115;19.7269;0.0000;0.0000;0;
116;19.8985;0.0000;0.0000;0;
117;20.0700;0.0000;0.0000;0;
118;20.2415;0.0000;0.0000;0;
119;20.4131;0.0000;0.0000;0;
120;20.5846;0.0000;0.0000;0;
121;20.7562;0.0000;0.0000;0;
122;20.9277;0.0000;0.0000;0;
123;21.0992;0.0000;0.0000;0;
124;21.2708;0.0000;0.0000;0;
125;21.4423;0.0000;0.0000;0;
126;21.6138;0.0000;0.0000;0;
127;21.7854;0.0000;0.0000;0;
128;21.9569;0.0000;0.0000;0;
129;22.1285;0.0000;0.0000;0;
130;22.3000;0.0000;0.0000;0;
131;22.4715;0.0000;0.0000;0;
132;22.6431;0.0000;0.0000;0;
133;22.8146;0.0000;0.0000;0;
134;22.9862;0.0000;0.0000;0;
135;23.1577;0.0000;0.0000;0;
136;23.3292;0.0000;0.0000;0;
137;23.5008;0.0000;0.0000;0;
138;23.6723;0.0000;0.0000;0;
139;23.8438;0.0000;0.0000;0;
140;24.0154;0.0000;0.0000;0;
141;24.1869;0.0000;0.0000;0;
142;24.3585;0.0000;0.0000;0;
143;24.5300;0.0000;0.0000;0;
144;24.7015;0.0000;0.0000;0;
145;24.8731;0.0000;0.0000;0;
146;25.0446;0.0000;0.0000;0;
147;25.2162;0.0000;0.0000;0;
148;25.3877;0.0000;0.0000;0;
149;25.5592;0.0000;0.0000;0;
150;25.7308;0.0000;0.0000;0;
151;25.9023;0.0000;0.0000;0;
152;26.0738;0.0000;0.0000;0;
153;26.2454;0.0000;0.0000;0;
154;26.4169;0.0000;0.0000;0;
155;26.5885;0.0000;0.0000;0;
156;26.7600;0.0000;0.0000;0;
157;26.9315;0.0000;0.0000;0;
158;27.1031;0.0000;0.0000;0;
159;27.2746;0.0000;0.0000;0;
160;27.4462;0.0000;0.0000;0;
161;27.6177;0.0000;0.0000;0;
162;27.7892;0.0000;0.0000;0;
163;27.9608;0.0000;0.0000;0;
164;28.1323;0.0000;0.0000;0;
165;28.3038;0.0000;0.0000;0;
166;28.4754;0.0000;0.0000;0;
167;28.6469;0.0000;0.0000;0;
168;28.8185;0.0000;0.0000;0;
169;28.9900;0.0000;0.0000;0;
170;29.1615;0.0000;0.0000;0;
171;29.3331;0.0000;0.0000;0;
172;29.5046;0.0000;0.0000;0;
173;29.6762;0.0000;0.0000;0;
174;29.8477;0.0000;0.0000;0;
175;30.0192;0.0000;0.0000;0;
176;30.1908;0.0000;0.0000;0;
177;30.3623;0.0000;0.0000;0;
178;30.5338;0.0000;0.0000;0;
179;30.7054;0.0000;0.0000;0;
180;30.8769;0.0000;0.0000;0;
181;31.0485;0.0000;0.0000;0;
182;31.2200;0.0000;0.0000;0;
183;31.3915;0.0000;0.0000;0;
184;31.5631;0.0000;0.0000;0;
185;31.7346;0.0000;0.0000;0;
186;31.9062;0.0000;0.0000;0;
187;32.0777;0.0000;0.0000;0;
188;32.2492;0.0000;0.0000;0;
189;32.4208;0.0000;0.0000;0;
190;32.5923;0.0000;0.0000;0;
191;32.7638;0.0000;0.0000;0;
192;32.9354;0.0000;0.0000;0;
193;33.1069;0.0000;0.0000;0;
194;33.2785;0.0000;0.0000;0;
195;33.4500;0.0000;0.0000;0;
196;33.6215;0.0000;0.0000;0;
197;33.7931;0.0000;0.0000;0;
198;33.9646;0.0000;0.0000;0;
199;34.1362;0.0000;0.0000;0;
200;34.3077;0.0000;0.0000;0;
201;34.4792;0.0000;0.0000;0;
202;34.6508;0.0000;0.0000;0;
203;34.8223;0.0000;0.0000;0;
204;34.9938;0.0000;0.0000;0;
205;35.1654;0.0000;0.0000;0;
206;35.3369;0.0000;0.0000;0;
207;35.5085;0.0000;0.0000;0;
208;35.6800;0.0000;0.0000;0;
209;35.8515;0.0000;0.0000;0;
210;36.0231;0.0000;0.0000;0;
211;36.1946;0.0000;0.0000;0;
212;36.3662;0.0000;0.0000;0;
213;36.5377;0.0000;0.0000;0;
214;36.7092;0.0000;0.0000;0;
215;36.8808;0.0000;0.0000;0;
216;37.0523;0.0000;0.0000;0;
217;37.2238;0.0000;0.0000;0;
218;37.3954;0.0000;0.0000;0;
219;37.5669;0.0000;0.0000;0;
220;37.7385;0.0000;0.0000;0;
221;37.9100;0.0000;0.0000;0;
222;38.0815;0.0000;0.0000;0;
223;38.2531;0.0000;0.0000;0;
224;38.4246;0.0000;0.0000;0;
225;38.5962;0.0000;0.0000;0;
226;38.7677;0.0000;0.0000;0;
227;38.9392;0.0000;0.0000;0;
228;39.1108;0.0000;0.0000;0;
229;39.2823;0.0000;0.0000;0;
230;39.4538;0.0000;0.0000;0;
231;39.6254;0.0000;0.0000;0;
232;39.7969;0.0000;0.0000;0;
233;39.9685;0.0000;0.0000;0;
234;40.1400;0.0000;0.0000;0;
235;40.3115;0.0000;0.0000;0;
236;40.4831;0.0000;0.0000;0;
237;40.6546;0.0000;0.0000;0;
238;40.8262;0.0000;0.0000;0;
239;40.9977;0.0000;0.0000;0;
240;41.1692;0.0000;0.0000;0;
241;41.3408;0.0000;0.0000;0;
242;41.5123;0.0000;0.0000;0;
243;41.6838;0.0000;0.0000;0;
244;41.8554;0.0000;0.0000;0;
245;42.0269;0.0000;0.0000;0;
246;42.1985;0.0000;0.0000;0;
247;42.3700;0.0000;0.0000;0;
248;42.5415;0.0000;0.0000;0;
249;42.7131;0.0000;0.0000;0;
250;42.8846;0.0000;0.0000;0;
251;43.0562;0.0000;0.0000;0;
252;43.2277;0.0000;0.0000;0;
253;43.3992;0.0000;0.0000;0;
254;43.5708;0.0000;0.0000;0;
Canal 130 = 22.3000V
Fundo de escala(A)= 30.00 nA
Fator de calib=0.1715