V(canais);V(calib);i(canais);E(i);n(i)
0;0.0000;0.0000;0.0000;0;
1;0.1715;0.0000;0.0000;0;
2;0.3431;0.0000;0.0000;0;
3;0.5146;0.0400;29.8000;200;
4;0.6862;0.1250;29.5522;200;
5;0.8577;0.0050;25.0687;200;
6;1.0292;0.0278;64.6313;36;
7;1.2008;0.1154;69.5772;26;
8;1.3723;0.0294;73.7076;34;
9;1.5438;0.0370;79.1622;27;
10;1.7154;0.3636;93.9181;22;
11;1.8869;0.2174;94.0891;23;
12;2.0585;0.3448;91.0022;29;
13;2.2300;0.2800;82.9128;25;
14;2.4015;0.3333;82.0262;27;
15;2.5731;0.5000;93.8128;12;
16;2.7446;0.2308;75.1115;26;
17;2.9162;0.3077;63.2821;26;
18;3.0877;0.4762;72.2725;21;
19;3.2592;0.4000;65.7715;25;
20;3.4308;0.4000;92.9276;15;
21;3.6023;1.0000;83.2537;24;
22;3.7738;0.5455;82.9704;22;
23;3.9454;0.4091;69.0332;22;
24;4.1169;0.1875;95.2712;16;
25;4.2885;1.7391;82.7490;23;
26;4.4600;1.0000;87.7556;16;
27;4.6315;1.0000;76.2916;18;
28;4.8031;0.6190;79.2773;21;
29;4.9746;0.3333;69.1914;21;
30;5.1462;3.0000;73.7190;23;
31;5.3177;0.9000;74.7645;10;
32;5.4892;1.1667;65.2793;18;
33;5.6608;1.0000;68.6110;21;
34;5.8323;1.0909;67.6857;22;
35;6.0038;0.6667;53.8474;18;
36;6.1754;6.8000;72.5973;15;
37;6.3469;1.1176;55.2235;17;
38;6.5185;1.0000;59.7922;19;
39;6.6900;1.9524;78.7620;21;
40;6.8615;1.4118;103.2072;17;
41;7.0331;1.7692;129.4335;13;
42;7.2046;1.9231;128.5382;13;
43;7.3762;24.1481;125.4643;27;
44;7.5477;9.2381;152.6495;21;
45;7.7192;12.1667;155.0897;24;
46;7.8908;15.4737;188.0603;19;
47;8.0623;26.9091;231.0728;11;
48;8.2338;2.5294;192.8103;17;
49;8.4054;23.2083;175.0679;24;
50;8.5769;8.0000;196.8646;22;
51;8.7485;23.1429;206.3978;21;
52;8.9200;27.2222;217.8923;18;
53;9.0915;15.3333;190.9382;21;
54;9.2631;11.6471;218.8651;17;
55;9.4346;16.5000;188.5199;20;
56;9.6062;8.9565;198.5735;23;
57;9.7777;17.8947;220.0687;19;
58;9.9492;31.2727;297.0767;11;
59;10.1208;18.5263;249.9071;19;
60;10.2923;14.3889;276.8979;18;
61;10.4638;11.0000;285.2552;21;
62;10.6354;20.7273;270.6579;22;
63;10.8069;94.5185;239.9656;27;
64;10.9785;80.1000;245.6878;40;
65;11.1500;80.0750;249.6102;40;
66;11.3215;77.0222;230.9940;45;
67;11.4931;73.3810;234.0559;42;
68;11.6646;79.5476;239.3341;42;
69;11.8362;82.4103;242.8650;39;
70;12.0077;73.0541;232.4628;37;
71;12.1792;17.9333;149.3168;15;
72;12.3508;0.9500;122.8754;20;
73;12.5223;7.6842;132.8575;19;
74;12.6938;10.1333;145.3160;15;
75;12.8654;20.2143;147.2632;14;
76;13.0369;21.0714;167.4927;14;
77;13.2085;22.1429;130.8177;21;
78;13.3800;17.3182;113.4013;22;
79;13.5515;16.6429;141.9877;14;
80;13.7231;18.0667;146.7820;15;
81;13.8946;31.5556;134.9533;18;
82;14.0662;27.0000;121.1442;19;
83;14.2377;32.5000;135.3601;16;
84;14.4092;34.1111;136.8017;18;
85;14.5808;55.2800;114.4557;25;
86;14.7523;45.5000;158.6074;14;
87;14.9238;49.7692;142.4648;13;
88;15.0954;64.9524;116.6055;21;
89;15.2669;54.5556;132.7131;18;
90;15.4385;71.5652;104.4867;23;
91;15.6100;74.1765;121.4196;17;
92;15.7815;84.8333;121.0624;18;
93;15.9531;81.0000;107.9105;21;
94;16.1246;95.7895;95.6704;19;
95;16.2962;83.2143;107.1922;14;
96;16.4677;102.2083;78.2693;24;
97;16.6392;107.3333;105.1878;15;
98;16.8108;110.5294;75.2771;17;
99;16.9823;119.1053;77.8938;19;
100;17.1538;125.2000;68.4535;15;
101;17.3254;128.0000;44.7956;27;
102;17.4969;128.0000;67.5014;15;
103;17.6685;0.0000;0.0000;0;
104;17.8400;0.0000;0.0000;0;
105;18.0115;0.0000;0.0000;0;
106;18.1831;0.0000;0.0000;0;
107;18.3546;0.0000;0.0000;0;
108;18.5262;0.0000;0.0000;0;
109;18.6977;0.0000;0.0000;0;
110;18.8692;0.0000;0.0000;0;
111;19.0408;0.0000;0.0000;0;
112;19.2123;0.0000;0.0000;0;
113;19.3838;0.0000;0.0000;0;
114;19.5554;0.0000;0.0000;0;
115;19.7269;0.0000;0.0000;0;
116;19.8985;0.0000;0.0000;0;
117;20.0700;0.0000;0.0000;0;
118;20.2415;0.0000;0.0000;0;
119;20.4131;0.0000;0.0000;0;
120;20.5846;0.0000;0.0000;0;
121;20.7562;0.0000;0.0000;0;
122;20.9277;0.0000;0.0000;0;
123;21.0992;0.0000;0.0000;0;
124;21.2708;0.0000;0.0000;0;
125;21.4423;0.0000;0.0000;0;
126;21.6138;0.0000;0.0000;0;
127;21.7854;0.0000;0.0000;0;
128;21.9569;0.0000;0.0000;0;
129;22.1285;0.0000;0.0000;0;
130;22.3000;0.0000;0.0000;0;
131;22.4715;0.0000;0.0000;0;
132;22.6431;0.0000;0.0000;0;
133;22.8146;0.0000;0.0000;0;
134;22.9862;0.0000;0.0000;0;
135;23.1577;0.0000;0.0000;0;
136;23.3292;0.0000;0.0000;0;
137;23.5008;0.0000;0.0000;0;
138;23.6723;0.0000;0.0000;0;
139;23.8438;0.0000;0.0000;0;
140;24.0154;0.0000;0.0000;0;
141;24.1869;0.0000;0.0000;0;
142;24.3585;0.0000;0.0000;0;
143;24.5300;0.0000;0.0000;0;
144;24.7015;0.0000;0.0000;0;
145;24.8731;0.0000;0.0000;0;
146;25.0446;0.0000;0.0000;0;
147;25.2162;0.0000;0.0000;0;
148;25.3877;0.0000;0.0000;0;
149;25.5592;0.0000;0.0000;0;
150;25.7308;0.0000;0.0000;0;
151;25.9023;0.0000;0.0000;0;
152;26.0738;0.0000;0.0000;0;
153;26.2454;0.0000;0.0000;0;
154;26.4169;0.0000;0.0000;0;
155;26.5885;0.0000;0.0000;0;
156;26.7600;0.0000;0.0000;0;
157;26.9315;0.0000;0.0000;0;
158;27.1031;0.0000;0.0000;0;
159;27.2746;0.0000;0.0000;0;
160;27.4462;0.0000;0.0000;0;
161;27.6177;0.0000;0.0000;0;
162;27.7892;0.0000;0.0000;0;
163;27.9608;0.0000;0.0000;0;
164;28.1323;0.0000;0.0000;0;
165;28.3038;0.0000;0.0000;0;
166;28.4754;0.0000;0.0000;0;
167;28.6469;0.0000;0.0000;0;
168;28.8185;0.0000;0.0000;0;
169;28.9900;0.0000;0.0000;0;
170;29.1615;0.0000;0.0000;0;
171;29.3331;0.0000;0.0000;0;
172;29.5046;0.0000;0.0000;0;
173;29.6762;0.0000;0.0000;0;
174;29.8477;0.0000;0.0000;0;
175;30.0192;0.0000;0.0000;0;
176;30.1908;0.0000;0.0000;0;
177;30.3623;0.0000;0.0000;0;
178;30.5338;0.0000;0.0000;0;
179;30.7054;0.0000;0.0000;0;
180;30.8769;0.0000;0.0000;0;
181;31.0485;0.0000;0.0000;0;
182;31.2200;0.0000;0.0000;0;
183;31.3915;0.0000;0.0000;0;
184;31.5631;0.0000;0.0000;0;
185;31.7346;0.0000;0.0000;0;
186;31.9062;0.0000;0.0000;0;
187;32.0777;0.0000;0.0000;0;
188;32.2492;0.0000;0.0000;0;
189;32.4208;0.0000;0.0000;0;
190;32.5923;0.0000;0.0000;0;
191;32.7638;0.0000;0.0000;0;
192;32.9354;0.0000;0.0000;0;
193;33.1069;0.0000;0.0000;0;
194;33.2785;0.0000;0.0000;0;
195;33.4500;0.0000;0.0000;0;
196;33.6215;0.0000;0.0000;0;
197;33.7931;0.0000;0.0000;0;
198;33.9646;0.0000;0.0000;0;
199;34.1362;0.0000;0.0000;0;
200;34.3077;0.0000;0.0000;0;
201;34.4792;0.0000;0.0000;0;
202;34.6508;0.0000;0.0000;0;
203;34.8223;0.0000;0.0000;0;
204;34.9938;0.0000;0.0000;0;
205;35.1654;0.0000;0.0000;0;
206;35.3369;0.0000;0.0000;0;
207;35.5085;0.0000;0.0000;0;
208;35.6800;0.0000;0.0000;0;
209;35.8515;0.0000;0.0000;0;
210;36.0231;0.0000;0.0000;0;
211;36.1946;0.0000;0.0000;0;
212;36.3662;0.0000;0.0000;0;
213;36.5377;0.0000;0.0000;0;
214;36.7092;0.0000;0.0000;0;
215;36.8808;0.0000;0.0000;0;
216;37.0523;0.0000;0.0000;0;
217;37.2238;0.0000;0.0000;0;
218;37.3954;0.0000;0.0000;0;
219;37.5669;0.0000;0.0000;0;
220;37.7385;0.0000;0.0000;0;
221;37.9100;0.0000;0.0000;0;
222;38.0815;0.0000;0.0000;0;
223;38.2531;0.0000;0.0000;0;
224;38.4246;0.0000;0.0000;0;
225;38.5962;0.0000;0.0000;0;
226;38.7677;0.0000;0.0000;0;
227;38.9392;0.0000;0.0000;0;
228;39.1108;0.0000;0.0000;0;
229;39.2823;0.0000;0.0000;0;
230;39.4538;0.0000;0.0000;0;
231;39.6254;0.0000;0.0000;0;
232;39.7969;0.0000;0.0000;0;
233;39.9685;0.0000;0.0000;0;
234;40.1400;0.0000;0.0000;0;
235;40.3115;0.0000;0.0000;0;
236;40.4831;0.0000;0.0000;0;
237;40.6546;0.0000;0.0000;0;
238;40.8262;0.0000;0.0000;0;
239;40.9977;0.0000;0.0000;0;
240;41.1692;0.0000;0.0000;0;
241;41.3408;0.0000;0.0000;0;
242;41.5123;0.0000;0.0000;0;
243;41.6838;0.0000;0.0000;0;
244;41.8554;0.0000;0.0000;0;
245;42.0269;0.0000;0.0000;0;
246;42.1985;0.0000;0.0000;0;
247;42.3700;0.0000;0.0000;0;
248;42.5415;0.0000;0.0000;0;
249;42.7131;0.0000;0.0000;0;
250;42.8846;0.0000;0.0000;0;
251;43.0562;0.0000;0.0000;0;
252;43.2277;0.0000;0.0000;0;
253;43.3992;0.0000;0.0000;0;
254;43.5708;0.0000;0.0000;0;
Canal 130 = 22.3000V
Fundo de escala(A)= 30.00 nA
Fator de calib=0.1715