V(canais);V(calib);i(canais);E(i);n(i)
0;0.0000;0.0000;0.0000;0;
1;0.1715;0.0000;0.0000;0;
2;0.3431;0.0000;118.4622;8;
3;0.5146;0.0750;29.8029;200;
4;0.6862;0.0650;29.5625;200;
5;0.8577;0.0000;25.0688;200;
6;1.0292;0.0000;67.5052;33;
7;1.2008;0.0000;81.3917;19;
8;1.3723;0.0588;73.7085;34;
9;1.5438;0.0667;75.1009;30;
10;1.7154;0.0769;86.3928;26;
11;1.8869;0.2000;90.2491;25;
12;2.0585;0.4348;102.1870;23;
13;2.2300;0.3636;88.3884;22;
14;2.4015;0.3667;77.8191;30;
15;2.5731;0.2727;69.2884;22;
16;2.7446;0.2000;85.6427;20;
17;2.9162;0.5000;72.1554;20;
18;3.0877;0.2500;74.0648;20;
19;3.2592;0.2174;68.5791;23;
20;3.4308;0.5926;69.2729;27;
21;3.6023;0.5000;83.2599;24;
22;3.7738;0.6471;94.4047;17;
23;3.9454;0.5385;89.8266;13;
24;4.1169;0.7826;79.4804;23;
25;4.2885;0.7200;79.3946;25;
26;4.4600;0.9048;76.6270;21;
27;4.6315;0.6250;80.9914;16;
28;4.8031;0.4167;104.9189;12;
29;4.9746;2.0000;62.2954;26;
30;5.1462;0.7500;79.1019;20;
31;5.3177;0.4000;52.9224;20;
32;5.4892;1.4444;65.5333;18;
33;5.6608;1.4286;84.1872;14;
34;5.8323;0.6111;74.9673;18;
35;6.0038;3.6190;50.3410;21;
36;6.1754;1.2174;58.8298;23;
37;6.3469;0.9474;52.4617;19;
38;6.5185;2.1875;65.6366;16;
39;6.6900;3.4545;109.7559;11;
40;6.8615;1.2778;100.5511;18;
41;7.0331;1.0952;102.1964;21;
42;7.2046;4.0833;95.1889;24;
43;7.3762;3.1667;156.6935;18;
44;7.5477;36.2667;196.2988;15;
45;7.7192;15.3333;175.8688;21;
46;7.8908;8.7895;192.8534;19;
47;8.0623;14.7000;179.7529;20;
48;8.2338;9.3333;192.2171;18;
49;8.4054;34.6250;225.4481;16;
50;8.5769;21.7727;205.3050;22;
51;8.7485;13.4762;210.7687;21;
52;8.9200;14.2727;204.2887;22;
53;9.0915;14.5000;193.7902;22;
54;9.2631;10.8333;218.8577;18;
55;9.4346;15.1538;242.1406;13;
56;9.6062;23.8824;240.2942;17;
57;9.7777;10.5500;222.2406;20;
58;9.9492;12.2857;222.0115;21;
59;10.1208;12.7647;270.0945;17;
60;10.2923;23.2667;310.6046;15;
61;10.4638;21.6000;296.2769;20;
62;10.6354;34.1667;307.6005;18;
63;10.8069;18.4286;282.1473;21;
64;10.9785;38.9500;361.2219;20;
65;11.1500;84.7170;231.7254;53;
66;11.3215;94.1111;244.7286;45;
67;11.4931;82.0556;269.7050;36;
68;11.6646;72.7609;244.7328;46;
69;11.8362;73.9362;236.5294;47;
70;12.0077;51.8000;255.1024;35;
71;12.1792;12.5455;196.7320;11;
72;12.3508;17.9333;151.7118;15;
73;12.5223;1.0000;139.5815;18;
74;12.6938;9.0588;142.8481;17;
75;12.8654;7.9091;123.0996;22;
76;13.0369;15.8000;147.5339;20;
77;13.2085;12.8667;160.7816;15;
78;13.3800;14.0667;146.7655;15;
79;13.5515;15.8571;154.2599;14;
80;13.7231;25.5000;133.7465;22;
81;13.8946;38.3636;135.4622;22;
82;14.0662;28.0000;135.7855;17;
83;14.2377;30.7059;143.7528;17;
84;14.4092;49.2667;161.3567;15;
85;14.5808;38.4091;131.8302;22;
86;14.7523;46.3043;135.1332;23;
87;14.9238;45.1176;132.6301;17;
88;15.0954;63.2222;136.1044;18;
89;15.2669;64.4500;136.1044;20;
90;15.4385;63.4375;133.6499;16;
91;15.6100;77.2273;116.1344;22;
92;15.7815;73.7000;120.1364;20;
93;15.9531;82.5833;107.7299;24;
94;16.1246;89.2222;103.3757;18;
95;16.2962;93.6429;111.2444;14;
96;16.4677;94.3333;101.6571;15;
97;16.6392;104.1364;89.3214;22;
98;16.8108;106.7727;67.3210;22;
99;16.9823;114.2941;82.8531;17;
100;17.1538;121.8824;64.4756;17;
101;17.3254;127.3333;50.8153;21;
102;17.4969;128.0000;50.3126;27;
103;17.6685;128.0000;48.0122;4;
104;17.8400;0.0000;0.0000;0;
105;18.0115;0.0000;0.0000;0;
106;18.1831;0.0000;0.0000;0;
107;18.3546;0.0000;0.0000;0;
108;18.5262;0.0000;0.0000;0;
109;18.6977;0.0000;0.0000;0;
110;18.8692;0.0000;0.0000;0;
111;19.0408;0.0000;0.0000;0;
112;19.2123;0.0000;0.0000;0;
113;19.3838;0.0000;0.0000;0;
114;19.5554;0.0000;0.0000;0;
115;19.7269;0.0000;0.0000;0;
116;19.8985;0.0000;0.0000;0;
117;20.0700;0.0000;0.0000;0;
118;20.2415;0.0000;0.0000;0;
119;20.4131;0.0000;0.0000;0;
120;20.5846;0.0000;0.0000;0;
121;20.7562;0.0000;0.0000;0;
122;20.9277;0.0000;0.0000;0;
123;21.0992;0.0000;0.0000;0;
124;21.2708;0.0000;0.0000;0;
125;21.4423;0.0000;0.0000;0;
126;21.6138;0.0000;0.0000;0;
127;21.7854;0.0000;0.0000;0;
128;21.9569;0.0000;0.0000;0;
129;22.1285;0.0000;0.0000;0;
130;22.3000;0.0000;0.0000;0;
131;22.4715;0.0000;0.0000;0;
132;22.6431;0.0000;0.0000;0;
133;22.8146;0.0000;0.0000;0;
134;22.9862;0.0000;0.0000;0;
135;23.1577;0.0000;0.0000;0;
136;23.3292;0.0000;0.0000;0;
137;23.5008;0.0000;0.0000;0;
138;23.6723;0.0000;0.0000;0;
139;23.8438;0.0000;0.0000;0;
140;24.0154;0.0000;0.0000;0;
141;24.1869;0.0000;0.0000;0;
142;24.3585;0.0000;0.0000;0;
143;24.5300;0.0000;0.0000;0;
144;24.7015;0.0000;0.0000;0;
145;24.8731;0.0000;0.0000;0;
146;25.0446;0.0000;0.0000;0;
147;25.2162;0.0000;0.0000;0;
148;25.3877;0.0000;0.0000;0;
149;25.5592;0.0000;0.0000;0;
150;25.7308;0.0000;0.0000;0;
151;25.9023;0.0000;0.0000;0;
152;26.0738;0.0000;0.0000;0;
153;26.2454;0.0000;0.0000;0;
154;26.4169;0.0000;0.0000;0;
155;26.5885;0.0000;0.0000;0;
156;26.7600;0.0000;0.0000;0;
157;26.9315;0.0000;0.0000;0;
158;27.1031;0.0000;0.0000;0;
159;27.2746;0.0000;0.0000;0;
160;27.4462;0.0000;0.0000;0;
161;27.6177;0.0000;0.0000;0;
162;27.7892;0.0000;0.0000;0;
163;27.9608;0.0000;0.0000;0;
164;28.1323;0.0000;0.0000;0;
165;28.3038;0.0000;0.0000;0;
166;28.4754;0.0000;0.0000;0;
167;28.6469;0.0000;0.0000;0;
168;28.8185;0.0000;0.0000;0;
169;28.9900;0.0000;0.0000;0;
170;29.1615;0.0000;0.0000;0;
171;29.3331;0.0000;0.0000;0;
172;29.5046;0.0000;0.0000;0;
173;29.6762;0.0000;0.0000;0;
174;29.8477;0.0000;0.0000;0;
175;30.0192;0.0000;0.0000;0;
176;30.1908;0.0000;0.0000;0;
177;30.3623;0.0000;0.0000;0;
178;30.5338;0.0000;0.0000;0;
179;30.7054;0.0000;0.0000;0;
180;30.8769;0.0000;0.0000;0;
181;31.0485;0.0000;0.0000;0;
182;31.2200;0.0000;0.0000;0;
183;31.3915;0.0000;0.0000;0;
184;31.5631;0.0000;0.0000;0;
185;31.7346;0.0000;0.0000;0;
186;31.9062;0.0000;0.0000;0;
187;32.0777;0.0000;0.0000;0;
188;32.2492;0.0000;0.0000;0;
189;32.4208;0.0000;0.0000;0;
190;32.5923;0.0000;0.0000;0;
191;32.7638;0.0000;0.0000;0;
192;32.9354;0.0000;0.0000;0;
193;33.1069;0.0000;0.0000;0;
194;33.2785;0.0000;0.0000;0;
195;33.4500;0.0000;0.0000;0;
196;33.6215;0.0000;0.0000;0;
197;33.7931;0.0000;0.0000;0;
198;33.9646;0.0000;0.0000;0;
199;34.1362;0.0000;0.0000;0;
200;34.3077;0.0000;0.0000;0;
201;34.4792;0.0000;0.0000;0;
202;34.6508;0.0000;0.0000;0;
203;34.8223;0.0000;0.0000;0;
204;34.9938;0.0000;0.0000;0;
205;35.1654;0.0000;0.0000;0;
206;35.3369;0.0000;0.0000;0;
207;35.5085;0.0000;0.0000;0;
208;35.6800;0.0000;0.0000;0;
209;35.8515;0.0000;0.0000;0;
210;36.0231;0.0000;0.0000;0;
211;36.1946;0.0000;0.0000;0;
212;36.3662;0.0000;0.0000;0;
213;36.5377;0.0000;0.0000;0;
214;36.7092;0.0000;0.0000;0;
215;36.8808;0.0000;0.0000;0;
216;37.0523;0.0000;0.0000;0;
217;37.2238;0.0000;0.0000;0;
218;37.3954;0.0000;0.0000;0;
219;37.5669;0.0000;0.0000;0;
220;37.7385;0.0000;0.0000;0;
221;37.9100;0.0000;0.0000;0;
222;38.0815;0.0000;0.0000;0;
223;38.2531;0.0000;0.0000;0;
224;38.4246;0.0000;0.0000;0;
225;38.5962;0.0000;0.0000;0;
226;38.7677;0.0000;0.0000;0;
227;38.9392;0.0000;0.0000;0;
228;39.1108;0.0000;0.0000;0;
229;39.2823;0.0000;0.0000;0;
230;39.4538;0.0000;0.0000;0;
231;39.6254;0.0000;0.0000;0;
232;39.7969;0.0000;0.0000;0;
233;39.9685;0.0000;0.0000;0;
234;40.1400;0.0000;0.0000;0;
235;40.3115;0.0000;0.0000;0;
236;40.4831;0.0000;0.0000;0;
237;40.6546;0.0000;0.0000;0;
238;40.8262;0.0000;0.0000;0;
239;40.9977;0.0000;0.0000;0;
240;41.1692;0.0000;0.0000;0;
241;41.3408;0.0000;0.0000;0;
242;41.5123;0.0000;0.0000;0;
243;41.6838;0.0000;0.0000;0;
244;41.8554;0.0000;0.0000;0;
245;42.0269;0.0000;0.0000;0;
246;42.1985;0.0000;0.0000;0;
247;42.3700;0.0000;0.0000;0;
248;42.5415;0.0000;0.0000;0;
249;42.7131;0.0000;0.0000;0;
250;42.8846;0.0000;0.0000;0;
251;43.0562;0.0000;0.0000;0;
252;43.2277;0.0000;0.0000;0;
253;43.3992;0.0000;0.0000;0;
254;43.5708;0.0000;0.0000;0;
Canal 130 = 22.3000V
Fundo de escala(A)= 30.00 nA
Fator de calib=0.1715