Passo;Intensidade
2000;5
2002;7
2004;5
2006;5
2008;6
2010;1
2012;4
2014;3
2016;3
2018;1
2020;7
2022;7
2024;5
2026;7
2028;3
2030;3
2032;4
2034;8
2036;8
2038;2
2040;1
2042;2
2044;6
2046;2
2048;2
2050;5
2052;5
2054;5
2056;2
2058;9
2060;9
2062;3
2064;2
2066;0
2068;5
2070;1
2072;6
2074;6
2076;6
2078;10
2080;10
2082;1
2084;5
2086;4
2088;3
2090;9
2092;9
2094;9
2096;1
2098;2
2100;4
2102;4
2104;1
2106;6
2108;6
2110;5
2112;8
2114;1
2116;1
2118;8
2120;8
2122;8
2124;6
2126;3
2128;0
2130;3
2132;3
2134;3
2136;3
2138;5
2140;6
2142;3
2144;3
2146;3
2148;4
2150;2
2152;2
2154;2
2156;3
2158;3
2160;6
2162;10
2164;0
2166;0
2168;1
2170;3
2172;3
2174;5
2176;9
2178;4
2180;4
2182;1
2184;0
2186;3
2188;3
2190;2
2192;3
2194;3
2196;5
2198;7
2200;11
2202;11
2204;5
2206;2
2208;2
2210;9
2212;5
2214;5
2216;5
2218;5
2220;10
2222;9
2224;9
2226;3
2228;6
2230;6
2232;2
2234;6
2236;2
2238;2
2240;5
2242;3
2244;3
2246;7
2248;8
2250;8
2252;4
2254;1
2256;2
2258;1
2260;2
2262;2
2264;2
2266;3
2268;7
2270;4
2272;4
2274;4
2276;1
2278;11
2280;5
2282;6
2284;5
2286;3
2288;11
2290;3
2292;4
2294;4
2296;6
2298;6
2300;10
2302;4
2304;4
2306;3
2308;3
2310;6
2312;8
2314;6
2316;7
2318;2
2320;4
2322;6
2324;2
2326;4
2328;5
2330;5
2332;6
2334;1
2336;5
2338;5
2340;4
2342;2
2344;1
2346;6
2348;5
2350;7
2352;7
2354;1
2356;3
2358;3
2360;6
2362;1
2364;4
2366;3
2368;3
2370;1
2372;7
2374;7
2376;4
2378;4
2380;3
2382;3
2384;4
2386;4
2388;4
2390;4
2392;7
2394;6
2396;5
2398;1
2400;3
2402;3
2404;3
2406;2
2408;0
2410;1
2412;1
2414;8
2416;10
2418;10
2420;9
2422;7
2424;2
2426;2
2428;3
2430;3
2432;3
2434;2
2436;7
2438;7
2440;2
2442;0
2444;4
2446;2
2448;6
2450;6
2452;6
2454;6
2456;1
2458;7
2460;6
2462;7
2464;7
2466;8
2468;8
2470;6
2472;2
2474;4
2476;4
2478;5
2480;10
2482;10
2484;3
2486;5
2488;6
2490;6
2492;8
2494;3
2496;3
2498;2
2500;2
2502;3
2504;3
2506;5
2508;2
2510;2
2512;9
2514;9
2516;1
2518;11
2520;11
2522;7
2524;8
2526;4
2528;4
2530;4
2532;5
2534;4
2536;4
2538;6
2540;15
2542;15
2544;3
2546;5
2548;5
2550;9
2552;2
2554;2
2556;2
2558;4
2560;6
2562;8
2564;2
2566;2
2568;6
2570;2
2572;2
2574;2
2576;6
2578;4
2580;2
2582;2
2584;3
2586;1
2588;1
2590;3
2592;6
2594;6
2596;5
2598;3
2600;2
2602;2
2604;3
2606;4
2608;8
2610;2
2612;8
2614;5
2616;1
2618;4
2620;4
2622;0
2624;9
2626;9
2628;9
2630;1
2632;2
2634;0
2636;0
2638;3
2640;3
2642;3
2644;4
2646;2
2648;7
2650;4
2652;2
2654;2
2656;6
2658;5
2660;5
2662;8
2664;5
2666;5
2668;4
2670;6
2672;6
2674;16
2676;19
2678;17
2680;24
2682;29
2684;29
2686;35
2688;21
2690;21
2692;33
2694;45
2696;45
2698;37
2700;35
2702;33
2704;33
2706;9
2708;4
2710;4
2712;6
2714;2
2716;2
2718;2
2720;5
2722;5
2724;5
2726;7
2728;7
2730;7
2732;7
2734;6
2736;4
2738;7
2740;0
2742;4
2744;4
2746;6
2748;0
2750;4
2752;2
2754;0
2756;2
2758;2
2760;5
2762;6
2764;4
2766;4
2768;3
2770;6
2772;6
2774;7
2776;8
2778;7
2780;7
2782;6
2784;3
2786;6
2788;6
2790;0
2792;1
2794;1
2796;1
2798;3
2800;1
2802;1
2804;7
2806;2
2808;2
2810;3
2812;2
2814;3
2816;3
2818;9
2820;2
2822;2
2824;6
2826;2
2828;2
2830;2
2832;4
2834;3
2836;3
2838;5
2840;5
2842;5
2844;5
2846;4
2848;0
2850;9
2852;9
2854;8
2856;10
2858;10
2860;3
2862;1
2864;6
2866;5
2868;5
2870;4
2872;1
2874;1
2876;3
2878;3
2880;6
2882;2
2884;7
2886;7
2888;1
2890;5
2892;1
2894;2
2896;9
2898;7
2900;7
2902;7
2904;4
2906;15
2908;16
2910;16
2912;2
2914;2
2916;3
2918;3
2920;4
2922;2
2924;2
2926;1
2928;1
2930;2
2932;5
2934;1
2936;1
2938;6
2940;1
2942;1
2944;9
2946;12
2948;10
2950;4
2952;3
2954;8
2956;2
2958;8
2960;8
2962;1
2964;2
2966;2
2968;2
2970;1
2972;2
2974;8
2976;5
2978;8
2980;8
2982;3
2984;3
2986;6
2988;0
2990;2
2992;2
2994;2
2996;1
2998;3
3000;3
3002;2
3004;2
3006;1
3008;0
3010;3
3012;3
3014;2
3016;7
3018;1
3020;7
3022;1
3024;1
3026;5
3028;3
3030;3
3032;7
3034;6
3036;6
3038;1
3040;1
3042;2
3044;8
3046;4
3048;4
3050;2
3052;2
3054;2
3056;4
3058;2
3060;2
3062;3
3064;1
3066;1
3068;3
3070;6
3072;7
3074;7
3076;7
3078;2
3080;1
3082;3
3084;4
3086;3
3088;0
3090;0
3092;2
3094;2
3096;0
3098;6
3100;6
3102;6
3104;4
3106;2
3108;2
3110;2
3112;4
3114;0
3116;2
3118;2
3120;2
3122;0
3124;0
3126;3
3128;10
3130;2
3132;2
3134;2
3136;4
3138;4
3140;3
3142;7
3144;7
3146;1
3148;2
3150;2
3152;2
3154;3
3156;1
3158;1
3160;5
3162;6
3164;2
3166;2
3168;8
3170;5
3172;8
3174;8
3176;5
3178;1
3180;3
3182;4
3184;6
3186;4
3188;1
3190;1
3192;5
3194;8
3196;6
3198;11
3200;11
3202;6
3204;6
3206;3
3208;3
3210;3
3212;5
3214;2
3216;4
3218;4
3220;3
3222;3
3224;3
3226;5
3228;7
3230;1
3232;2
3234;2
3236;5
3238;5
3240;5
3242;1
3244;4
3246;4
3248;3
3250;4
3252;4
3254;3
3256;1
3258;11
3260;11
3262;4
3264;3
3266;3
3268;8
3270;5
3272;5
3274;5
3276;3
3278;2
3280;4
3282;4
3284;4
3286;7
3288;3
3290;5
3292;5
3294;2
3296;3
3298;3
3300;3
3302;1
3304;3
3306;3
3308;3
3310;8
3312;8
3314;2
3316;2
3318;5
3320;5
3322;2
3324;4
3326;1
3328;2
3330;2
3332;5
3334;0
3336;3
3338;4
3340;4
3342;5
3344;3
3346;2
3348;3
3350;3
3352;4
3354;7
3356;8
3358;3
3360;3
3362;3
3364;3
3366;4
3368;6
3370;4
3372;6
3374;6
3376;6
3378;6
3380;7
3382;3
3384;3
3386;1
3388;1
3390;5
3392;6
3394;6
3396;4
3398;2
3400;2
3402;2
3404;8
3406;8
3408;4
3410;4
3412;1
3414;1
3416;8
3418;8
3420;1
3422;0
3424;4
3426;6
3428;2
3430;2
3432;1
3434;1
3436;4
3438;4
3440;4
3442;5
3444;5
3446;5
3448;4
3450;0
3452;0
3454;8
3456;10
3458;2
3460;2
3462;3
3464;5
3466;5
3468;6
3470;5
3472;3
3474;3
3476;4
3478;1
3480;1
3482;3
3484;1
3486;3
3488;3
3490;9
3492;2
3494;3
3496;3
3498;2
3500;0
3502;0
3504;5
3506;6
3508;0
3510;3
3512;4
3514;5
3516;5
3518;4
3520;5
3522;3
3524;3
3526;3
3528;1
3530;1
3532;4
3534;6
3536;1
3538;1
3540;5
3542;5
3544;1
3546;1
3548;3
3550;3
3552;6
3554;5
3556;2
3558;1
3560;1
3562;2
3564;11
3566;5
3568;2
3570;4
3572;4
3574;4
3576;2
3578;17
3580;17
3582;5
3584;2
3586;2
3588;2
3590;0
3592;4
3594;3
3596;2
3598;2
3600;5
3602;6
3604;6
3606;5
3608;0
3610;0
3612;3
3614;0
3616;4
3618;4
3620;2
3622;4
3624;4
3626;2
3628;3
3630;5
3632;5
3634;1
3636;1
3638;8
3640;2
3642;1
3644;3
3646;1
3648;1
3650;6
3652;6
3654;2
3656;2
3658;5
3660;5
3662;1
3664;6
3666;3
3668;0
3670;0
3672;4
3674;3
3676;4
3678;3
3680;7
3682;7
3684;2
3686;2
3688;1
3690;1
3692;1
3694;2
3696;1
3698;1
3700;1
3702;5
3704;3
3706;3
3708;6
3710;10
3712;6
3714;6
3716;3
3718;0
3720;0
3722;2
3724;2
3726;5
3728;5
3730;6
3732;11
3734;8
3736;8
3738;0
3740;6
3742;5
3744;5
3746;1
3748;1
3750;6
3752;5
3754;1
3756;5
3758;0
3760;7
3762;2
3764;0
3766;2
3768;3
3770;5
3772;4
3774;5
3776;5
3778;4
3780;1
3782;6
3784;6
3786;6
3788;2
3790;2
3792;9
3794;11
3796;1
3798;2
3800;3
3802;3
3804;3
3806;4
3808;3
3810;2
3812;2
3814;2
3816;2
3818;1
3820;1
3822;1
3824;4
3826;1
3828;1
3830;1
3832;8
3834;8
3836;3
3838;4
3840;3
3842;3
3844;4
3846;2
3848;4
3850;4
3852;4
3854;2
3856;3
3858;3
3860;6
3862;2
3864;9
3866;8
3868;2
3870;2
3872;2
3874;2
3876;3
3878;6
3880;6
3882;5
3884;11
3886;5
3888;5
3890;1
3892;4
3894;4
3896;7
3898;1
3900;6
3902;6
3904;3
3906;5
3908;5
3910;3
3912;3
3914;2
3916;5
3918;3
3920;3
3922;4
3924;9
3926;2
3928;2
3930;2
3932;2
3934;1
3936;5
3938;2
3940;5
3942;4
3944;5
3946;2
3948;0
3950;1
3952;4
3954;2
3956;3
3958;2
3960;2
3962;2
3964;3
3966;3
3968;4
3970;3
3972;1
3974;1
3976;3
3978;2
3980;2
3982;4
3984;4
3986;3
3988;5
3990;5
3992;4
3994;8
3996;8
3998;0
4000;7
4002;7
4004;4
4006;8
4008;6
4010;1
4012;1
4014;3
4016;3
4018;6
4020;6
4022;5
4024;1
4026;1
4028;1
4030;3
4032;5
4034;3
4036;4
4038;4
4040;6
4042;6
4044;3
4046;3
4048;3
4050;4
4052;2
4054;5
4056;5
4058;3
4060;1
4062;6
4064;6
4066;4
4068;1
4070;3
4072;3
4074;1
4076;3
4078;3
4080;2
4082;1
4084;2
4086;2
4088;2
4090;4
4092;4
4094;3
4096;5
4098;3
4100;3
4102;2
4104;5
4106;3
4108;3
4110;6
4112;7
4114;4
4116;2
4118;0
4120;0
4122;4
4124;4
4126;2
4128;3
4130;3
4132;5
4134;12
4136;9
4138;1
4140;2
4142;1
4144;5
4146;5
4148;1
4150;3
4152;3
4154;3
4156;3
4158;8
4160;2
4162;2
4164;3
4166;5
4168;5
4170;3
4172;1
4174;1
4176;1
4178;3
4180;2
4182;2
4184;3
4186;7
4188;7
4190;4
4192;2
4194;2
4196;5
4198;4
4200;3
4202;3
4204;1
4206;3
4208;9
4210;12
4212;4
4214;0
4216;2
4218;10
4220;1
4222;1
4224;1
4226;5
4228;3
4230;3
4232;7
4234;8
4236;2
4238;2
4240;5
4242;2
4244;4
4246;4
4248;9
4250;1
4252;1
4254;0
4256;3
4258;5
4260;5
4262;4
4264;2
4266;2
4268;8
4270;2
4272;1
4274;7
4276;7
4278;5
4280;5
4282;5
4284;4
4286;4
4288;4
4290;3
4292;1
4294;3
4296;3
4298;2
4300;1
4302;1
4304;3
4306;0
4308;1
4310;1
4312;2
4314;8
4316;8
4318;8
4320;12
4322;11
4324;11
4326;2
4328;2
4330;2
4332;4
4334;3
4336;1
4338;3
4340;2
4342;0
4344;7
4346;7
4348;7
4350;1
4352;5
4354;2
4356;2
4358;2
4360;2
4362;1
4364;5
4366;5
4368;4
4370;1
4372;7
4374;7
4376;5
4378;5
4380;2
4382;2
4384;3
4386;0
4388;4
4390;4
4392;2
4394;4
4396;1
4398;4
4400;2
4402;3
4404;1
4406;8
4408;2
4410;2
4412;8
4414;4
4416;8
4418;8
4420;2
4422;4
4424;9
4426;1
4428;3
4430;3
4432;0
4434;5
4436;5
4438;5
4440;3
4442;6
4444;6
4446;4
4448;4
4450;3
4452;5
4454;2
4456;4
4458;5
4460;10
4462;2
4464;1
4466;3
4468;3
4470;3
4472;3
4474;4
4476;3
4478;3
4480;5
4482;4
4484;4
4486;2
4488;5
4490;3
4492;5
4494;4
4496;1
4498;1
4500;1
4502;4
4504;2
4506;2
4508;5
4510;5
4512;9
4514;9
4516;6
4518;4
4520;7
4522;0
4524;8
4526;3
4528;3
4530;1
4532;8
4534;2
4536;5
4538;11
4540;4
4542;5
4544;5
4546;0
4548;0
4550;0
4552;3
4554;1
4556;6
4558;6
4560;4
4562;1
4564;1
4566;2
4568;6
4570;3
4572;3
4574;5
4576;2
4578;2
4580;5
4582;10
4584;4
4586;4
4588;2
4590;1
4592;1
4594;5
4596;5
4598;9
4600;10
4602;0
4604;1
4606;3
4608;2
4610;6
4612;4
4614;11
4616;2
4618;2
4620;8
4622;7
4624;6
4626;6
4628;9
4630;1
4632;1
4634;6
4636;6
4638;5
4640;5
4642;3
4644;4
4646;4
4648;0
4650;8
4652;7
4654;3
4656;9
4658;2
4660;2
4662;2
4664;5
4666;7
4668;8
4670;11
4672;11
4674;2
4676;0
4678;10
4680;10
4682;3
4684;3
4686;3
4688;1
4690;1
4692;6
4694;5
4696;6
4698;8
4700;3
4702;3
4704;3
4706;0
4708;0
4710;0
4712;3
4714;4
4716;4
4718;13
4720;7
4722;4
4724;4
4726;4
4728;0
4730;0
4732;6
4734;2
4736;2
4738;2
4740;4
4742;4
4744;6
4746;6
4748;8
4750;2
4752;2
4754;7
4756;6
4758;8
4760;8
4762;7
4764;9
4766;9
4768;6
4770;6
4772;6
4774;6
4776;7
4778;1
4780;6
4782;10
4784;10
4786;7
4788;13
4790;13
4792;1
4794;8
4796;3
4798;3
4800;4
4802;7
4804;7
4806;8
4808;9
4810;9
4812;9
4814;15
4816;6
4818;6
4820;7
4822;4
4824;0
4826;10
4828;5
4830;2
4832;14
4834;14
4836;9
4838;3
4840;3
4842;10
4844;10
4846;11
4848;1
4850;5
4852;10
4854;8
4856;12
4858;12
4860;2
4862;12
4864;12
4866;8
4868;11
4870;5
4872;0
4874;2
4876;4
4878;4
4880;8
4882;3
4884;3
4886;15
4888;4
4890;4
4892;7
4894;12
4896;3
4898;3
4900;2
4902;2
4904;3
4906;3
4908;0
4910;0
4912;9
4914;2
4916;2
4918;4
4920;10
4922;10
4924;10
4926;18
4928;3
4930;11
4932;5
4934;6
4936;3
4938;3
4940;10
4942;2
4944;2
4946;9
4948;9
4950;9
4952;6
4954;5
4956;11
4958;11
4960;8
4962;13
4964;4
4966;4
4968;14
4970;21
4972;10
4974;4
4976;4
4978;6
4980;14
4982;14
4984;5
4986;5
4988;5
4990;17
4992;17
4994;6
4996;6
4998;16
5000;1
5002;1
5004;1
5006;15
5008;3
5010;16
5012;10
5014;10
5016;2
5018;9
5020;9
5022;3
5024;3
5026;15
5028;13
5030;11
5032;19
5034;19
5036;10
5038;10
5040;6
5042;8
5044;8
5046;7
5048;7
5050;16
5052;10
5054;10
5056;3
5058;3
5060;23
5062;23
5064;23
5066;16
5068;16
5070;5
5072;5
5074;5
5076;9
5078;9
5080;8
5082;5
5084;5
5086;5
5088;6
5090;9
5092;9
5094;9
5096;22
5098;22
5100;22
5102;14
5104;14
5106;17
5108;22
5110;10
5112;22
5114;6
5116;6
5118;17
5120;17
5122;15
5124;13
5126;13
5128;13
5130;12
5132;12
5134;7
5136;18
5138;18
5140;18
5142;24
5144;13
5146;13
5148;17
5150;17
5152;6
5154;21
5156;23
5158;23
5160;31
5162;16
5164;27
5166;27
5168;27
5170;33
5172;33
5174;33
5176;25
5178;16
5180;16
5182;16
5184;18
5186;18
5188;18
5190;51
5192;28
5194;36
5196;36
5198;38
5200;38
5202;38
5204;30
5206;30
5208;67
5210;67
5212;39
5214;28
5216;31
5218;20
5220;20
5222;20
5224;41
5226;41
5228;53
5230;36
5232;36
5234;32
5236;32
5238;39
5240;39
5242;39
5244;24
5246;43
5248;43
5250;25
5252;38
5254;38
5256;53
5258;53
5260;40
5262;45
5264;50
5266;40
5268;40
5270;45
5272;45
5274;43
5276;51
5278;51
5280;36
5282;38
5284;36
5286;36
5288;51
5290;57
5292;41
5294;41
5296;54
5298;68
5300;47
5302;57
5304;57
5306;65
5308;65
5310;49
5312;63
5314;58
5316;58
5318;76
5320;90
5322;90
5324;101
5326;101
5328;91
5330;69
5332;79
5334;79
5336;125
5338;144
5340;97
5342;120
5344;134
5346;134
5348;150
5350;84
5352;84
5354;155
5356;149
5358;149
5360;178
5362;152
5364;152
5366;189
5368;189
5370;212
5372;212
5374;223
5376;223
5378;223
5380;231
5382;231
5384;231
5386;291
5388;330
5390;328
5392;378
5394;378
5396;378
5398;400
5400;441
5402;441
5404;441
5406;444
5408;573
5410;518
5412;527
5414;527
5416;627
5418;624
5420;624
5422;580
5424;580
5426;708
5428;669
5430;669
5432;760
5434;760
5436;760
5438;831
5440;831
5442;831
5444;972
5446;972
5448;972
5450;1035
5452;1102
5454;1121
5456;1121
5458;1250
5460;1269
5462;1269
5464;1269
5466;1300
5468;1364
5470;1364
5472;1364
5474;1522
5476;1522
5478;1522
5480;1686
5482;1832
5484;1832
5486;1832
5488;2037
5490;2284
5492;2284
5494;2396
5496;2481
5498;2481
5500;2854
5502;2854
5504;3498
5506;3498
5508;4138
5510;4138
5512;5356
5514;5855
5516;5855
5518;8004
5520;8004
5522;9525
5524;11995
5526;17838
5528;30286
5530;30693
5532;30696
5534;30696
5536;30696
5538;30696
5540;30696
5542;30696
5544;30696
5546;30696
5548;30696
5550;30677
5552;30305
5554;29336
5556;29336
5558;11595
5560;11595
5562;7254
5564;6092
5566;5200
5568;5200
5570;3784
5572;3601
5574;3436
5576;3095
5578;2874
5580;2874
5582;2359
5584;2255
5586;2198
5588;2198
5590;1865
5592;1713
5594;1696
5596;1657
5598;1607
5600;1607
5602;1607
5604;1607
5606;1403
5608;1366
5610;1366
5612;1250
5614;1212
5616;1139
5618;1097
5620;979
5622;994
5624;924
5626;846
5628;795
5630;795
5632;795
5634;709
5636;711
5638;711
5640;682
5642;679
5644;679
5646;625
5648;625
5650;575
5652;522
5654;522
5656;498
5658;464
5660;411
5662;379
5664;427
5666;427
5668;385
5670;389
5672;403
5674;417
5676;329
5678;349
5680;327
5682;311
5684;327
5686;289
5688;270
5690;270
5692;249
5694;221
5696;221
5698;221
5700;206
5702;188
5704;188
5706;189
5708;189
5710;179
5712;180
5714;194
5716;151
5718;138
5720;148
5722;124
5724;143
5726;118
5728;156
5730;118
5732;118
5734;125
5736;73
5738;77
5740;129
5742;88
5744;72
5746;72
5748;75
5750;62
5752;62
5754;67
5756;63
5758;63
5760;54
5762;76
5764;54
5766;56
5768;44
5770;56
5772;40
5774;37
5776;37
5778;32
5780;46
5782;46
5784;29
5786;35
5788;25
5790;34
5792;36
5794;42
5796;42
5798;64
5800;35
5802;30
5804;27
5806;42
5808;27
5810;13
5812;13
5814;19
5816;27
5818;17
5820;17
5822;17
5824;23
5826;21
5828;21
5830;26
5832;26
5834;17
5836;26
5838;29
5840;13
5842;19
5844;16
5846;16
5848;26
5850;11
5852;11
5854;11
5856;23
5858;18
5860;25
5862;8
5864;28
5866;27
5868;27
5870;20
5872;20
5874;17
5876;10
5878;10
5880;15
5882;18
5884;18
5886;16
5888;6
5890;6
5892;12
5894;14
5896;12
5898;6
5900;6
5902;12
5904;11
5906;9
5908;16
5910;16
5912;9
5914;14
5916;6
5918;6
5920;16
5922;4
5924;4
5926;10
5928;15
5930;15
5932;17
5934;4
5936;4
5938;8
5940;8
5942;12
5944;19
5946;30
5948;30
5950;7
5952;3
5954;3
5956;15
5958;8
5960;9
5962;14
5964;14
5966;17
5968;5
5970;5
5972;7
5974;7
5976;6
5978;8
5980;17
5982;17
5984;5
5986;0
5988;9
5990;4
5992;4
5994;9
5996;14
5998;14
6000;9
6002;3
6004;7
6006;7
6008;7
6010;11
6012;10
6014;9
6016;7
6018;8
6020;8
6022;20
6024;11
6026;6
6028;3
6030;7
6032;8
6034;8
6036;3
6038;2
6040;7
6042;7
6044;15
6046;7
6048;7
6050;6
6052;9
6054;5
6056;5
6058;5
6060;4
6062;5
6064;2
6066;2
6068;2
6070;6
6072;8
6074;7
6076;5
6078;6
6080;7
6082;7
6084;11
6086;1
6088;6
6090;18
6092;5
6094;5
6096;5
6098;6
6100;10
6102;4
6104;8
6106;8
6108;8
6110;9
6112;8
6114;18
6116;3
6118;3
6120;4
6122;7
6124;3
6126;11
6128;2
6130;3
6132;3
6134;3
6136;10
6138;9
6140;6
6142;6
6144;2
6146;8
6148;4
6150;4
6152;5
6154;6
6156;6
6158;6
6160;11
6162;5
6164;3
6166;5
6168;2
6170;6
6172;0
6174;5
6176;2
6178;2
6180;3
6182;5
6184;6
6186;6
6188;4
6190;8
6192;6
6194;6
6196;6
6198;7
6200;3
6202;4
6204;7
6206;7
6208;7
6210;1
6212;4
6214;4
6216;7
6218;6
6220;7
6222;7
6224;8
6226;5
6228;11
6230;9
6232;4
6234;3
6236;12
6238;18
6240;18
6242;42
6244;39
6246;39
6248;39
6250;141
6252;163
6254;205
6256;205
6258;332
6260;395
6262;357
6264;278
6266;170
6268;145
6270;124
6272;43
6274;43
6276;27
6278;2
6280;6
6282;7
6284;7
6286;7
6288;11
6290;11
6292;11
6294;11
6296;2
6298;7
6300;3
6302;3
6304;10
6306;8
6308;8
6310;9
6312;12
6314;10
6316;10
6318;4
6320;8
6322;10
6324;10
6326;2
6328;2
6330;2
6332;6
6334;8
6336;8
6338;3
6340;2
6342;11
6344;11
6346;3
6348;4
6350;4
6352;4
6354;3
6356;3
6358;4
6360;11
6362;11
6364;4
6366;2
6368;2
6370;2
6372;13
6374;6
6376;4
6378;4
6380;4
6382;3
6384;0
6386;6
6388;6
6390;12
6392;8
6394;3
6396;2
6398;10
6400;10
6402;10
6404;6
6406;3
6408;8
6410;2
6412;2
6414;2
6416;13
6418;2
6420;8
6422;5
6424;5
6426;2
6428;2
6430;6
6432;3
6434;0
6436;3
6438;6
6440;6
6442;2
6444;5
6446;6
6448;0
6450;1
6452;5
6454;2
6456;2
6458;4
6460;4
6462;3
6464;0
6466;0
6468;1
6470;2
6472;3
6474;8
6476;10
6478;10
6480;0
6482;0
6484;2
6486;3
6488;3
6490;3
6492;6
6494;3
6496;7
6498;9
6500;8
6502;5
6504;5
6506;1
6508;4
6510;4
6512;4
6514;4
6516;8
6518;4
6520;4
6522;4
6524;2
6526;2
6528;6
6530;1
6532;4
6534;2
6536;2
6538;1
6540;5
6542;3
6544;3
6546;3
6548;7
6550;7
6552;1
6554;1
6556;2
6558;2
6560;6
6562;6
6564;9
6566;9
6568;3
6570;5
6572;8
6574;8
6576;6
6578;7
6580;7
6582;5
6584;5
6586;6
6588;5
6590;5
6592;5
6594;5
6596;4
6598;2
6600;2
6602;6
6604;7
6606;3
6608;3
6610;4
6612;4
6614;3
6616;1
6618;6
6620;2
6622;6
6624;3
6626;6
6628;4
6630;5
6632;2
6634;3
6636;10
6638;7
6640;2
6642;7
6644;5
6646;5
6648;6
6650;4
6652;4
6654;2
6656;2
6658;6
6660;6
6662;3
6664;1
6666;1
6668;3
6670;7
6672;7
6674;3
6676;2
6678;7
6680;2
6682;14
6684;3
6686;3
6688;4
6690;10
6692;10
6694;7
6696;7
6698;4
6700;1
6702;1
6704;6
6706;7
6708;7
6710;4
6712;5
6714;5
6716;5
6718;3
6720;6
6722;6
6724;7
6726;4
6728;3
6730;2
6732;6
6734;6
6736;8
6738;4
6740;5
6742;5
6744;4
6746;7
6748;3
6750;3
6752;3
6754;5
6756;3
6758;2
6760;2
6762;3
6764;4
6766;5
6768;3
6770;3
6772;2
6774;0
6776;2
6778;0
6780;9
6782;8
6784;8
6786;4
6788;7
6790;7
6792;4
6794;4
6796;1
6798;6
6800;0
6802;3
6804;3
6806;3
6808;1
6810;3
6812;7
6814;7
6816;3
6818;3
6820;3
6822;3
6824;1
6826;0
6828;0
6830;2
6832;5
6834;5
6836;9
6838;9
6840;7
6842;7
6844;6
6846;7
6848;10
6850;10
6852;3
6854;7
6856;7
6858;4
6860;5
6862;2
6864;2
6866;6
6868;8
6870;8
6872;4
6874;4
6876;3
6878;5
6880;1
6882;1
6884;4
6886;2
6888;2
6890;2
6892;2
6894;7
6896;5
6898;5
6900;0
6902;4
6904;4
6906;7
6908;7
6910;5
6912;2
6914;5
6916;5
6918;6
6920;6
6922;3
6924;3
6926;3
6928;4
6930;3
6932;2
6934;2
6936;2
6938;11
6940;11
6942;5
6944;1
6946;3
6948;3
6950;3
6952;4
6954;5
6956;9
6958;10
6960;2
6962;2
6964;2
6966;5
6968;6
6970;2
6972;4
6974;4
6976;6
6978;5
6980;5
6982;4
6984;6
6986;2
6988;2
6990;1
6992;1
6994;1
6996;5
6998;3
7000;2
7002;2
7004;3
7006;7
7008;6
7010;6
7012;3
7014;5
7016;10
7018;8
7020;9
7022;3
7024;3
7026;8
7028;4
7030;4
7032;0
7034;3
7036;6
7038;6
7040;4
7042;3
7044;3
7046;1
7048;0
7050;0
7052;5
7054;5
7056;3
7058;3
7060;1
7062;5
7064;3
7066;3
7068;5
7070;3
7072;3
7074;8
7076;2
7078;2
7080;2
7082;10
7084;4
7086;8
7088;2
7090;2
7092;11
7094;3
7096;1
7098;2
7100;3
7102;3
7104;6
7106;6
7108;1
7110;1
7112;2
7114;1
7116;3
7118;3
7120;4
7122;4
7124;2
7126;3
7128;3
7130;3
7132;3
7134;1
7136;5
7138;6
7140;6
7142;3
7144;4
7146;2
7148;2
7150;1
7152;2
7154;2
7156;2
7158;8
7160;8
7162;1
7164;1
7166;3
7168;6
7170;6
7172;5
7174;11
7176;2
7178;2
7180;4
7182;4
7184;5
7186;8
7188;8
7190;11
7192;5
7194;4
7196;5
7198;4
7200;5
7202;5
7204;5
7206;7
7208;7
7210;3
7212;4
7214;6
7216;6
7218;4
7220;4
7222;6
7224;6
7226;9
7228;3
7230;8
7232;8
7234;8
7236;3
7238;3
7240;6
7242;0
7244;7
7246;7
7248;4
7250;2
7252;2
7254;6
7256;4
7258;6
7260;6
7262;3
7264;2
7266;2
7268;2
7270;8
7272;8
7274;3
7276;10
7278;10
7280;8
7282;6
7284;6
7286;3
7288;8
7290;4
7292;4
7294;3
7296;4
7298;6
7300;6
7302;3
7304;6
7306;6
7308;1
7310;11
7312;11
7314;7
7316;5
7318;5
7320;5
7322;2
7324;13
7326;2
7328;9
7330;9
7332;7
7334;12
7336;8
7338;9
7340;9
7342;9
7344;5
7346;2
7348;4
7350;13
7352;6
7354;6
7356;6
7358;6
7360;4
7362;14
7364;3
7366;7
7368;7
7370;6
7372;6
7374;9
7376;2
7378;2
7380;2
7382;6
7384;5
7386;5
7388;5
7390;10
7392;12
7394;5
7396;7
7398;10
7400;10
7402;12
7404;6
7406;6
7408;6
7410;9
7412;5
7414;5
7416;4
7418;5
7420;3
7422;3
7424;6
7426;8
7428;9
7430;9
7432;11
7434;5
7436;5
7438;10
7440;5
7442;12
7444;11
7446;11
7448;13
7450;13
7452;19
7454;12
7456;12
7458;9
7460;5
7462;7
7464;7
7466;3
7468;8
7470;8
7472;8
7474;15
7476;9
7478;2
7480;11
7482;11
7484;15
7486;5
7488;5
7490;5
7492;10
7494;25
7496;25
7498;11
7500;6
7502;3
7504;3
7506;3
7508;7
7510;8
7512;4
7514;10
7516;24
7518;19
7520;18
7522;10
7524;17
7526;16
7528;16
7530;16
7532;15
7534;17
7536;14
7538;14
7540;11
7542;16
7544;16
7546;16
7548;16
7550;17
7552;21
7554;17
7556;17
7558;26
7560;26
7562;25
7564;21
7566;36
7568;36
7570;19
7572;49
7574;55
7576;34
7578;34
7580;38
7582;60
7584;60
7586;60
7588;37
7590;37
7592;39
7594;52
7596;56
7598;51
7600;51
7602;92
7604;59
7606;59
7608;98
7610;71
7612;72
7614;72
7616;92
7618;104
7620;104
7622;104
7624;79
7626;127
7628;127
7630;72
7632;127
7634;112
7636;112
7638;84
7640;133
7642;149
7644;149
7646;145
7648;109
7650;109
7652;137
7654;123
7656;123
7658;166
7660;190
7662;155
7664;201
7666;169
7668;211
7670;211
7672;211
7674;263
7676;172
7678;276
7680;271
7682;257
7684;257
7686;257
7688;324
7690;279
7692;363
7694;277
7696;300
7698;309
7700;309
7702;336
7704;313
7706;334
7708;359
7710;339
7712;381
7714;343
7716;432
7718;432
7720;436
7722;444
7724;479
7726;476
7728;442
7730;442
7732;493
7734;493
7736;471
7738;448
7740;448
7742;495
7744;547
7746;484
7748;604
7750;571
7752;645
7754;585
7756;585
7758;566
7760;685
7762;685
7764;657
7766;632
7768;696
7770;706
7772;716
7774;736
7776;760
7778;767
7780;721
7782;721
7784;753
7786;738
7788;717
7790;794
7792;770
7794;770
7796;808
7798;728
7800;721
7802;689
7804;689
7806;708
7808;739
7810;739
7812;776
7814;768
7816;768
7818;819
7820;791
7822;851
7824;851
7826;750
7828;804
7830;804
7832;712
7834;815
7836;754
7838;754
7840;733
7842;808
7844;788
7846;788
7848;745
7850;756
7852;756
7854;802
7856;888
7858;801
7860;801
7862;892
7864;814
7866;814
7868;820
7870;856
7872;905
7874;905
7876;917
7878;946
7880;993
7882;993
7884;996
7886;1008
7888;1008
7890;1034
7892;1031
7894;1018
7896;1018
7898;1127
7900;1020
7902;1073
7904;1073
7906;963
7908;1013
7910;956
7912;964
7914;944
7916;1010
7918;980
7920;980
7922;1012
7924;919
7926;950
7928;1003
7930;874
7932;874
7934;792
7936;834
7938;834
7940;881
7942;805
7944;796
7946;798
7948;719
7950;798
7952;798
7954;723
7956;697
7958;754
7960;754
7962;675
7964;728
7966;728
7968;670
7970;722
7972;665
7974;665
7976;661
7978;695
7980;695
7982;607
7984;643
7986;620
7988;614
7990;688
7992;615
7994;627
7996;571
7998;609
8000;636
8002;560
8004;578
8006;548
8008;507
8010;561
8012;559
8014;491
8016;536
8018;501
8020;501
8022;518
8024;502
8026;502
8028;457
8030;429
8032;491
8034;491
8036;500
8038;456
8040;456
8042;447
8044;407
8046;396
8048;396
8050;431
8052;402
8054;402
8056;442
8058;426
8060;415
8062;415
8064;360
8066;420
8068;420
8070;393
8072;402
8074;361
8076;361
8078;342
8080;319
8082;383
8084;323
8086;287
8088;346
8090;311
8092;311
8094;257
8096;282
8098;275
8100;280
8102;299
8104;232
8106;241
8108;272
8110;218
8112;218
8114;218
8116;219
8118;181
8120;255
8122;205
8124;171
8126;168
8128;151
8130;160
8132;158
8134;150
8136;201
8138;182
8140;174
8142;173
8144;234
8146;234
8148;243
8150;567
8152;797
8154;797
8156;1177
8158;1463
8160;1463
8162;1806
8164;2256
8166;2256
8168;2604
8170;2685
8172;2750
8174;2646
8176;2426
8178;2186
8180;1989
8182;1771
8184;1481
8186;1095
8188;428
8190;225
8192;225
8194;225
8196;96
8198;73
8200;43
8202;43
8204;33
8206;38
8208;47
8210;47
8212;42
8214;39
8216;39
8218;25
8220;41
8222;41
8224;24
8226;34
8228;35
8230;35
8232;27
8234;32
8236;18
8238;21
8240;46
8242;23
8244;23
8246;26
8248;20
8250;19
8252;21
8254;28
8256;18
8258;18
8260;12
8262;21
8264;10
8266;10
8268;23
8270;23
8272;31
8274;31
8276;29
8278;21
8280;21
8282;14
8284;17
8286;14
8288;8
8290;8
8292;16
8294;17
8296;14
8298;14
8300;29
8302;19
8304;19
8306;20
8308;24
8310;38
8312;38
8314;24
8316;30
8318;30
8320;29
8322;11
8324;21
8326;7
8328;6
8330;11
8332;11
8334;9
8336;6
8338;4
8340;4
8342;14
8344;5
8346;22
8348;16
8350;14
8352;12
8354;12
8356;4
8358;9
8360;11
8362;3
8364;17
8366;1
8368;4
8370;4
8372;6
8374;5
8376;8
8378;9
8380;14
8382;14
8384;10
8386;10
8388;16
8390;13
8392;13
8394;13
8396;13
8398;11
8400;11
8402;14
8404;9
8406;9
8408;7
8410;15
8412;11
8414;11
8416;6
8418;3
8420;3
8422;9
8424;6
8426;5
8428;5
8430;2
8432;4
8434;7
8436;7
8438;7
8440;8
8442;8
8444;9
8446;5
8448;3
8450;3
8452;0
8454;2
8456;2
8458;6
8460;4
8462;13
8464;14
8466;14
8468;2
8470;2
8472;10
8474;2
8476;2
8478;12
8480;6
8482;6
8484;8
8486;14
8488;3
8490;3
8492;3
8494;8
8496;4
8498;4
8500;7
8502;2
8504;2
8506;4
8508;6
8510;1
8512;1
8514;1
8516;7
8518;7
8520;8
8522;22
8524;6
8526;8
8528;8
8530;8
8532;2
8534;2
8536;2
8538;2
8540;1
8542;1
8544;5
8546;3
8548;4
8550;14
8552;9
8554;17
8556;7
8558;11
8560;4
8562;6
8564;7
8566;9
8568;7
8570;8
8572;11
8574;10
8576;11
8578;11
8580;17
8582;3
8584;16
8586;6
8588;7
8590;1
8592;1
8594;12
8596;10
8598;4
8600;6
8602;0
8604;5
8606;7
8608;5
8610;9
8612;8
8614;14
8616;17
8618;9
8620;7
8622;7
8624;4
8626;4
8628;3
8630;12
8632;12
8634;15
8636;14
8638;14
8640;14
8642;2
8644;12
8646;12
8648;15
8650;1
8652;12
8654;12
8656;14
8658;14
8660;14
8662;7
8664;13
8666;6
8668;6
8670;15
8672;7
8674;13
8676;21
8678;12
8680;12
8682;11
8684;6
8686;10
8688;10
8690;6
8692;10
8694;25
8696;25
8698;16
8700;18
8702;36
8704;17
8706;17
8708;6
8710;15
8712;15
8714;28
8716;19
8718;19
8720;14
8722;16
8724;16
8726;12
8728;14
8730;11
8732;20
8734;24
8736;23
8738;9
8740;8
8742;9
8744;9
8746;19
8748;17
8750;23
8752;10
8754;8
8756;10
8758;11
8760;9
8762;9
8764;3
8766;12
8768;12
8770;6
8772;8
8774;9
8776;9
8778;12
8780;18
8782;11
8784;11
8786;18
8788;13
8790;13
8792;18
8794;5
8796;5
8798;34
8800;7
8802;12
8804;4
8806;8
8808;7
8810;12
8812;12
8814;9
8816;16
8818;12
8820;3
8822;10
8824;14
8826;14
8828;7
8830;22
8832;22
8834;14
8836;18
8838;21
8840;13
8842;28
8844;8
8846;15
8848;14
8850;16
8852;18
8854;17
8856;7
8858;10
8860;18
8862;13
8864;11
8866;20
8868;24
8870;24
8872;12
8874;13
8876;8
8878;8
8880;10
8882;11
8884;11
8886;8
8888;16
8890;5
8892;5
8894;8
8896;8
8898;8
8900;5
8902;9
8904;6
8906;6
8908;5
8910;7
8912;7
8914;11
8916;4
8918;0
8920;0
8922;7
8924;21
8926;13
8928;25
8930;28
8932;6
8934;6
8936;34
8938;31
8940;23
8942;20
8944;26
8946;16
8948;16
8950;9
8952;7
8954;7
8956;6
8958;6
8960;10
8962;12
8964;5
8966;5
8968;7
8970;11
8972;11
8974;6
8976;4
8978;12
8980;12
8982;12
8984;12
8986;13
8988;13
8990;12
8992;8
8994;8
8996;5
8998;13
9000;19
9002;19
9004;23
9006;9
9008;9
9010;13
9012;14
9014;9
9016;9
9018;12
9020;24
9022;24
9024;7
9026;4
9028;7
9030;7
9032;11
9034;3
9036;5
9038;2
9040;6
9042;10
9044;2
9046;7
9048;6
9050;8
9052;9
9054;8
9056;9
9058;5
9060;5
9062;5
9064;2
9066;2
9068;4
9070;15
9072;15
9074;9
9076;9
9078;12
9080;3
9082;12
9084;12
9086;1
9088;5
9090;5
9092;6
9094;8
9096;7
9098;7
9100;7
9102;9
9104;10
9106;3
9108;11
9110;14
9112;8
9114;8
9116;8
9118;5
9120;6
9122;16
9124;8
9126;8
9128;8
9130;9
9132;5
9134;4
9136;4
9138;2
9140;6
9142;3
9144;10
9146;10
9148;15
9150;10
9152;7
9154;13
9156;2
9158;13
9160;6
9162;3
9164;9
9166;7
9168;6
9170;6
9172;8
9174;8
9176;6
9178;9
9180;9
9182;5
9184;8
9186;24
9188;24
9190;5
9192;8
9194;8
9196;15
9198;7
9200;8
9202;3
9204;5
9206;3
9208;3
9210;3
9212;7
9214;5
9216;5
9218;7
9220;6
9222;6
9224;12
9226;10
9228;11
9230;14
9232;7
9234;17
9236;9
9238;19
9240;12
9242;7
9244;6
9246;3
9248;4
9250;4
9252;4
9254;5
9256;9
9258;11
9260;11
9262;12
9264;12
9266;8
9268;3
9270;8
9272;6
9274;12
9276;5
9278;15
9280;15
9282;5
9284;8
9286;8
9288;6
9290;6
9292;4
9294;4
9296;7
9298;11
9300;11
9302;2
9304;9
9306;8
9308;8
9310;7
9312;12
9314;7
9316;7
9318;4
9320;3
9322;3
9324;10
9326;9
9328;9
9330;9
9332;3
9334;12
9336;7
9338;7
9340;10
9342;19
9344;19
9346;3
9348;4
9350;4
9352;4
9354;3
9356;14
9358;14
9360;4
9362;18
9364;5
9366;5
9368;7
9370;11
9372;19
9374;25
9376;8
9378;12
9380;12
9382;12
9384;5
9386;5
9388;2
9390;4
9392;8
9394;8
9396;6
9398;1
9400;1
9402;2
9404;2
9406;3
9408;3
9410;4
9412;6
9414;3
9416;3
9418;5
9420;9
9422;9
9424;13
9426;4
9428;6
9430;6
9432;3
9434;10
9436;10
9438;7
9440;16
9442;9
9444;12
9446;17
9448;18
9450;1
9452;8
9454;4
9456;6
9458;3
9460;3
9462;3
9464;3
9466;9
9468;7
9470;10
9472;10
9474;3
9476;16
9478;16
9480;2
9482;13
9484;13
9486;5
9488;7
9490;4
9492;8
9494;16
9496;4
9498;16
9500;16
9502;7
9504;19
9506;15
9508;19
9510;2
9512;6
9514;1
9516;7
9518;7
9520;4
9522;4
9524;5
9526;8
9528;7
9530;9
9532;3
9534;3
9536;6
9538;11
9540;6
9542;6
9544;1
9546;7
9548;9
9550;8
9552;9
9554;15
9556;6
9558;1
9560;14
9562;9
9564;7
9566;7
9568;4
9570;4
9572;9
9574;9
9576;1
9578;4
9580;7
9582;3
9584;1
9586;3
9588;7
9590;14
9592;14
9594;4
9596;6
9598;6
9600;6
9602;2
9604;2
9606;6
9608;10
9610;10
9612;3
9614;3
9616;11
9618;11
9620;5
9622;4
9624;6
9626;6
9628;5
9630;4
9632;3
9634;9
9636;6
9638;3
9640;7
9642;7
9644;8
9646;12
9648;12
9650;8
9652;15
9654;3
9656;3
9658;7
9660;6
9662;6
9664;2
9666;5
9668;4
9670;4
9672;8
9674;3
9676;3
9678;3
9680;6
9682;6
9684;14
9686;11
9688;7
9690;5
9692;5
9694;7
9696;13
9698;13
9700;8
9702;6
9704;6
9706;10
9708;10
9710;6
9712;7
9714;7
9716;5
9718;10
9720;10
9722;10
9724;7
9726;8
9728;15
9730;6
9732;6
9734;5
9736;7
9738;4
9740;4
9742;14
9744;10
9746;3
9748;8
9750;8
9752;2
9754;7
9756;3
9758;6
9760;9
9762;4
9764;6
9766;3
9768;2
9770;10
9772;10
9774;7
9776;7
9778;3
9780;3
9782;10
9784;10
9786;22
9788;25
9790;25
9792;8
9794;8
9796;16
9798;7
9800;7
9802;13
9804;6
9806;12
9808;12
9810;4
9812;17
9814;17
9816;7
9818;8
9820;7
9822;7
9824;5
9826;5
9828;3
9830;5
9832;11
9834;11
9836;6
9838;10
9840;10
9842;2
9844;3
9846;3
9848;3
9850;7
9852;7
9854;7
9856;7
9858;10
9860;8
9862;8
9864;6
9866;4
9868;6
9870;6
9872;1
9874;7
9876;17
9878;5
9880;5
9882;6
9884;2
9886;2
9888;9
9890;3
9892;9
9894;4
9896;4
9898;4
9900;2
9902;10
9904;10
9906;9
9908;9
9910;4
9912;6
9914;6
9916;4
9918;4
9920;5
9922;7
9924;7
9926;5
9928;5
9930;6
9932;11
9934;11
9936;3
9938;3
9940;5
9942;5
9944;12
9946;1
9948;4
9950;4
9952;4
9954;3
9956;4
9958;13
9960;13
9962;8
9964;4
9966;4
9968;4
9970;4
9972;4
9974;11
9976;3
9978;3
9980;14
9982;14
9984;3
9986;3
9988;4
9990;5
9992;5
9994;5
9996;7
9998;2
10000;2
10002;2
10004;5
10006;7
10008;7
10010;6
10012;7
10014;5
10016;5
10018;3
10020;3
10022;6
10024;6
10026;7
10028;8
10030;15
10032;15
10034;2
10036;3
10038;3
10040;4
10042;7
10044;1
10046;1
10048;3
10050;4
10052;4
10054;10
10056;10
10058;12
10060;12
10062;1
10064;3
10066;3
10068;9
10070;6
10072;3
10074;3
10076;0
10078;4
10080;10
10082;10
10084;5
10086;3
10088;3
10090;2
10092;2
10094;2
10096;2
10098;0
10100;5
10102;5
10104;4
10106;5
10108;2
10110;2
10112;12
10114;2
10116;2
10118;10
10120;8
10122;1
10124;1
10126;8
10128;6
10130;6
10132;5
10134;5
10136;10
10138;10
10140;10
10142;11
10144;8
10146;1
10148;6
10150;2
10152;2
10154;2
10156;4
10158;2
10160;2
10162;1
10164;3
10166;3
10168;5
10170;3
10172;7
10174;4
10176;4
10178;4
10180;14
10182;14
10184;14
10186;10
10188;10
10190;10
10192;8
10194;4
10196;11
10198;7
10200;1
10202;8
10204;8
10206;2
10208;2
10210;3
10212;3
10214;3
10216;0
10218;3
10220;3
10222;8
10224;5
10226;5
10228;5
10230;2
10232;10
10234;7
10236;13
10238;1
10240;1
10242;4
10244;4
10246;12
10248;10
10250;4
10252;4
10254;10
10256;3
10258;3
10260;21
10262;14
10264;14
10266;9
10268;7
10270;10
10272;9
10274;22
10276;12
10278;4
10280;1
10282;1
10284;6
10286;6
10288;7
10290;7
10292;9
10294;9
10296;6
10298;11
10300;11
10302;6
10304;13
10306;8
10308;8
10310;4
10312;4
10314;4
10316;3
10318;8
10320;8
10322;6
10324;5
10326;5
10328;6
10330;2
10332;1
10334;6
10336;3
10338;4
10340;4
10342;4
10344;3
10346;7
10348;1
10350;1
10352;7
10354;1
10356;9
10358;5
10360;3
10362;6
10364;6
10366;2
10368;4
10370;8
10372;5
10374;13
10376;1
10378;9
10380;8
10382;7
10384;4
10386;19
10388;8
10390;8
10392;5
10394;1
10396;1
10398;6
10400;3
10402;3
10404;2
10406;2
10408;4
10410;6
10412;2
10414;2
10416;8
10418;1
10420;7
10422;4
10424;2
10426;7
10428;7
10430;5
10432;3
10434;10
10436;3
10438;3
10440;3
10442;7
10444;5
10446;6
10448;5
10450;5
10452;3
10454;3
10456;15
10458;3
10460;3
10462;6
10464;6
10466;4
10468;7
10470;7
10472;7
10474;5
10476;5
10478;5
10480;1
10482;4
10484;0
10486;7
10488;7
10490;7
10492;1
10494;1
10496;0
10498;11
10500;4
10502;4
10504;2
10506;4
10508;2
10510;8
10512;6
10514;3
10516;3
10518;1
10520;5
10522;2
10524;5
10526;2
10528;8
10530;8
10532;6
10534;3
10536;3
10538;9
10540;5
10542;5
10544;3
10546;6
10548;2
10550;6
10552;4
10554;5
10556;1
10558;1
10560;0
10562;4
10564;5
10566;3
10568;2
10570;5
10572;0
10574;8
10576;2
10578;3
10580;5
10582;5
10584;3
10586;4
10588;7
10590;7
10592;7
10594;7
10596;5
10598;9
10600;3
10602;3
10604;3
10606;3
10608;1
10610;3
10612;1
10614;4
10616;11
10618;3
10620;4
10622;2
10624;5
10626;5
10628;0
10630;11
10632;6
10634;5
10636;4
10638;3
10640;5
10642;4
10644;12
10646;4
10648;1
10650;5
10652;5
10654;7
10656;3
10658;7
10660;5
10662;2
10664;0
10666;15
10668;4
10670;2
10672;1
10674;3
10676;1
10678;0
10680;0
10682;2
10684;6
10686;2
10688;9
10690;3
10692;3
10694;5
10696;11
10698;5
10700;5
10702;2
10704;7
10706;1
10708;8
10710;9
10712;5
10714;5
10716;2
10718;2
10720;7
10722;1
10724;9
10726;9
10728;6
10730;4
10732;4
10734;3
10736;5
10738;5
10740;2
10742;1
10744;1
10746;6
10748;5
10750;9
10752;9
10754;9
10756;2
10758;0
10760;1
10762;6
10764;6
10766;4
10768;4
10770;7
10772;2
10774;5
10776;1
10778;1
10780;4
10782;11
10784;8
10786;1
10788;5
10790;3
10792;4
10794;5
10796;5
10798;1
10800;9
10802;1
10804;1
10806;1
10808;3
10810;4
10812;0
10814;3
10816;6
10818;6
10820;6
10822;4
10824;3
10826;1
10828;1
10830;8
10832;1
10834;1
10836;2
10838;4
10840;4
10842;6
10844;2
10846;1
10848;1
10850;2
10852;4
10854;4
10856;7
10858;4
10860;8
10862;3
10864;3
10866;3
10868;1
10870;1
10872;4
10874;4
10876;2
10878;2
10880;2
10882;9
10884;9
10886;2
10888;1
10890;5
10892;2
10894;5
10896;4
10898;3
10900;5
10902;3
10904;3
10906;0
10908;4
10910;5
10912;0
10914;3
10916;3
10918;1
10920;3
10922;3
10924;3
10926;5
10928;3
10930;3
10932;6
10934;3
10936;3
10938;9
10940;3
10942;6
10944;5
10946;4
10948;2
10950;6
10952;11
10954;7
10956;4
10958;1
10960;4
10962;3
10964;1
10966;8
10968;8
10970;5
10972;6
10974;4
10976;4
10978;3
10980;9
10982;9
10984;5
10986;1
10988;2
10990;5
10992;2
10994;2
10996;2
10998;4
11000;1
11002;0
11004;2
11006;2
11008;8
11010;4
11012;1
11014;7
11016;7
11018;3
11020;4
11022;5
11024;2
11026;1
11028;1
11030;1
11032;4
11034;4
11036;8
11038;4
11040;8
11042;5
11044;4
11046;2
11048;1
11050;1
11052;4
11054;2
11056;4
11058;2
11060;4
11062;3
11064;3
11066;2
11068;1
11070;1
11072;4
11074;4
11076;2
11078;2
11080;6
11082;6
11084;1
11086;0
11088;3
11090;2
11092;2
11094;5
11096;5
11098;2
11100;7
11102;5
11104;5
11106;5
11108;1
11110;5
11112;5
11114;6
11116;3
11118;3
11120;1
11122;2
11124;0
11126;4
11128;5
11130;1
11132;3
11134;5
11136;0
11138;0
11140;3
11142;7
11144;7
11146;2
11148;2
11150;2
11152;4
11154;1
11156;8
11158;3
11160;8
11162;4
11164;1
11166;0
11168;4
11170;4
11172;9
11174;6
11176;5
11178;5
11180;4
11182;10
11184;3
11186;3
11188;1
11190;7
11192;6
11194;6
11196;13
11198;1
11200;1
11202;5
11204;4
11206;5
11208;5
11210;4
11212;1
11214;1
11216;4
11218;3
11220;2
11222;4
11224;2
11226;9
11228;9
11230;4
11232;2
11234;6
11236;8
11238;0
11240;2
11242;2
11244;13
11246;9
11248;5
11250;10
11252;18
11254;10
11256;3
11258;3
11260;6
11262;2
11264;0
11266;7
11268;7
11270;7
11272;8
11274;3
11276;10
11278;3
11280;3
11282;2
11284;2
11286;2
11288;2
11290;5
11292;1
11294;1
11296;3
11298;4
11300;4
11302;4
11304;8
11306;5
11308;2
11310;4
11312;2
11314;6
11316;3
11318;4
11320;3
11322;4
11324;2
11326;7
11328;2
11330;3
11332;0
11334;0
11336;4
11338;4
11340;4
11342;5
11344;3
11346;1
11348;1
11350;6
11352;4
11354;4
11356;2
11358;2
11360;4
11362;4
11364;0
11366;2
11368;2
11370;9
11372;2
11374;4
11376;3
11378;3
11380;3
11382;10
11384;1
11386;1
11388;5
11390;3
11392;4
11394;5
11396;2
11398;1
11400;1
11402;11
11404;1
11406;3
11408;7
11410;3
11412;2
11414;2
11416;2
11418;8
11420;10
11422;10
11424;10
11426;2
11428;7
11430;7
11432;5
11434;9
11436;1
11438;1
11440;6
11442;6
11444;3
11446;3
11448;3
11450;3
11452;2
11454;1
11456;1
11458;3
11460;0
11462;0
11464;4
11466;5
11468;3
11470;6
11472;4
11474;2
11476;2
11478;6
11480;3
11482;3
11484;1
11486;2
11488;2
11490;2
11492;3
11494;1
11496;1
11498;5
11500;5
11502;5
11504;1
11506;1
11508;3
11510;5
11512;7
11514;7
11516;5
11518;5
11520;3
11522;2
11524;2
11526;3
11528;9
11530;2
11532;2
11534;2
11536;8
11538;8
11540;4
11542;2
11544;5
11546;5
11548;1
11550;1
11552;1
11554;4
11556;0
11558;0
11560;0
11562;6
11564;2
11566;3
11568;3
11570;3
11572;1
11574;1
11576;3
11578;2
11580;6
11582;6
11584;0
11586;6
11588;6
11590;1
11592;4
11594;1
11596;1
11598;2
11600;1
11602;3
11604;4
11606;5
11608;5
11610;1
11612;1
11614;1
11616;1
11618;4
11620;2
11622;1
11624;3
11626;2
11628;2
11630;0
11632;0
11634;5
11636;5
11638;2
11640;6
11642;3
11644;3
11646;5
11648;7
11650;7
11652;1
11654;2
11656;4
11658;0
11660;1
11662;0
11664;0
11666;2
11668;3
11670;3
11672;4
11674;1
11676;1
11678;2
11680;3
11682;5
11684;5
11686;2
11688;1
11690;1
11692;2
11694;1
11696;1
11698;0
11700;1
11702;2
11704;2
11706;6
11708;0
11710;2
11712;2
11714;1
11716;1
11718;3
11720;5
11722;3
11724;4
11726;4
11728;4
11730;2
11732;2
11734;1
11736;2
11738;4
11740;4
11742;1
11744;0
11746;4
11748;2
11750;3
11752;2
11754;2
11756;4
11758;5
11760;2
11762;8
11764;3
11766;0
11768;2
11770;3
11772;2
11774;3
11776;1
11778;0
11780;3
11782;2
11784;6
11786;5
11788;2
11790;1
11792;3
11794;5
11796;3
11798;0
11800;3
11802;3
11804;4
11806;5
11808;1
11810;1
11812;5
11814;7
11816;0
11818;3
11820;1
11822;6
11824;0
11826;3
11828;2
11830;2
11832;0
11834;0
11836;0
11838;2
11840;2
11842;3
11844;7
11846;4
11848;4
11850;1
11852;4
11854;1
11856;7
11858;2
11860;4
11862;2
11864;0
11866;0
11868;0
11870;2
11872;2
11874;4
11876;4
11878;4
11880;5
11882;1
11884;0
11886;0
11888;5
11890;3
11892;3
11894;2
11896;7
11898;3
11900;0
11902;7
11904;5
11906;5
11908;4
11910;3
11912;3
11914;3
11916;4
11918;2
11920;2
11922;2
11924;3
11926;5
11928;5
11930;1
11932;3
11934;5
11936;0
11938;4
11940;5
11942;2
11944;7
11946;2
11948;3
11950;5
11952;3
11954;3
11956;1
11958;2
11960;9
11962;1
11964;5
11966;5
11968;3
11970;2
11972;3
11974;4
11976;3
11978;2
11980;4
11982;4
11984;1
11986;6
11988;5
11990;4
11992;3
11994;1
11996;7
11998;7
12000;5
12002;2
12004;2
12006;2
12008;3
12010;4
12012;4
12014;4
12016;4
12018;6
12020;6
12022;4
12024;0
12026;3
12028;3
12030;0
12032;4
12034;2
12036;2
12038;0
12040;2
12042;9
12044;4
12046;2
12048;2
12050;4
12052;6
12054;1
12056;1
12058;5
12060;1
12062;7
12064;7
12066;2
12068;2
12070;5
12072;7
12074;1
12076;8
12078;8
12080;12
12082;1
12084;1
12086;1
12088;8
12090;3
12092;3
12094;5
12096;1
12098;3
12100;3
12102;2
12104;1
12106;1
12108;1
12110;3
12112;2
12114;2
12116;4
12118;1
12120;4
12122;4
12124;10
12126;6
12128;6
12130;5
12132;9
12134;8
12136;4
12138;4
12140;4
12142;4
12144;6
12146;3
12148;0
12150;0
12152;5
12154;4
12156;4
12158;3
12160;1
12162;3
12164;3
12166;4
12168;5
12170;5
12172;3
12174;3
12176;3
12178;3
12180;1
12182;5
12184;0
12186;4
12188;2
12190;1
12192;1
12194;5
12196;5
12198;1
12200;1
12202;5
12204;5
12206;5
12208;2
12210;2
12212;2
12214;12
12216;5
12218;2
12220;8
12222;2
12224;7
12226;1
12228;6
12230;9
12232;3
12234;7
12236;2
12238;3
12240;8
12242;4
12244;4
12246;1
12248;1
12250;5
12252;5
12254;5
12256;3
12258;5
12260;5
12262;4
12264;2
12266;0
12268;0
12270;2
12272;3
12274;3
12276;4
12278;4
12280;3
12282;1
12284;4
12286;4
12288;5
12290;6
12292;6
12294;6
12296;5
12298;9
12300;9
12302;4
12304;1
12306;0
12308;0
12310;4
12312;5
12314;5
12316;6
12318;1
12320;2
12322;2
12324;3
12326;4
12328;5
12330;2
12332;4
12334;1
12336;1
12338;4
12340;4
12342;4
12344;1
12346;1
12348;2
12350;2
12352;4
12354;3
12356;3
12358;2
12360;0
12362;5
12364;7
12366;5
12368;1
12370;1
12372;5
12374;6
12376;6
12378;5
12380;3
12382;4
12384;4
12386;0
12388;2
12390;9
12392;3
12394;6
12396;6
12398;1
12400;6
12402;3
12404;3
12406;3
12408;2
12410;2
12412;0
12414;1
12416;4
12418;2
12420;2
12422;7
12424;3
12426;3
12428;2
12430;1
12432;7
12434;7
12436;0
12438;5
12440;0
12442;3
12444;4
12446;6
12448;6
12450;2
12452;8
12454;8
12456;0
12458;3
12460;1
12462;1
12464;2
12466;2
12468;2
12470;13
12472;3
12474;7
12476;7
12478;3
12480;3
12482;8
12484;8
12486;3
12488;4
12490;8
12492;8
12494;4
12496;2
12498;1
12500;2
12502;4
12504;4
12506;4
12508;6
12510;7
12512;3
12514;3
12516;1
12518;4
12520;3
12522;4
12524;2
12526;6
12528;1
12530;5
12532;4
12534;9
12536;5
12538;5
12540;4
12542;2
12544;2
12546;8
12548;5
12550;3
12552;3
12554;5
12556;0
12558;4
12560;4
12562;5
12564;3
12566;2
12568;10
12570;5
12572;10
12574;10
12576;4
12578;2
12580;2
12582;1
12584;3
12586;3
12588;3
12590;6
12592;2
12594;2
12596;2
12598;2
12600;0
12602;1
12604;1
12606;1
12608;1
12610;9
12612;4
12614;4
12616;3
12618;5
12620;4
12622;3
12624;2
12626;1
12628;2
12630;2
12632;2
12634;2
12636;2
12638;2
12640;2
12642;3
12644;3
12646;4
12648;1
12650;2
12652;2
12654;3
12656;10
12658;10
12660;5
12662;3
12664;6
12666;6
12668;11
12670;10
12672;10
12674;4
12676;2
12678;1
12680;1
12682;1
12684;2
12686;2
12688;4
12690;3
12692;7
12694;7
12696;4
12698;4
12700;1
12702;2
12704;3
12706;0
12708;0
12710;7
12712;2
12714;2
12716;2
12718;2
12720;2
12722;2
12724;5
12726;0
12728;2
12730;3
12732;5
12734;1
12736;1
12738;3
12740;1
12742;3
12744;1
12746;7
12748;7
12750;6
12752;2
12754;2
12756;5
12758;2
12760;2
12762;6
12764;3
12766;3
12768;3
12770;3
12772;5
12774;5
12776;5
12778;1
12780;9
12782;9
12784;4
12786;4
12788;8
12790;8
12792;1
12794;3
12796;6
12798;6
12800;3
12802;8
12804;3
12806;3
12808;3
12810;1
12812;4
12814;4
12816;4
12818;7
12820;7
12822;6
12824;1
12826;7
12828;7
12830;3
12832;4
12834;4
12836;4
12838;4
12840;4
12842;0
12844;0
12846;3
12848;4
12850;4
12852;4
12854;5
12856;5
12858;2
12860;4
12862;2
12864;2
12866;2
12868;6
12870;6
12872;7
12874;1
12876;4
12878;4
12880;1
12882;2
12884;2
12886;3
12888;4
12890;1
12892;2
12894;1
12896;1
12898;4
12900;2
12902;2
12904;4
12906;6
12908;6
12910;8
12912;5
12914;6
12916;6
12918;3
12920;4
12922;4
12924;2
12926;3
12928;4
12930;1
12932;7
12934;0
12936;3
12938;3
12940;5
12942;1
12944;1
12946;5
12948;4
12950;1
12952;1
12954;5
12956;3
12958;3
12960;8
12962;3
12964;3
12966;1
12968;4
12970;4
12972;1
12974;3
12976;8
12978;2
12980;3
12982;1
12984;2
12986;2
12988;6
12990;2
12992;4
12994;4
12996;4
12998;3
13000;4
13002;0
13004;6
13006;4
13008;4
13010;3
13012;7
13014;7
13016;2
13018;2
13020;5
13022;5
13024;2
13026;8
13028;8
13030;1
13032;5
13034;1
13036;1
13038;1
13040;3
13042;8
13044;8
13046;5
13048;1
13050;1
13052;1
13054;4
13056;4
13058;3
13060;7
13062;2
13064;4
13066;7
13068;2
13070;3
13072;3
13074;8
13076;4
13078;5
13080;7
13082;5
13084;1
13086;0
13088;2
13090;7
13092;4
13094;2
13096;2
13098;5
13100;4
13102;6
13104;6
13106;11
13108;1
13110;1
13112;1
13114;5
13116;6
13118;6
13120;6
13122;6
13124;6
13126;3
13128;5
13130;9
13132;9
13134;3
13136;4
13138;5
13140;5
13142;4
13144;2
13146;2
13148;4
13150;4
13152;1
13154;9
13156;3
13158;6
13160;6
13162;2
13164;8
13166;8
13168;3
13170;7
13172;8
13174;5
13176;4
13178;5
13180;1
13182;6
13184;2
13186;2
13188;1
13190;7
13192;7
13194;6
13196;5
13198;5
13200;4
13202;5
13204;10
13206;10
13208;1
13210;3
13212;3
13214;7
13216;7
13218;1
13220;1
13222;1
13224;1
13226;1
13228;0
13230;3
13232;0
13234;0
13236;0
13238;0
13240;0
13242;0
13244;0
13246;4
13248;4
13250;8
13252;3
13254;1
13256;1
13258;4
13260;15
13262;15
13264;7
13266;3
13268;6
13270;6
13272;6
13274;5
13276;4
13278;4
13280;3
13282;7
13284;3
13286;3
13288;4
13290;3
13292;3
13294;3
13296;4
13298;4
13300;1
13302;6
13304;6
13306;5
13308;1
13310;3
13312;3
13314;3
13316;5
13318;7
13320;7
13322;7
13324;2
13326;2
13328;0
13330;4
13332;3
13334;3
13336;2
13338;1
13340;3
13342;3
13344;4
13346;4
13348;4
13350;3
13352;5
13354;2
13356;2
13358;2
13360;3
13362;3
13364;6
13366;1
13368;1
13370;6
13372;4
13374;1
13376;1
13378;2
13380;3
13382;1
13384;4
13386;1
13388;6
13390;6
13392;3
13394;1
13396;3
13398;3
13400;4
13402;3
13404;0
13406;5
13408;5
13410;2
13412;2
13414;8
13416;3
13418;5
13420;3
13422;3
13424;6
13426;6
13428;12
13430;7
13432;3
13434;12
13436;1
13438;8
13440;1
13442;5
13444;7
13446;5
13448;4
13450;5
13452;2
13454;2
13456;1
13458;1
13460;6
13462;6
13464;11
13466;11
13468;9
13470;2
13472;4
13474;4
13476;2
13478;4
13480;3
13482;2
13484;7
13486;4
13488;4
13490;4
13492;5
13494;4
13496;7
13498;5
13500;4
13502;2
13504;1
13506;4
13508;4
13510;5
13512;5
13514;4
13516;3
13518;3
13520;4
13522;2
13524;2
13526;0
13528;3
13530;2
13532;4
13534;4
13536;4
13538;7
13540;4
13542;4
13544;3
13546;3
13548;1
13550;2
13552;4
13554;2
13556;2
13558;3
13560;5
13562;5
13564;1
13566;3
13568;3
13570;6
13572;8
13574;0
13576;0
13578;2
13580;5
13582;3
13584;3
13586;6
13588;3
13590;3
13592;1
13594;6
13596;6
13598;6
13600;4
13602;4
13604;6
13606;1
13608;1
13610;4
13612;0
13614;1
13616;5
13618;4
13620;7
13622;8
13624;4
13626;2
13628;2
13630;2
13632;3
13634;7
13636;4
13638;6
13640;3
13642;3
13644;4
13646;3
13648;4
13650;4
13652;3
13654;9
13656;4
13658;0
13660;3
13662;0
13664;0
13666;4
13668;7
13670;6
13672;3
13674;4
13676;6
13678;2
13680;4
13682;6
13684;5
13686;5
13688;5
13690;7
13692;7
13694;4
13696;1
13698;1
13700;1
13702;3
13704;6
13706;3
13708;11
13710;6
13712;3
13714;2
13716;3
13718;2
13720;3
13722;3
13724;3
13726;3
13728;4
13730;1
13732;7
13734;2
13736;4
13738;5
13740;4
13742;5
13744;8
13746;1
13748;1
13750;6
13752;10
13754;5
13756;5
13758;6
13760;1
13762;1
13764;3
13766;2
13768;4
13770;4
13772;7
13774;3
13776;3
13778;2
13780;5
13782;5
13784;5
13786;5
13788;4
13790;4
13792;2
13794;0
13796;0
13798;4
13800;1
13802;3
13804;5
13806;3
13808;9
13810;9
13812;8
13814;8
13816;4
13818;4
13820;5
13822;1
13824;9
13826;9
13828;1
13830;7
13832;7
13834;6
13836;5
13838;7
13840;7
13842;2
13844;5
13846;6
13848;5
13850;7
13852;5
13854;5
13856;6
13858;6
13860;1
13862;1
13864;5
13866;3
13868;3
13870;0
13872;3
13874;7
13876;7
13878;2
13880;2
13882;2
13884;6
13886;7
13888;7
13890;4
13892;7
13894;4
13896;6
13898;6
13900;3
13902;6
13904;6
13906;2
13908;5
13910;4
13912;4
13914;3
13916;2
13918;5
13920;5
13922;4
13924;4
13926;4
13928;3
13930;5
13932;8
13934;8
13936;3
13938;4
13940;4
13942;3
13944;1
13946;8
13948;8
13950;1
13952;10
13954;10
13956;3
13958;3
13960;3
13962;8
13964;0
13966;0
13968;3
13970;7
13972;6
13974;6
13976;5
13978;0
13980;4
13982;4
13984;7
13986;2
13988;2
13990;3
13992;3
13994;3
13996;3
13998;6
14000;5
14002;5
14004;2
14006;1
14008;2
14010;2
14012;3
14014;7
14016;7
14018;1
14020;0
14022;5
14024;0
14026;0
14028;0
14030;0
14032;1
14034;0
14036;4
14038;1
14040;1
14042;0
14044;0
14046;0
14048;3
14050;0
14052;1
14054;1
14056;0
14058;2
14060;5
14062;1
14064;1
14066;2
14068;3
14070;3
14072;6
14074;0
14076;0
14078;3
14080;1
14082;0
14084;0
14086;0
14088;2
14090;2
14092;1
14094;1
14096;1
14098;3
14100;1
14102;1
14104;6
14106;1
14108;4
14110;2
14112;1
14114;1
14116;3
14118;4
14120;4
14122;3
14124;2
14126;4
14128;2
14130;2
14132;3
14134;1
14136;0
14138;0
14140;3
14142;3
14144;0
14146;4
14148;2
14150;2
14152;0
14154;10
14156;3
14158;2
14160;3
14162;3
14164;3
14166;2
14168;5
14170;4
14172;1
14174;1
14176;2
14178;0
14180;6
14182;3
14184;10
14186;3
14188;3
14190;5
14192;5
14194;3
14196;1
14198;6
14200;6
14202;4
14204;6
14206;3
14208;3
14210;0
14212;2
14214;2
14216;4
14218;3
14220;3
14222;5
14224;6
14226;3
14228;1
14230;3
14232;3
14234;3
14236;4
14238;4
14240;4
14242;1
14244;3
14246;14
14248;0
14250;0
14252;2
14254;2
14256;5
14258;7
14260;4
14262;1
14264;4
14266;3
14268;0
14270;0
14272;4
14274;1
14276;2
14278;9
14280;2
14282;2
14284;3
14286;2
14288;2
14290;5
14292;4
14294;4
14296;2
14298;5
14300;2
14302;2
14304;2
14306;4
14308;4
14310;5
14312;5
14314;2
14316;2
14318;2
14320;2
14322;5
14324;3
14326;2
14328;4
14330;4
14332;8
14334;0
14336;2
14338;2
14340;0
14342;6
14344;6
14346;4
14348;7
14350;2
14352;2
14354;3
14356;2
14358;6
14360;3
14362;4
14364;3
14366;3
14368;3
14370;4
14372;1
14374;1
14376;1
14378;2
14380;10
14382;3
14384;5
14386;6
14388;3
14390;3
14392;5
14394;8
14396;8
14398;3
14400;5
14402;5
14404;6
14406;6
14408;10
14410;4
14412;4
14414;3
14416;1
14418;6
14420;6
14422;6
14424;6
14426;4
14428;5
14430;5
14432;1
14434;7
14436;5
14438;0
14440;0
14442;6
14444;6
14446;7
14448;10
14450;5
14452;5
14454;11
14456;11
14458;3
14460;0
14462;0
14464;6
14466;6
14468;6
14470;2
14472;7
14474;7
14476;6
14478;3
14480;3
14482;3
14484;2
14486;0
14488;0
14490;4
14492;8
14494;8
14496;3
14498;5
14500;5
14502;5
14504;4
14506;3
14508;3
14510;3
14512;4
14514;4
14516;6
14518;6
14520;3
14522;3
14524;3
14526;7
14528;7
14530;6
14532;6
14534;5
14536;5
14538;6
14540;5
14542;5
14544;5
14546;5
14548;6
14550;7
14552;7
14554;2
14556;9
14558;11
14560;11
14562;5
14564;3
14566;3
14568;7
14570;8
14572;9
14574;9
14576;4
14578;2
14580;2
14582;2
14584;5
14586;5
14588;5
14590;0
14592;0
14594;6
14596;6
14598;2
14600;7
14602;3
14604;9
14606;9
14608;2
14610;2
14612;6
14614;6
14616;6
14618;2
14620;3
14622;3
14624;2
14626;2
14628;5
14630;5
14632;5
14634;5
14636;5
14638;4
14640;4
14642;4
14644;6
14646;6
14648;7
14650;7
14652;7
14654;6
14656;3
14658;3
14660;5
14662;5
14664;5
14666;0
14668;4
14670;4
14672;4
14674;3
14676;3
14678;8
14680;2
14682;2
14684;8
14686;8
14688;3
14690;4
14692;4
14694;4
14696;5
14698;5
14700;2
14702;5
14704;5
14706;5
14708;2
14710;1
14712;1
14714;3
14716;2
14718;1
14720;1
14722;5
14724;6
14726;6
14728;3
14730;3
14732;3
14734;6
14736;6
14738;11
14740;7
14742;7
14744;3
14746;4
14748;4
14750;2
14752;2
14754;2
14756;9
14758;9
14760;9
14762;2
14764;8
14766;8
14768;9
14770;8
14772;4
14774;4
14776;8
14778;8
14780;8
14782;1
14784;4
14786;3
14788;3
14790;3
14792;3
14794;4
14796;4
14798;4
14800;3
14802;3
14804;7
14806;3
14808;4
14810;4
14812;6
14814;0
14816;7
14818;1
14820;6
14822;6
14824;6
14826;3
14828;3
14830;6
14832;3
14834;2
14836;2
14838;4
14840;11
14842;6
14844;1
14846;4
14848;4
14850;3
14852;3
14854;9
14856;10
14858;10
14860;6
14862;3
14864;3
14866;3
14868;5
14870;7
14872;4
14874;12
14876;5
14878;4
14880;6
14882;3
14884;3
14886;5
14888;6
14890;6
14892;6
14894;4
14896;0
14898;2
14900;2
14902;2
14904;3
14906;5
14908;1
14910;1
14912;3
14914;3
14916;5
14918;10
14920;10
14922;10
14924;8
14926;5
14928;5
14930;6
14932;4
14934;4
14936;7
14938;6
14940;2
14942;2
14944;7
14946;7
14948;0
14950;7
14952;7
14954;9
14956;4
14958;3
14960;3
14962;2
14964;0
14966;9
14968;3
14970;3
14972;6
14974;5
14976;6
14978;9
14980;5
14982;5
14984;1
14986;5
14988;4
14990;7
14992;4
14994;4
14996;7
14998;7
15000;4
15002;8
15004;8
15006;1
15008;1
15010;5
15012;4
15014;9
15016;3
15018;4
15020;3
15022;3
15024;4
15026;2
15028;7
15030;7
15032;6
15034;6
15036;7
15038;5
15040;6
15042;6
15044;8
15046;6
15048;6
15050;2
15052;6
15054;6
15056;5
15058;4
15060;4
15062;9
15064;9
15066;9
15068;4
15070;3
15072;3
15074;10
15076;4
15078;5
15080;5
15082;5
15084;8
15086;4
15088;3
15090;3
15092;3
15094;3
15096;6
15098;6
15100;3
15102;6
15104;7
15106;6
15108;6
15110;6
15112;8
15114;8
15116;8
15118;9
15120;11
15122;5
15124;11
15126;11
15128;11
15130;2
15132;3
15134;3
15136;7
15138;4
15140;4
15142;5
15144;5
15146;1
15148;3
15150;12
15152;7
15154;9
15156;8
15158;8
15160;1
15162;6
15164;8
15166;8
15168;5
15170;7
15172;10
15174;5
15176;5
15178;3
15180;7
15182;7
15184;6
15186;8
15188;5
15190;5
15192;4
15194;17
15196;2
15198;4
15200;3
15202;5
15204;3
15206;3
15208;3
15210;5
15212;5
15214;5
15216;7
15218;5
15220;1
15222;3
15224;6
15226;8
15228;7
15230;7
15232;7
15234;6
15236;5
15238;6
15240;7
15242;0
15244;13
15246;13
15248;4
15250;8
15252;3
15254;7
15256;4
15258;6
15260;7
15262;5
15264;11
15266;11
15268;1
15270;5
15272;8
15274;8
15276;1
15278;2
15280;5
15282;3
15284;3
15286;3
15288;1
15290;3
15292;3
15294;3
15296;7
15298;6
15300;6
15302;6
15304;3
15306;3
15308;8
15310;2
15312;2
15314;1
15316;1
15318;7
15320;6
15322;10
15324;5
15326;7
15328;6
15330;6
15332;5
15334;2
15336;8
15338;2
15340;8
15342;8
15344;4
15346;3
15348;5
15350;1
15352;5
15354;5
15356;5
15358;5
15360;12
15362;6
15364;13
15366;13
15368;4
15370;4
15372;3
15374;2
15376;6
15378;7
15380;12
15382;7
15384;7
15386;6
15388;5
15390;8
15392;8
15394;3
15396;5
15398;5
15400;11
15402;4
15404;9
15406;8
15408;8
15410;9
15412;8
15414;10
15416;10
15418;4
15420;6
15422;6
15424;8
15426;8
15428;5
15430;5
15432;6
15434;5
15436;11
15438;3
15440;4
15442;4
15444;5
15446;11
15448;11
15450;6
15452;6
15454;8
15456;10
15458;8
15460;10
15462;2
15464;11
15466;6
15468;5
15470;2
15472;7
15474;16
15476;5
15478;10
15480;3
15482;5
15484;5
15486;15
15488;11
15490;11
15492;15
15494;4
15496;9
15498;6
15500;6
15502;4
15504;4
15506;5
15508;7
15510;1
15512;5
15514;6
15516;6
15518;2
15520;9
15522;3
15524;5
15526;4
15528;4
15530;4
15532;7
15534;7
15536;4
15538;5
15540;3
15542;2
15544;5
15546;11
15548;9
15550;11
15552;11
15554;3
15556;4
15558;5
15560;5
15562;4
15564;5
15566;7
15568;7
15570;5
15572;3
15574;0
15576;4
15578;9
15580;4
15582;4
15584;12
15586;4
15588;4
15590;9
15592;4
15594;7
15596;10
15598;5
15600;9
15602;5
15604;11
15606;11
15608;5
15610;5
15612;9
15614;10
15616;5
15618;7
15620;8
15622;5
15624;13
15626;14
15628;5
15630;5
15632;5
15634;9
15636;7
15638;7
15640;8
15642;10
15644;10
15646;9
15648;8
15650;8
15652;10
15654;6
15656;7
15658;7
15660;9
15662;7
15664;7
15666;11
15668;1
15670;5
15672;6
15674;8
15676;8
15678;5
15680;5
15682;15
15684;7
15686;10
15688;1
15690;1
15692;3
15694;7
15696;9
15698;2
15700;8
15702;6
15704;5
15706;8
15708;6
15710;6
15712;11
15714;8
15716;20
15718;20
15720;11
15722;5
15724;5
15726;6
15728;8
15730;20
15732;4
15734;9
15736;4
15738;9
15740;8
15742;8
15744;8
15746;6
15748;2
15750;6
15752;6
15754;9
15756;11
15758;11
15760;8
15762;6
15764;4
15766;6
15768;6
15770;15
15772;14
15774;4
15776;4
15778;4
15780;1
15782;3
15784;3
15786;4
15788;13
15790;13
15792;2
15794;9
15796;5
15798;5
15800;6
15802;6
15804;2
15806;2
15808;11
15810;14
15812;10
15814;6
15816;1
15818;12
15820;2
15822;5
15824;5
15826;5
15828;7
15830;6
15832;4
15834;4
15836;9
15838;5
15840;5
15842;7
15844;10
15846;16
15848;3
15850;8
15852;9
15854;10
15856;10
15858;14
15860;14
15862;13
15864;11
15866;5
15868;6
15870;6
15872;6
15874;5
15876;12
15878;12
15880;12
15882;8
15884;6
15886;5
15888;5
15890;7
15892;6
15894;13
15896;13
15898;9
15900;14
15902;14
15904;15
15906;13
15908;13
15910;7
15912;9
15914;13
15916;14
15918;14
15920;8
15922;6
15924;6
15926;7
15928;7
15930;4
15932;6
15934;2
15936;12
15938;4
15940;8
15942;8
15944;9
15946;6
15948;17
15950;9
15952;8
15954;8
15956;11
15958;9
15960;15
15962;11
15964;14
15966;14
15968;22
15970;23
15972;6
15974;11
15976;11
15978;13
15980;5
15982;5
15984;13
15986;10
15988;15
15990;15
15992;15
15994;5
15996;12
15998;15
16000;9
16002;16
16004;20
16006;20
16008;20
16010;20
16012;46
16014;39
16016;39
16018;23
16020;23
16022;15
16024;21
16026;21
16028;43
16030;41
16032;41
16034;86
16036;90
16038;120
16040;149
16042;210
16044;234
16046;234
16048;234
16050;717
16052;915
16054;1296
16056;1296
16058;5842
16060;7597
16062;7597
16064;10319
16066;11507
16068;13072
16070;13550
16072;13550
16074;14268
16076;14500
16078;14814
16080;15062
16082;15301
16084;15310
16086;14690
16088;13357
16090;7430
16092;7430
16094;1478
16096;953
16098;433
16100;259
16102;150
16104;95
16106;95
16108;95
16110;61
16112;26
16114;55
16116;52
16118;52
16120;52
16122;16
16124;16
16126;24
16128;31
16130;21
16132;21
16134;34
16136;19
16138;31
16140;17
16142;24
16144;19
16146;9
16148;19
16150;6
16152;19
16154;15
16156;15
16158;16
16160;16
16162;13
16164;19
16166;12
16168;7
16170;16
16172;17
16174;17
16176;13
16178;14
16180;14
16182;15
16184;9
16186;12
16188;12
16190;10
16192;11
16194;11
16196;13
16198;13
16200;14
16202;4
16204;13
16206;13
16208;13
16210;5
16212;17
16214;5
16216;5
16218;13
16220;15
16222;14
16224;14
16226;21
16228;20
16230;20
16232;20
16234;34
16236;24
16238;24
16240;27
16242;30
16244;36
16246;36
16248;36
16250;39
16252;39
16254;30
16256;53
16258;34
16260;34
16262;43
16264;46
16266;23
16268;23
16270;33
16272;29
16274;29
16276;32
16278;36
16280;39
16282;39
16284;36
16286;25
16288;30
16290;21
16292;36
16294;36
16296;33
16298;35
16300;37
16302;30
16304;29
16306;29
16308;19
16310;30
16312;30
16314;34
16316;25
16318;25
16320;25
16322;19
16324;52
16326;52
16328;21
16330;28
16332;28
16334;18
16336;24
16338;33
16340;29
16342;30
16344;13
16346;21
16348;21
16350;24
16352;27
16354;22
16356;13
16358;12
16360;26
16362;26
16364;31
16366;27
16368;27
16370;14
16372;32
16374;27
16376;27
16378;21
16380;11
16382;11
16384;17
16386;26
16388;26
16390;33
16392;33
16394;19
16396;19
16398;21
16400;18
16402;16
16404;17
16406;19
16408;19
16410;4
16412;18
16414;17
16416;16
16418;20
16420;20
16422;20
16424;12
16426;15
16428;15
16430;22
16432;22
16434;11
16436;22
16438;22
16440;15
16442;15
16444;13
16446;13
16448;11
16450;6
16452;21
16454;21
16456;12
16458;12
16460;14
16462;14
16464;9
16466;7
16468;7
16470;12
16472;12
16474;14
16476;4
16478;10
16480;15
16482;15
16484;15
16486;10
16488;24
16490;17
16492;13
16494;19
16496;15
16498;15
16500;11
16502;11
16504;9
16506;9
16508;23
16510;8
16512;15
16514;15
16516;15
16518;17
16520;10
16522;10
16524;10
16526;14
16528;12
16530;12
16532;14
16534;25
16536;17
16538;13
16540;8
16542;6
16544;6
16546;5
16548;11
16550;11
16552;12
16554;7
16556;7
16558;14
16560;12
16562;12
16564;12
16566;13
16568;9
16570;9
16572;16
16574;10
16576;10
16578;8
16580;12
16582;12
16584;11
16586;11
16588;12
16590;14
16592;14
16594;11
16596;5
16598;11
16600;7
16602;7
16604;8
16606;6
16608;12
16610;12
16612;7
16614;7
16616;16
16618;10
16620;10
16622;9
16624;11
16626;11
16628;8
16630;9
16632;11
16634;11
16636;12
16638;18
16640;18
16642;14
16644;7
16646;9
16648;9
16650;7
16652;10
16654;15
16656;23
16658;12
16660;7
16662;12
16664;12
16666;11
16668;11
16670;9
16672;9
16674;12
16676;3
16678;19
16680;9
16682;9
16684;6
16686;15
16688;5
16690;5
16692;11
16694;13
16696;13
16698;13
16700;9
16702;17
16704;17
16706;11
16708;15
16710;15
16712;7
16714;7
16716;14
16718;13
16720;6
16722;12
16724;10
16726;10
16728;6
16730;12
16732;4
16734;4
16736;10
16738;6
16740;12
16742;12
16744;10
16746;9
16748;15
16750;6
16752;7
16754;7
16756;4
16758;10
16760;19
16762;10
16764;10
16766;7
16768;8
16770;4
16772;13
16774;14
16776;12
16778;12
16780;7
16782;9
16784;9
16786;11
16788;8
16790;17
16792;17
16794;3
16796;13
16798;13
16800;8
16802;8
16804;6
16806;9
16808;5
16810;26
16812;13
16814;10
16816;10
16818;10
16820;4
16822;12
16824;13
16826;5
16828;8
16830;7
16832;9
16834;9
16836;10
16838;3
16840;3
16842;2
16844;6
16846;7
16848;13
16850;7
16852;12
16854;13
16856;22
16858;22
16860;15
16862;15
16864;9
16866;9
16868;12
16870;7
16872;12
16874;5
16876;13
16878;9
16880;9
16882;9
16884;9
16886;8
16888;8
16890;8
16892;9
16894;11
16896;11
16898;4
16900;14
16902;14
16904;7
16906;6
16908;6
16910;14
16912;8
16914;3
16916;10
16918;16
16920;17
16922;13
16924;13
16926;12
16928;7
16930;7
16932;6
16934;15
16936;7
16938;7
16940;7
16942;17
16944;17
16946;11
16948;8
16950;8
16952;8
16954;16
16956;13
16958;10
16960;10
16962;11
16964;13
16966;13
16968;10
16970;8
16972;8
16974;10
16976;8
16978;10
16980;9
16982;7
16984;9
16986;9
16988;4
16990;12
16992;12
16994;9
16996;6
16998;11
17000;9
17002;10
17004;9
17006;9
17008;9
17010;7
17012;7
17014;6
17016;4
17018;4
17020;10
17022;8
17024;8
17026;7
17028;9
17030;4
17032;4
17034;8
17036;6
17038;6
17040;7
17042;6
17044;5
17046;5
17048;8
17050;10
17052;10
17054;8
17056;3
17058;4
17060;4
17062;21
17064;13
17066;13
17068;5
17070;18
17072;18
17074;18
17076;8
17078;10
17080;2
17082;1
17084;12
17086;7
17088;5
17090;10
17092;7
17094;8
17096;8
17098;9
17100;7
17102;7
17104;9
17106;4
17108;4
17110;13
17112;13
17114;7
17116;2
17118;2
17120;4
17122;4
17124;13
17126;5
17128;6
17130;6
17132;6
17134;6
17136;6
17138;6
17140;9
17142;8
17144;3
17146;13
17148;9
17150;11
17152;11
17154;9
17156;9
17158;7
17160;10
17162;10
17164;11
17166;10
17168;5
17170;12
17172;6
17174;13
17176;13
17178;10
17180;8
17182;18
17184;16
17186;12
17188;3
17190;3
17192;3
17194;13
17196;13
17198;13
17200;7
17202;12
17204;10
17206;9
17208;10
17210;3
17212;3
17214;10
17216;7
17218;12
17220;12
17222;5
17224;4
17226;4
17228;3
17230;7
17232;4
17234;6
17236;6
17238;7
17240;7
17242;7
17244;6
17246;4
17248;4
17250;11
17252;7
17254;7
17256;7
17258;6
17260;10
17262;5
17264;5
17266;5
17268;5
17270;3
17272;3
17274;6
17276;5
17278;4
17280;5
17282;13
17284;9
17286;6
17288;6
17290;9
17292;5
17294;5
17296;3
17298;8
17300;6
17302;4
17304;4
17306;4
17308;13
17310;6
17312;9
17314;5
17316;5
17318;6
17320;6
17322;6
17324;9
17326;9
17328;6
17330;6
17332;9
17334;19
17336;19
17338;12
17340;8
17342;8
17344;2
17346;7
17348;5
17350;6
17352;8
17354;8
17356;6
17358;12
17360;9
17362;9
17364;17
17366;16
17368;16
17370;12
17372;6
17374;7
17376;7
17378;4
17380;7
17382;19
17384;4
17386;9
17388;6
17390;6
17392;12
17394;5
17396;5
17398;7
17400;16
17402;16
17404;3
17406;3
17408;6
17410;4
17412;4
17414;10
17416;12
17418;11
17420;9
17422;13
17424;12
17426;13
17428;2
17430;7
17432;7
17434;7
17436;6
17438;4
17440;9
17442;6
17444;11
17446;2
17448;6
17450;6
17452;6
17454;5
17456;3
17458;6
17460;9
17462;5
17464;12
17466;4
17468;9
17470;5
17472;5
17474;11
17476;9
17478;10
17480;10
17482;23
17484;11
17486;5
17488;7
17490;9
17492;8
17494;8
17496;8
17498;9
17500;9
17502;6
17504;10
17506;11
17508;3
17510;5
17512;7
17514;8
17516;7
17518;5
17520;5
17522;5
17524;11
17526;4
17528;7
17530;5
17532;5
17534;5
17536;14
17538;2
17540;7
17542;7
17544;13
17546;4
17548;4
17550;11
17552;5
17554;5
17556;12
17558;6
17560;3
17562;3
17564;9
17566;6
17568;6
17570;6
17572;13
17574;10
17576;5
17578;4
17580;4
17582;7
17584;8
17586;8
17588;2
17590;2
17592;16
17594;16
17596;3
17598;9
17600;9
17602;11
17604;15
17606;9
17608;9
17610;11
17612;2
17614;2
17616;5
17618;13
17620;6
17622;6
17624;2
17626;7
17628;19
17630;19
17632;5
17634;5
17636;7
17638;4
17640;15
17642;8
17644;2
17646;7
17648;11
17650;9
17652;2
17654;4
17656;4
17658;4
17660;4
17662;10
17664;5
17666;16
17668;7
17670;7
17672;4
17674;4
17676;13
17678;8
17680;8
17682;8
17684;8
17686;10
17688;10
17690;8
17692;8
17694;8
17696;8
17698;6
17700;13
17702;15
17704;2
17706;2
17708;8
17710;8
17712;7
17714;7
17716;4
17718;7
17720;7
17722;9
17724;13
17726;13
17728;6
17730;5
17732;13
17734;13
17736;3
17738;2
17740;11
17742;11
17744;3
17746;7
17748;6
17750;6
17752;3
17754;3
17756;9
17758;9
17760;11
17762;7
17764;10
17766;6
17768;6
17770;10
17772;14
17774;12
17776;5
17778;6
17780;8
17782;8
17784;8
17786;8
17788;8
17790;4
17792;5
17794;6
17796;11
17798;11
17800;11
17802;11
17804;11
17806;11
17808;6
17810;7
17812;4
17814;7
17816;11
17818;16
17820;9
17822;12
17824;6
17826;14
17828;14
17830;17
17832;13
17834;13
17836;7
17838;8
17840;10
17842;1
17844;5
17846;10
17848;10
17850;6
17852;1
17854;9
17856;6
17858;6
17860;17
17862;17
17864;12
17866;8
17868;8
17870;9
17872;3
17874;3
17876;6
17878;7
17880;7
17882;7
17884;4
17886;13
17888;9
17890;9
17892;9
17894;5
17896;8
17898;12
17900;12
17902;12
17904;9
17906;9
17908;3
17910;11
17912;11
17914;5
17916;7
17918;11
17920;11
17922;11
17924;9
17926;9
17928;9
17930;6
17932;5
17934;10
17936;5
17938;4
17940;11
17942;11
17944;14
17946;14
17948;4
17950;16
17952;10
17954;10
17956;5
17958;12
17960;12
17962;9
17964;11
17966;3
17968;3
17970;15
17972;9
17974;9
17976;16
17978;11
17980;4
17982;9
17984;9
17986;15
17988;16
17990;16
17992;14
17994;12
17996;12
17998;7
18000;7
18002;11
18004;13
18006;13
18008;13
18010;14
18012;8
18014;8
18016;14
18018;5
18020;5
18022;9
18024;7
18026;7
18028;7
18030;7
18032;9
18034;9
18036;10
18038;12
18040;7
18042;7
18044;11
18046;14
18048;14
18050;14
18052;9
18054;7
18056;7
18058;6
18060;10
18062;10
18064;10
18066;8
18068;10
18070;10
18072;10
18074;16
18076;14
18078;14
18080;15
18082;15
18084;14
18086;13
18088;17
18090;14
18092;20
18094;13
18096;19
18098;19
18100;17
18102;17
18104;16
18106;19
18108;19
18110;18
18112;12
18114;16
18116;17
18118;11
18120;20
18122;5
18124;5
18126;11
18128;18
18130;9
18132;9
18134;11
18136;2
18138;2
18140;9
18142;16
18144;14
18146;14
18148;6
18150;6
18152;19
18154;10
18156;26
18158;26
18160;15
18162;15
18164;16
18166;16
18168;20
18170;8
18172;8
18174;25
18176;18
18178;19
18180;19
18182;23
18184;13
18186;21
18188;23
18190;23
18192;24
18194;6
18196;20
18198;21
18200;17
18202;15
18204;15
18206;17
18208;17
18210;16
18212;16
18214;12
18216;12
18218;15
18220;21
18222;21
18224;21
18226;22
18228;22
18230;28
18232;42
18234;42
18236;39
18238;32
18240;41
18242;41
18244;44
18246;48
18248;48
18250;50
18252;47
18254;46
18256;46
18258;57
18260;70
18262;48
18264;51
18266;39
18268;39
18270;49
18272;44
18274;50
18276;52
18278;52
18280;43
18282;43
18284;37
18286;54
18288;33
18290;33
18292;41
18294;29
18296;41
18298;41
18300;42
18302;35
18304;35
18306;26
18308;35
18310;31
18312;31
18314;36
18316;26
18318;35
18320;35
18322;29
18324;25
18326;33
18328;28
18330;24
18332;32
18334;22
18336;23
18338;31
18340;25
18342;21
18344;21
18346;9
18348;9
18350;27
18352;19
18354;19
18356;19
18358;14
18360;9
18362;9
18364;26
18366;22
18368;17
18370;15
18372;18
18374;7
18376;7
18378;28
18380;29
18382;25
18384;19
18386;19
18388;24
18390;24
18392;24
18394;17
18396;17
18398;20
18400;16
18402;10
18404;10
18406;19
18408;15
18410;23
18412;23
18414;5
18416;19
18418;19
18420;23
18422;16
18424;19
18426;19
18428;13
18430;8
18432;8
18434;26
18436;26
18438;6
18440;7
18442;22
18444;22
18446;14
18448;15
18450;13
18452;13
18454;13
18456;13
18458;13
18460;13
18462;6
18464;14
18466;14
18468;10
18470;16
18472;16
18474;8
18476;11
18478;11
18480;8
18482;13
18484;4
18486;7
18488;7
18490;3
18492;4
18494;4
18496;9
18498;8
18500;24
18502;14
18504;13
18506;9
18508;9
18510;5
18512;6
18514;6
18516;12
18518;6
18520;6
18522;8
18524;9
18526;8
18528;8
18530;9
18532;16
18534;3
18536;10
18538;10
18540;15
18542;15
18544;8
18546;12
18548;10
18550;9
18552;9
18554;8
18556;10
18558;12
18560;12
18562;12
18564;11
18566;7
18568;7
18570;13
18572;9
18574;9
18576;9
18578;2
18580;9
18582;9
18584;9
18586;11
18588;6
18590;11
18592;11
18594;7
18596;8
18598;8
18600;5
18602;5
18604;10
18606;24
18608;24
18610;10
18612;13
18614;13
18616;7
18618;4
18620;4
18622;9
18624;10
18626;8
18628;8
18630;2
18632;10
18634;12
18636;12
18638;8
18640;7
18642;7
18644;10
18646;9
18648;5
18650;5
18652;5
18654;9
18656;9
18658;7
18660;8
18662;6
18664;6
18666;3
18668;10
18670;10
18672;13
18674;7
18676;6
18678;3
18680;3
18682;5
18684;5
18686;3
18688;13
18690;13
18692;10
18694;1
18696;7
18698;9
18700;5
18702;11
18704;11
18706;8
18708;5
18710;6
18712;10
18714;7
18716;10
18718;10
18720;10
18722;8
18724;7
18726;7
18728;4
18730;8
18732;4
18734;7
18736;7
18738;10
18740;13
18742;13
18744;8
18746;6
18748;6
18750;6
18752;7
18754;9
18756;13
18758;13
18760;4
18762;8
18764;8
18766;6
18768;8
18770;6
18772;6
18774;8
18776;5
18778;7
18780;9
18782;9
18784;9
18786;9
18788;13
18790;12
18792;8
18794;10
18796;10
18798;7
18800;7
18802;5
18804;7
18806;4
18808;9
18810;7
18812;9
18814;6
18816;7
18818;7
18820;7
18822;7
18824;7
18826;9
18828;13
18830;6
18832;7
18834;4
18836;5
18838;6
18840;12
18842;12
18844;6
18846;2
18848;2
18850;2
18852;9
18854;9
18856;13
18858;12
18860;18
18862;18
18864;9
18866;7
18868;7
18870;5
18872;17
18874;4
18876;4
18878;6
18880;6
18882;4
18884;7
18886;7
18888;5
18890;5
18892;7
18894;1
18896;4
18898;10
18900;8
18902;4
18904;9
18906;4
18908;4
18910;4
18912;5
18914;5
18916;5
18918;5
18920;5
18922;8
18924;7
18926;7
18928;7
18930;6
18932;5
18934;5
18936;8
18938;8
18940;11
18942;8
18944;3
18946;3
18948;6
18950;10
18952;10
18954;10
18956;6
18958;3
18960;3
18962;9
18964;12
18966;11
18968;11
18970;7
18972;9
18974;9
18976;9
18978;11
18980;5
18982;5
18984;3
18986;7
18988;11
18990;11
18992;9
18994;4
18996;4
18998;6
19000;8
19002;8
19004;13
19006;6
19008;10
19010;9
19012;13
19014;9
19016;13
19018;13
19020;18
19022;18
19024;10
19026;9
19028;11
19030;17
19032;17
19034;8
19036;15
19038;12
19040;10
19042;10
19044;14
19046;14
19048;19
19050;6
19052;19
19054;10
19056;10
19058;6
19060;14
19062;12
19064;15
19066;19
19068;14
19070;14
19072;16
19074;15
19076;26
19078;26
19080;43
19082;63
19084;63
19086;63
19088;106
19090;98
19092;102
19094;107
19096;123
19098;144
19100;137
19102;137
19104;104
19106;127
19108;86
19110;86
19112;86
19114;54
19116;44
19118;14
19120;6
19122;6
19124;10
19126;10
19128;10
19130;13
19132;13
19134;9
19136;7
19138;6
19140;12
19142;10
19144;11
19146;15
19148;11
19150;9
19152;9
19154;9
19156;10
19158;11
19160;11
19162;4
19164;13
19166;11
19168;11
19170;4
19172;4
19174;6
19176;6
19178;16
19180;6
19182;9
19184;9
19186;11
19188;13
19190;13
19192;12
19194;12
19196;8
19198;8
19200;7
19202;9
19204;9
19206;12
19208;8
19210;20
19212;20
19214;16
19216;6
19218;10
19220;10
19222;10
19224;14
19226;12
19228;12
19230;34
19232;22
19234;37
19236;37
19238;280
19240;527
19242;527
19244;982
19246;1193
19248;1396
19250;1396
19252;1687
19254;1734
19256;1784
19258;1784
19260;1865
19262;1862
19264;1842
19266;1842
19268;1672
19270;1322
19272;1322
19274;566
19276;118
19278;118
19280;24
19282;24
19284;11
19286;13
19288;13
19290;13
19292;16
19294;7
19296;7
19298;8
19300;5
19302;5
19304;5
19306;9
19308;9
19310;7
19312;7
19314;9
19316;6
19318;7
19320;7
19322;13
19324;7
19326;8
19328;8
19330;8
19332;8
19334;9
19336;14
19338;14
19340;6
19342;6
19344;8
19346;13
19348;13
19350;8
19352;5
19354;5
19356;7
19358;7
19360;7
19362;12
19364;7
19366;7
19368;6
19370;7
19372;5
19374;5
19376;7
19378;2
19380;2
19382;6
19384;6
19386;7
19388;8
19390;8
19392;11
19394;4
19396;4
19398;10
19400;2
19402;5
19404;5
19406;12
19408;1
19410;1
19412;8
19414;8
19416;14
19418;14
19420;7
19422;12
19424;6
19426;6
19428;13
19430;13
19432;8
19434;11
19436;19
19438;19
19440;6
19442;6
19444;3
19446;3
19448;4
19450;8
19452;6
19454;6
19456;6
19458;4
19460;4
19462;4
19464;10
19466;6
19468;6
19470;11
19472;10
19474;3
19476;4
19478;3
19480;3
19482;1
19484;3
19486;10
19488;10
19490;5
19492;10
19494;10
19496;10
19498;10
19500;9
19502;5
19504;5
19506;8
19508;5
19510;5
19512;7
19514;7
19516;8
19518;8
19520;9
19522;9
19524;8
19526;10
19528;10
19530;0
19532;0
19534;6
19536;6
19538;6
19540;6
19542;5
19544;5
19546;6
19548;6
19550;7
19552;10
19554;2
19556;2
19558;8
19560;7
19562;7
19564;15
19566;6
19568;6
19570;12
19572;12
19574;7
19576;7
19578;2
19580;12
19582;11
19584;6
19586;6
19588;6
19590;4
19592;4
19594;4
19596;7
19598;7
19600;7
19602;7
19604;7
19606;8
19608;8
19610;8
19612;7
19614;6
19616;14
19618;7
19620;5
19622;5
19624;6
19626;5
19628;5
19630;9
19632;9
19634;5
19636;5
19638;4
19640;16
19642;16
19644;8
19646;8
19648;8
19650;5
19652;5
19654;5
19656;6
19658;3
19660;3
19662;5
19664;8
19666;8
19668;2
19670;2
19672;2
19674;1
19676;1
19678;1
19680;8
19682;10
19684;10
19686;3
19688;3
19690;3
19692;3
19694;11
19696;11
19698;6
19700;6
19702;8
19704;16
19706;16
19708;5
19710;8
19712;10
19714;9
19716;9
19718;9
19720;10
19722;10
19724;6
19726;7
19728;3
19730;10
19732;6
19734;9
19736;9
19738;4
19740;7
19742;10
19744;7
19746;7
19748;7
19750;4
19752;4
19754;4
19756;12
19758;4
19760;4
19762;5
19764;5
19766;9
19768;3
19770;6
19772;6
19774;10
19776;5
19778;4
19780;6
19782;5
19784;8
19786;8
19788;8
19790;7
19792;7
19794;7
19796;9
19798;4
19800;4
19802;6
19804;8
19806;1
19808;3
19810;5
19812;7
19814;10
19816;10
19818;5
19820;6
19822;1
19824;8
19826;8
19828;7
19830;8
19832;8
19834;7
19836;3
19838;2
19840;2
19842;2
19844;6
19846;3
19848;3
19850;7
19852;7
19854;7
19856;6
19858;4
19860;3
19862;4
19864;6
19866;9
19868;4
19870;7
19872;4
19874;6
19876;10
19878;11
19880;10
19882;8
19884;6
19886;6
19888;4
19890;6
19892;9
19894;9
19896;4
19898;4
19900;11
19902;11
19904;2
19906;9
19908;14
19910;14
19912;3
19914;5
19916;3
19918;4
19920;4
19922;8
19924;8
19926;4
19928;6
19930;11
19932;6
19934;11
19936;1
19938;1
19940;5
19942;6
19944;8
19946;9
19948;7
19950;5
19952;5
19954;5
19956;8
19958;8
19960;7
19962;5
19964;5
19966;12
19968;9
19970;4
19972;8
19974;1
19976;15
19978;5
19980;5
19982;27
19984;27
19986;10
19988;13
19990;8
19992;5
19994;11
19996;11
19998;9
20000;10
20002;11
20004;2
20006;2
20008;1
20010;12
20012;12
20014;4
20016;9
20018;9
20020;10
20022;2
20024;2
20026;2
20028;5
20030;5
20032;7
20034;8
20036;8
20038;6
20040;6
20042;13
20044;6
20046;6
20048;8
20050;5
20052;3
20054;11
20056;4
20058;4
20060;13
20062;12
20064;12
20066;14
20068;4
20070;9
20072;7
20074;9
20076;9
20078;8
20080;4
20082;6
20084;6
20086;5
20088;6
20090;5
20092;7
20094;10
20096;4
20098;18
20100;9
20102;9
20104;12
20106;4
20108;3
20110;7
20112;7
20114;18
20116;10
20118;7
20120;7
20122;15
20124;11
20126;5
20128;2
20130;10
20132;10
20134;10
20136;4
20138;5
20140;10
20142;4
20144;7
20146;4
20148;5
20150;5
20152;4
20154;4
20156;5
20158;5
20160;4
20162;11
20164;10
20166;10
20168;6
20170;7
20172;12
20174;3
20176;3
20178;3
20180;6
20182;8
20184;8
20186;12
20188;3
20190;6
20192;6
20194;6
20196;9
20198;7
20200;6
20202;8
20204;5
20206;6
20208;8
20210;8
20212;7
20214;7
20216;6
20218;4
20220;5
20222;12
20224;8
20226;7
20228;10
20230;4
20232;8
20234;8
20236;5
20238;3
20240;4
20242;11
20244;6
20246;11
20248;5
20250;9
20252;9
20254;11
20256;11
20258;5
20260;9
20262;5
20264;4
20266;4
20268;7
20270;7
20272;11
20274;6
20276;6
20278;6
20280;6
20282;7
20284;8
20286;3
20288;3
20290;4
20292;7
20294;6
20296;6
20298;4
20300;12
20302;8
20304;9
20306;7
20308;6
20310;6
20312;7
20314;2
20316;6
20318;6
20320;3
20322;9
20324;7
20326;7
20328;4
20330;7
20332;4
20334;6
20336;4
20338;5
20340;6
20342;6
20344;11
20346;4
20348;1
20350;1
20352;7
20354;8
20356;8
20358;7
20360;5
20362;3
20364;3
20366;8
20368;9
20370;5
20372;10
20374;4
20376;5
20378;5
20380;6
20382;5
20384;9
20386;9
20388;9
20390;5
20392;10
20394;10
20396;4
20398;4
20400;4
20402;5
20404;5
20406;5
20408;5
20410;6
20412;6
20414;7
20416;5
20418;6
20420;6
20422;2
20424;8
20426;8
20428;5
20430;13
20432;4
20434;4
20436;4
20438;8
20440;2
20442;6
20444;10
20446;10
20448;7
20450;3
20452;9
20454;4
20456;3
20458;9
20460;3
20462;7
20464;2
20466;6
20468;7
20470;6
20472;2
20474;2
20476;8
20478;9
20480;4
20482;4
20484;4
20486;7
20488;7
20490;1
20492;6
20494;5
20496;3
20498;2
20500;4
20502;4
20504;6
20506;4
20508;9
20510;9
20512;6
20514;8
20516;4
20518;7
20520;7
20522;2
20524;4
20526;7
20528;7
20530;0
20532;4
20534;8
20536;5
20538;2
20540;2
20542;6
20544;2
20546;1
20548;7
20550;3
20552;1
20554;1
20556;3
20558;6
20560;2
20562;2
20564;3
20566;5
20568;5
20570;5
20572;7
20574;3
20576;5
20578;6
20580;4
20582;4
20584;9
20586;0
20588;0
20590;17
20592;10
20594;10
20596;9
20598;11
20600;11
20602;2
20604;7
20606;7
20608;7
20610;10
20612;9
20614;9
20616;18
20618;14
20620;9
20622;9
20624;16
20626;9
20628;3
20630;15
20632;3
20634;10
20636;9
20638;8
20640;5
20642;5
20644;5
20646;6
20648;11
20650;7
20652;11
20654;5
20656;5
20658;5
20660;6
20662;11
20664;5
20666;7
20668;7
20670;12
20672;7
20674;5
20676;5
20678;11
20680;7
20682;7
20684;7
20686;7
20688;6
20690;6
20692;6
20694;12
20696;18
20698;18
20700;12
20702;29
20704;29
20706;29
20708;67
20710;68
20712;68
20714;181
20716;192
20718;119
20720;119
20722;150
20724;150
20726;158
20728;158
20730;167
20732;176
20734;131
20736;116
20738;107
20740;107
20742;15
20744;17
20746;11
20748;22
20750;8
20752;4
20754;4
20756;17
20758;19
20760;19
20762;9
20764;17
20766;15
20768;15
20770;8
20772;2
20774;6
20776;6
20778;5
20780;4
20782;4
20784;4
20786;10
20788;6
20790;3
20792;6
20794;6
20796;4
20798;4
20800;4
20802;5
20804;5
20806;5
20808;1
20810;9
20812;4
20814;10
20816;9
20818;9
20820;10
20822;6
20824;1
20826;1
20828;3
20830;7
20832;7
20834;3
20836;7
20838;16
20840;16
20842;7
20844;6
20846;2
20848;0
20850;8
20852;4
20854;4
20856;7
20858;9
20860;6
20862;6
20864;5
20866;2
20868;2
20870;6
20872;6
20874;3
20876;4
20878;1
20880;0
20882;0
20884;3
20886;3
20888;3
20890;5
20892;3
20894;3
20896;3
20898;4
20900;4
20902;3
20904;7
20906;11
20908;11
20910;11
20912;7
20914;6
20916;6
20918;7
20920;6
20922;1
20924;9
20926;4
20928;5
20930;5
20932;1
20934;5
20936;7
20938;3
20940;7
20942;5
20944;5
20946;6
20948;6
20950;6
20952;6
20954;4
20956;4
20958;1
20960;1
20962;9
20964;6
20966;6
20968;3
20970;5
20972;5
20974;2
20976;6
20978;6
20980;4
20982;2
20984;6
20986;6
20988;6
20990;7
20992;7
20994;12
20996;3
20998;3
21000;6
21002;2
21004;4
21006;6
21008;6
21010;4
21012;8
21014;17
21016;7
21018;5
21020;5
21022;9
21024;3
21026;4
21028;4
21030;5
21032;6
21034;4
21036;8
21038;4
21040;7
21042;7
21044;1
21046;3
21048;7
21050;9
21052;4
21054;7
21056;7
21058;4
21060;2
21062;11
21064;7
21066;3
21068;4
21070;4
21072;7
21074;4
21076;1
21078;1
21080;6
21082;1
21084;6
21086;5
21088;6
21090;3
21092;3
21094;5
21096;4
21098;4
21100;6
21102;6
21104;6
21106;7
21108;3
21110;3
21112;5
21114;3
21116;3
21118;3
21120;3
21122;2
21124;5
21126;6
21128;5
21130;0
21132;2
21134;4
21136;4
21138;4
21140;7
21142;8
21144;8
21146;8
21148;3
21150;3
21152;3
21154;4
21156;7
21158;4
21160;8
21162;7
21164;6
21166;6
21168;8
21170;2
21172;2
21174;2
21176;4
21178;6
21180;6
21182;3
21184;6
21186;3
21188;4
21190;7
21192;5
21194;4
21196;2
21198;6
21200;4
21202;5
21204;6
21206;6
21208;10
21210;1
21212;8
21214;7
21216;3
21218;2
21220;2
21222;5
21224;5
21226;6
21228;1
21230;6
21232;5
21234;5
21236;0
21238;5
21240;0
21242;0
21244;7
21246;4
21248;5
21250;3
21252;7
21254;4
21256;4
21258;7
21260;4
21262;10
21264;5
21266;3
21268;4
21270;4
21272;6
21274;5
21276;7
21278;5
21280;4
21282;5
21284;5
21286;7
21288;4
21290;6
21292;5
21294;8
21296;1
21298;1
21300;3
21302;7
21304;4
21306;4
21308;3
21310;7
21312;6
21314;1
21316;7
21318;8
21320;8
21322;3
21324;6
21326;13
21328;2
21330;0
21332;7
21334;7
21336;6
21338;6
21340;10
21342;8
21344;11
21346;3
21348;3
21350;1
21352;5
21354;2
21356;8
21358;3
21360;3
21362;7
21364;9
21366;4
21368;4
21370;4
21372;2
21374;5
21376;5
21378;4
21380;7
21382;7
21384;6
21386;4
21388;4
21390;4
21392;10
21394;10
21396;10
21398;3
21400;1
21402;5
21404;7
21406;4
21408;2
21410;5
21412;2
21414;5
21416;1
21418;10
21420;4
21422;5
21424;3
21426;9
21428;8
21430;6
21432;8
21434;4
21436;7
21438;7
21440;8
21442;8
21444;8
21446;5
21448;6
21450;6
21452;6
21454;8
21456;2
21458;2
21460;4
21462;6
21464;6
21466;5
21468;3
21470;3
21472;3
21474;2
21476;4
21478;4
21480;9
21482;10
21484;2
21486;2
21488;11
21490;11
21492;6
21494;6
21496;10
21498;14
21500;14
21502;5
21504;11
21506;15
21508;15
21510;8
21512;10
21514;10
21516;10
21518;3
21520;15
21522;15
21524;3
21526;6
21528;4
21530;6
21532;10
21534;2
21536;6
21538;3
21540;3
21542;3
21544;14
21546;14
21548;10
21550;2
21552;2
21554;2
21556;6
21558;12
21560;12
21562;12
21564;10
21566;3
21568;3
21570;4
21572;4
21574;3
21576;4
21578;11
21580;11
21582;11
21584;2
21586;5
21588;4
21590;8
21592;10
21594;10
21596;10
21598;5
21600;6
21602;12
21604;7
21606;7
21608;8
21610;14
21612;14
21614;4
21616;1
21618;7
21620;7
21622;10
21624;2
21626;4
21628;4
21630;17
21632;15
21634;15
21636;8
21638;6
21640;13
21642;13
21644;12
21646;6
21648;11
21650;8
21652;5
21654;14
21656;14
21658;7
21660;12
21662;12
21664;3
21666;5
21668;4
21670;5
21672;6
21674;3
21676;3
21678;8
21680;3
21682;7
21684;3
21686;3
21688;3
21690;6
21692;1
21694;4
21696;3
21698;5
21700;5
21702;5
21704;10
21706;5
21708;1
21710;8
21712;3
21714;8
21716;9
21718;4
21720;3
21722;3
21724;3
21726;3
21728;5
21730;7
21732;7
21734;7
21736;0
21738;4
21740;4
21742;7
21744;5
21746;5
21748;5
21750;7
21752;6
21754;13
21756;4
21758;1
21760;1
21762;6
21764;6
21766;6
21768;4
21770;2
21772;2
21774;6
21776;2
21778;7
21780;3
21782;11
21784;11
21786;11
21788;7
21790;7
21792;1
21794;6
21796;3
21798;3
21800;5
21802;2
21804;6
21806;6
21808;4
21810;7
21812;3
21814;3
21816;3
21818;3
21820;9
21822;4
21824;4
21826;2
21828;4
21830;4
21832;2
21834;2
21836;3
21838;7
21840;3
21842;3
21844;4
21846;3
21848;2
21850;2
21852;4
21854;1
21856;6
21858;6
21860;8
21862;5
21864;5
21866;7
21868;7
21870;3
21872;3
21874;6
21876;14
21878;4
21880;4
21882;4
21884;4
21886;2
21888;6
21890;6
21892;6
21894;7
21896;9
21898;2
21900;2
21902;6
21904;1
21906;1
21908;1
21910;6
21912;10
21914;10
21916;6
21918;4
21920;3
21922;3
21924;1
21926;20
21928;20
21930;5
21932;2
21934;2
21936;4
21938;4
21940;5
21942;7
21944;3
21946;3
21948;3
21950;4
21952;4
21954;7
21956;7
21958;3
21960;3
21962;2
21964;4
21966;4
21968;6
21970;8
21972;8
21974;2
21976;8
21978;5
21980;6
21982;6
21984;7
21986;7
21988;7
21990;17
21992;19
21994;3
21996;3
21998;3
