﻿year,date,weekday,time,mood,activities,note
<<<<<<< HEAD
2018,September 11,Tuesday,15:00,awful,"USP | contact lens | physical activity | study | a posterior","eu me sinto muito sozinho"
2018,September 10,Monday,23:19,good,"home | passeio | contact lens | physical activity | social | formal",""
2018,September 10,Monday,19:41,good,"USP | passeio | contact lens | caffeine  | physical activity | social | formal | work",""
2018,September 10,Monday,12:45,meh,"USP | home | contact lens | fasting | caffeine  | physical activity | date | service",""
2018,September 9,Sunday,20:00,meh,"travel | passeio | contact lens | relax | physical activity | date | a posterior",""
2018,September 9,Sunday,19:00,meh,"travel | passeio | contact lens | physical activity | date | a posterior",""
2018,September 9,Sunday,13:00,meh,"travel | passeio | contact lens | relax | physical activity | date | a posterior","tava na praia com a Letícia   foi legal no geral mas seila, acho que tô incomodado com o meu panorama geral"
2018,September 8,Saturday,13:13,good,"passeio | contact lens | physical activity | cycling | date",""
2018,September 7,Friday,13:13,good,"",""
2018,September 6,Thursday,13:13,meh,"",""
2018,September 5,Wednesday,13:13,meh,"",""
2018,September 4,Tuesday,18:18,satisfied,"",""
=======
>>>>>>> 6c234633954151804ac16cce1de010c4337622ad
2018,September 3,Monday,18:55,meh,"home | caffeine  | service | procastination",""
2018,September 3,Monday,12:51,good,"home | fasting | caffeine  | work | service",""
2018,September 2,Sunday,23:30,rad,"passeio | contact lens | relax | physical activity | social | date | treta | a posterior","pós bikenique e despedida do ian  treta com Letícia"
2018,September 2,Sunday,19:00,rad,"passeio | contact lens | relax | physical activity | cycling | social | date | a posterior","bikenique"
2018,September 2,Sunday,12:30,good,"passeio | contact lens | physical activity | cycling | social | date | a posterior","bikenique"
2018,September 1,Saturday,19:30,meh,"",""
2018,August 31,Friday,23:30,good,"passeio | contact lens | physical activity | cycling | social | a posterior",""
2018,August 31,Friday,18:00,rad,"USP | passeio | contact lens | relax | physical activity | social | work | a posterior",""
2018,August 31,Friday,13:30,good,"contact lens | fasting | physical activity | social | a posterior",""
2018,August 30,Thursday,19:11,bad,"home | contact lens | caffeine  | procastination",""
2018,August 30,Thursday,11:30,good,"USP | contact lens | caffeine  | physical activity | date | formal | a posterior",""
2018,August 29,Wednesday,19:00,meh,"a posterior",""
2018,August 28,Tuesday,19:13,bad,"USP | home | contact lens | physical activity | service | procastination",""
2018,August 28,Tuesday,12:30,bad,"home | procastination",""
2018,August 27,Monday,23:30,bad,"passeio | physical activity | cycling | social | a posterior","odeio me sentir um lixo social"
2018,August 27,Monday,12:58,meh,"USP | caffeine  | physical activity | work",""
2018,August 26,Sunday,23:29,good,"home | passeio | contact lens | physical activity | social | date | a posterior","conheci fernanda"
2018,August 26,Sunday,19:00,bad,"caffeine  | formal | work | a posterior",""
2018,August 26,Sunday,12:58,meh,"contact lens | caffeine  | formal | work | a posterior",""
2018,August 26,Sunday,00:30,meh,"contact lens | formal | work | a posterior",""
2018,August 25,Saturday,18:30,good,"contact lens | formal | work | a posterior",""
2018,August 25,Saturday,13:30,good,"contact lens | physical activity | formal | work | a posterior",""
2018,August 24,Friday,23:30,good,"home | passeio | contact lens | party | social | a posterior",""
2018,August 24,Friday,18:19,bad,"USP | psychologist | contact lens | caffeine  | physical activity | treta | a posterior","mal por causa da leticia"
2018,August 23,Thursday,23:30,meh,"contact lens | physical activity | formal | work | a posterior","não sei se banco é pra mim"
2018,August 23,Thursday,15:00,good,"USP | home | contact lens | caffeine  | physical activity | social | formal | work | a posterior",""
2018,August 22,Wednesday,18:13,good,"USP | contact lens | caffeine  | physical activity | work | service",""
2018,August 22,Wednesday,12:30,good,"home | contact lens | fasting | caffeine  | work",""
2018,August 21,Tuesday,18:49,meh,"USP | home | contact lens | fasting | physical activity | study | work",""
2018,August 20,Monday,18:03,meh,"USP | caffeine  | service | procastination",""
2018,August 20,Monday,12:30,good,"caffeine  | physical activity | date | service",""
2018,August 19,Sunday,22:00,meh,"passeio | contact lens | physical activity | date | treta","conversa com Letícia"
2018,August 19,Sunday,15:01,bad,"home | contact lens | fasting | physical activity",""
2018,August 19,Sunday,02:00,meh,"passeio | contact lens | physical activity | party | social | a posterior",""
2018,August 18,Saturday,23:00,bad,"home | contact lens | procastination | a posterior",""
2018,August 18,Saturday,19:20,meh,"home | contact lens | caffeine  | chill | procastination",""
2018,August 17,Friday,19:20,meh,"",""
2018,August 16,Thursday,11:45,good,"USP | contact lens | caffeine  | formal",""
2018,August 15,Wednesday,23:30,rad,"home | passeio | contact lens | physical activity | cycling | social | service","limpeza e breja com Junior"
2018,August 15,Wednesday,17:30,good,"home | psychologist | contact lens | fasting | caffeine  | physical activity | work | procastination",""
2018,August 14,Tuesday,21:30,good,"USP | home | contact lens | caffeine  | physical activity | social | study | work",""
2018,August 13,Monday,17:30,good,"USP | contact lens | caffeine  | physical activity | chill | social | study | formal | a posterior",""
2018,August 12,Sunday,21:30,good,"home | chill | procastination | a posterior",""
2018,August 11,Saturday,23:30,good,"home | passeio | contact lens | physical activity | chill | social | a posterior",""
2018,August 11,Saturday,17:30,rad,"passeio | contact lens | relax | physical activity | cycling | social | formal | a posterior",""
2018,August 10,Friday,23:30,rad,"USP | contact lens | physical activity | party | social | study | a posterior",""
2018,August 10,Friday,17:45,good,"USP | passeio | contact lens | caffeine  | physical activity | chill | social",""
2018,August 10,Friday,12:00,good,"USP | passeio | contact lens | fasting | caffeine  | physical activity | chill | social | date",""
2018,August 9,Thursday,23:30,good,"USP | passeio | contact lens | physical activity | social | date | service | treta",""
2018,August 9,Thursday,17:45,bad,"contact lens | physical activity | date | service | treta",""
2018,August 8,Wednesday,23:30,good,"USP | home | passeio | psychologist | physical activity | work | procastination",""
2018,August 7,Tuesday,17:47,good,"USP | home | caffeine  | physical activity | study | work",""
2018,August 6,Monday,23:30,good,"USP | home | physical activity | social | procastination | a posterior",""
2018,August 6,Monday,18:00,good,"USP | caffeine  | physical activity | study | work | a posterior",""
2018,August 6,Monday,11:49,meh,"fasting | date",""
2018,August 5,Sunday,23:30,meh,"passeio | physical activity | date | a posterior",""
2018,August 5,Sunday,18:00,meh,"home | passeio | caffeine  | physical activity | social | date | formal | a posterior","marcha da ciência  reflexivo sobre mãe do zeca"
2018,August 4,Saturday,23:00,good,"home | passeio | contact lens | relax | physical activity | social",""
2018,August 4,Saturday,18:00,good,"passeio | contact lens | relax | physical activity | social",""
2018,August 4,Saturday,13:00,meh,"contact lens | fasting | date | service",""
2018,August 3,Friday,22:45,good,"USP | contact lens | physical activity | social | formal","balaio e garoa com top"
2018,August 3,Friday,18:00,meh,"USP | home | psychologist | contact lens | caffeine  | physical activity | social | date | service",""
2018,August 3,Friday,12:00,meh,"home | fasting | caffeine  | social | date",""
2018,August 2,Thursday,23:30,meh,"home | travel | date",""
2018,August 2,Thursday,17:15,meh,"travel | procastination",""
2018,August 2,Thursday,11:49,meh,"home | travel | contact lens | fasting | procastination",""
2018,August 1,Wednesday,19:33,meh,"travel | passeio | contact lens",""
2018,August 1,Wednesday,11:45,meh,"home | travel | passeio | contact lens | fasting",""
2018,July 31,Tuesday,19:30,meh,"home | travel | passeio | procastination",""
2018,July 31,Tuesday,13:00,meh,"home | travel | procastination",""
2018,July 30,Monday,22:45,good,"home | travel | chill",""
2018,July 30,Monday,18:35,meh,"home | travel | passeio",""
2018,July 30,Monday,11:55,bad,"home | travel | contact lens | fasting | procastination",""
2018,July 29,Sunday,23:34,good,"home | travel | passeio | contact lens | social",""
2018,July 29,Sunday,17:44,bad,"travel | contact lens | fasting | chill","cheguei em cacoal"
2018,July 29,Sunday,12:00,awful,"home | travel | contact lens | fasting | chill | a posterior","busao"
2018,July 28,Saturday,19:24,bad,"home | travel | passeio | contact lens | fasting | physical activity | procastination",""
2018,July 28,Saturday,12:29,bad,"home | travel | contact lens | fasting | procastination | a posterior",""
2018,July 27,Friday,23:30,meh,"home | travel | passeio | contact lens | date | a posterior",""
2018,July 27,Friday,18:00,bad,"home | travel | contact lens | fasting | physical activity | procastination | a posterior",""
2018,July 27,Friday,12:28,awful,"home | travel | contact lens | fasting | procastination | a posterior",""
2018,July 26,Thursday,23:30,bad,"home | travel | passeio | contact lens | social | sick | a posterior",""
2018,July 26,Thursday,18:00,bad,"home | travel | passeio | contact lens | physical activity | cycling | procastination | sick | a posterior",""
2018,July 26,Thursday,13:33,bad,"travel | contact lens | fasting | caffeine  | physical activity | work | sick | treta",""
2018,July 25,Wednesday,22:50,bad,"home | travel | contact lens | social | sick | treta",""
2018,July 25,Wednesday,18:35,aaa,"home | travel | passeio | contact lens | caffeine  | physical activity | social | sick | treta","thais"
2018,July 25,Wednesday,11:59,aaa,"travel | contact lens | fasting | caffeine  | physical activity | work | sick | treta","nossa eu não quero mais voltar pra rondonia"
2018,July 24,Tuesday,23:30,bad,"travel | passeio | contact lens | physical activity | sick | treta | a posterior","Thais ta vindo"
2018,July 24,Tuesday,18:00,good,"travel | passeio | contact lens | caffeine  | physical activity | cycling | work | sick | a posterior","começando a melhorar"
2018,July 24,Tuesday,11:45,awful,"home | travel | contact lens | fasting | caffeine  | procastination | sick | treta","muito chateado"
2018,July 23,Monday,23:00,aaa,"home | travel | passeio | contact lens | sick | treta | a posterior","eu quero mandar o meu pai a merda. aparência é tudo para ele"
2018,July 23,Monday,18:00,meh,"home | travel | contact lens | physical activity | service | procastination | sick | a posterior","fui ao médico denovo e continuei enrolando"
2018,July 23,Monday,12:00,bad,"home | travel | contact lens | physical activity | service | procastination | sick | a posterior","fui ao médico e enrolei"
2018,July 22,Sunday,19:00,bad,"travel | passeio | contact lens | caffeine  | physical activity | social | procastination | sick",""
2018,July 22,Sunday,12:00,bad,"travel | passeio | contact lens | caffeine  | sick",""
2018,July 21,Saturday,18:00,awful,"home | travel | procastination | sick",""
2018,July 20,Friday,12:30,meh,"home | travel | contact lens | caffeine  | service | sick",""
2018,July 19,Thursday,23:30,meh,"travel | contact lens | social | sick | a posterior",""
2018,July 19,Thursday,18:00,meh,"passeio | contact lens | caffeine  | physical activity | date | service | sick | a posterior",""
2018,July 19,Thursday,12:00,good,"home | passeio | contact lens | fasting | caffeine  | physical activity | service | sick",""
2018,July 18,Wednesday,23:00,good,"USP | passeio | contact lens | physical activity | social | service | sick | a posterior","bolinha com o pessoal  ar muito poluído"
2018,July 18,Wednesday,18:00,good,"USP | home | contact lens | caffeine  | physical activity | procastination | a posterior",""
2018,July 18,Wednesday,12:00,meh,"home | contact lens | caffeine  | date | service | procastination",""
2018,July 17,Tuesday,23:00,good,"home | contact lens | chill | date | a posterior",""
2018,July 17,Tuesday,18:00,meh,"passeio | contact lens | physical activity | cycling | date | a posterior",""
2018,July 17,Tuesday,12:00,meh,"home | passeio | contact lens | fasting | physical activity | date | service | a posterior",""
2018,July 16,Monday,12:28,good,"home | contact lens | fasting | caffeine  | date",""
2018,July 15,Sunday,23:30,meh,"passeio | contact lens | fasting | physical activity | cycling | party | social | a posterior",""
2018,July 15,Sunday,18:00,meh,"passeio | contact lens | caffeine  | physical activity | cycling | social | a posterior",""
2018,July 15,Sunday,12:00,good,"passeio | contact lens | fasting | caffeine  | date | a posterior",""
2018,July 14,Saturday,23:00,meh,"passeio | contact lens | caffeine  | physical activity | date | treta | a posterior","Letícia aff"
2018,July 14,Saturday,18:00,good,"passeio | contact lens | caffeine  | physical activity | cycling | formal | a posterior",""
2018,July 14,Saturday,12:00,good,"home | contact lens | fasting | caffeine  | service | procastination | a posterior",""
2018,July 13,Friday,12:00,rad,"USP | passeio | contact lens | fasting | caffeine  | physical activity | date | a posterior",""
2018,July 12,Thursday,23:30,hihi,"USP | passeio | contact lens | physical activity | date | a posterior","nossa"
2018,July 12,Thursday,18:00,good,"USP | passeio | contact lens | caffeine  | physical activity | social | date | procastination | a posterior",""
2018,July 12,Thursday,12:00,good,"home | contact lens | fasting | caffeine  | social | procastination | a posterior",""
2018,July 11,Wednesday,11:52,satisfied,"USP | contact lens | fasting | caffeine  | physical activity | formal | work",""
2018,July 10,Tuesday,12:00,meh,"home | passeio | contact lens | caffeine  | physical activity | date",""
2018,July 9,Monday,17:22,meh,"home | contact lens | physical activity | cycling | date | service",""
2018,July 9,Monday,12:23,bad,"travel | passeio | contact lens | relax | caffeine  | cycling | date",""
2018,July 8,Sunday,17:18,good,"travel | passeio | contact lens | fasting | relax | caffeine  | physical activity | cycling | date",""
2018,July 8,Sunday,11:50,good,"travel | passeio | contact lens | relax | caffeine  | physical activity | chill | social | date",""
2018,July 7,Saturday,22:30,good,"travel | passeio | contact lens | relax | physical activity | chill | date",""
2018,July 7,Saturday,18:00,rad,"travel | passeio | contact lens | relax | caffeine  | physical activity | social | date",""
2018,July 7,Saturday,11:45,good,"travel | contact lens | relax | caffeine  | date",""
2018,July 6,Friday,23:30,good,"travel | passeio | contact lens | relax | chill | social",""
2018,July 6,Friday,17:15,good,"travel | passeio | fasting | physical activity | date | service","Letícia é mt lerda"
2018,July 6,Friday,12:08,good,"home | contact lens | date | service",""
2018,July 5,Thursday,17:40,meh,"home | passeio | psychologist | procastination",""
2018,July 5,Thursday,11:45,good,"home | passeio | fasting | caffeine  | physical activity | social | procastination",""
2018,July 4,Wednesday,17:22,meh,"USP | caffeine  | work",""
2018,July 4,Wednesday,11:47,meh,"USP | home | fasting | caffeine  | physical activity | formal",""
2018,July 3,Tuesday,23:23,meh,"USP | home | physical activity | work | procastination",""
2018,July 3,Tuesday,17:35,meh,"USP | fasting | caffeine  | physical activity | procastination | treta",""
2018,July 3,Tuesday,12:55,zzz,"home | fasting | caffeine  | service | procastination",""
2018,July 2,Monday,20:00,good,"home | caffeine  | study | procastination",""
2018,July 2,Monday,12:01,meh,"home | caffeine  | date | procastination",""
2018,July 1,Sunday,11:45,bad,"",""
2018,June 30,Saturday,23:30,good,"home | passeio | contact lens | physical activity | date | service | a posterior",""
2018,June 29,Friday,18:42,gogo,"USP | passeio | contact lens | physical activity | social | study",""
2018,June 29,Friday,11:53,good,"passeio | psychologist | contact lens | fasting | caffeine  | physical activity | work",""
2018,June 28,Thursday,17:42,bad,"USP | contact lens | fasting | physical activity | study",""
2018,June 27,Wednesday,17:19,meh,"home | fasting | caffeine  | social | service | procastination",""
2018,June 26,Tuesday,17:18,zzz,"USP | passeio | caffeine  | physical activity | work | procastination",""
2018,June 26,Tuesday,12:09,meh,"USP | fasting | caffeine  | physical activity | work | procastination | treta",""
2018,June 25,Monday,17:30,good,"USP | caffeine  | physical activity | work | procastination",""
2018,June 25,Monday,11:47,good,"home | fasting | caffeine  | work | procastination",""
2018,June 24,Sunday,12:53,good,"home | fasting | caffeine  | service",""
2018,June 23,Saturday,13:00,good,"home | contact lens | caffeine  | service",""
2018,June 22,Friday,23:30,good,"USP | contact lens | physical activity | social | date | a posterior",""
2018,June 22,Friday,17:00,good,"home | contact lens | fasting | caffeine  | physical activity | service | procastination | treta",""
2018,June 21,Thursday,18:20,rad,"USP | psychologist | contact lens | fasting | caffeine  | physical activity | social | treta",""
2018,June 21,Thursday,12:00,rad,"USP | contact lens | fasting | caffeine  | physical activity | social | study | formal | a posterior",""
2018,June 20,Wednesday,23:30,wonderful,"USP | home | contact lens | physical activity | chill | social | achievement | a posterior",""
2018,June 20,Wednesday,18:22,meh,"USP | contact lens | caffeine  | work | a posterior",""
2018,June 20,Wednesday,12:49,meh,"home | contact lens | fasting | physical activity | work | procastination",""
2018,June 19,Tuesday,20:00,meh,"USP | home | contact lens | physical activity | work | procastination",""
2018,June 19,Tuesday,10:02,zzz,"home | fasting | procastination",""
2018,June 18,Monday,20:00,good,"USP | contact lens | work",""
2018,June 18,Monday,12:16,bad,"home | procastination",""
2018,June 17,Sunday,23:30,bad,"home | contact lens | procastination | a posterior",""
2018,June 17,Sunday,18:00,bad,"home | contact lens | service | procastination | a posterior",""
2018,June 17,Sunday,12:21,meh,"home | contact lens | procastination",""
2018,June 17,Sunday,05:30,good,"passeio | contact lens | physical activity | party | social | a posterior",""
2018,June 16,Saturday,23:30,meh,"home | passeio | contact lens | party | social | a posterior",""
2018,June 16,Saturday,17:30,meh,"home | contact lens | physical activity | procastination | a posterior",""
2018,June 15,Friday,23:13,bad,"USP | contact lens | party | social",""
2018,June 15,Friday,18:06,shitty,"USP | passeio | psychologist | contact lens | caffeine  | physical activity | study | treta",""
2018,June 15,Friday,11:58,good,"home | contact lens | fasting | caffeine  | physical activity | study | service",""
2018,June 14,Thursday,22:49,good,"home | contact lens | physical activity | study",""
2018,June 14,Thursday,19:51,good,"USP | passeio | contact lens | caffeine  | physical activity | social | study",""
2018,June 14,Thursday,12:09,aff,"home | contact lens | fasting | caffeine  | physical activity | study | service",""
2018,June 13,Wednesday,22:54,meh,"home | contact lens | chill | study | treta",""
2018,June 13,Wednesday,18:25,awful,"USP | contact lens | caffeine  | study | treta","nossa odeio tanto a fisica"
2018,June 13,Wednesday,12:12,good,"USP | home | contact lens | fasting | caffeine  | physical activity | social | study",""
2018,June 12,Tuesday,19:22,aff,"USP | contact lens | caffeine  | physical activity | study | formal",""
2018,June 12,Tuesday,11:47,aff,"home | contact lens | fasting | caffeine  | study | procastination",""
2018,June 11,Monday,23:30,meh,"USP | home | passeio | contact lens | physical activity | date | work | treta | a posterior",""
2018,June 10,Sunday,22:30,meh,"home | contact lens | social | date | work | procastination | a posterior",""
2018,June 9,Saturday,23:37,meh,"home | contact lens | date | a posterior",""
2018,June 8,Friday,23:36,meh,"USP | psychologist | contact lens | date | work | a posterior",""
2018,June 7,Thursday,18:10,meh,"USP | contact lens | caffeine  | study | work",""
2018,June 7,Thursday,12:10,bad,"caffeine  | physical activity | date | a posterior",""
2018,June 6,Wednesday,23:30,meh,"physical activity | date | formal | work | a posterior",""
2018,June 6,Wednesday,18:14,meh,"USP | contact lens | fasting | physical activity | work",""
2018,June 6,Wednesday,11:45,good,"USP | contact lens | caffeine  | physical activity | social | formal",""
2018,June 5,Tuesday,23:00,gogo,"USP | home | contact lens | physical activity | social | formal | work | procastination",""
2018,June 5,Tuesday,17:23,meh,"USP | contact lens | caffeine  | study | formal | work",""
2018,June 5,Tuesday,11:45,shitty,"USP | home | contact lens | caffeine  | physical activity | formal | treta",""
2018,June 4,Monday,17:18,shitty,"USP | contact lens | caffeine  | work | procastination",""
2018,June 4,Monday,12:50,meh,"USP | home | contact lens | fasting | caffeine  | physical activity | work | procastination",""
2018,June 3,Sunday,12:13,zzz,"home | contact lens | fasting | caffeine  | physical activity | procastination",""
2018,June 2,Saturday,11:58,zzz,"home | procastination",""
2018,June 1,Friday,22:47,bad,"home | procastination",""
2018,June 1,Friday,17:37,bad,"home | contact lens | physical activity | work | procastination",""
2018,June 1,Friday,14:15,good,"home | contact lens | service | procastination",""
2018,May 31,Thursday,17:54,meh,"passeio | relax | physical activity | cycling | procastination",""
2018,May 31,Thursday,12:00,aff,"home | contact lens | fasting | work | procastination",""
2018,May 30,Wednesday,22:45,bad,"USP | home | psychologist | physical activity | work | treta",""
2018,May 30,Wednesday,18:56,gogo,"USP | contact lens | caffeine  | formal | work | procastination",""
2018,May 30,Wednesday,12:03,rad,"passeio | contact lens | fasting | relax | caffeine  | physical activity | cycling | date",""
2018,May 29,Tuesday,18:13,good,"USP | contact lens | caffeine  | formal | work",""
2018,May 29,Tuesday,13:05,good,"USP | home | contact lens | physical activity | social | service",""
2018,May 28,Monday,22:49,good,"USP | home | physical activity | social | work | procastination",""
2018,May 28,Monday,17:17,meh,"USP | caffeine  | work",""
2018,May 28,Monday,12:25,meh,"USP | home | fasting | physical activity",""
2018,May 27,Sunday,21:30,meh,"home | passeio | contact lens | physical activity | cycling | date | sick | a posterior",""
2018,May 27,Sunday,12:00,good,"passeio | contact lens | fasting | physical activity | cycling | date | sick",""
2018,May 26,Saturday,22:30,meh,"passeio | contact lens | physical activity | cycling | date | sick | a posterior","marcha da maconha"
2018,May 26,Saturday,12:22,shitty,"home | contact lens | fasting | caffeine  | work | procastination",""
2018,May 25,Friday,22:48,zzz,"USP | party | social",""
2018,May 25,Friday,18:43,good,"USP | psychologist | social | formal | procastination",""
2018,May 25,Friday,12:00,good,"USP | home | contact lens | fasting | caffeine  | physical activity | procastination | a posterior",""
2018,May 24,Thursday,22:00,good,"USP | home | psychologist | physical activity | social | study | work | sick | a posterior",""
2018,May 24,Thursday,11:45,good,"USP | contact lens | fasting | caffeine  | physical activity | social | formal | sick",""
2018,May 23,Wednesday,18:09,good,"USP | contact lens | caffeine  | social | work",""
2018,May 23,Wednesday,11:46,gogo,"USP | home | contact lens | fasting | caffeine  | physical activity | social | work",""
2018,May 22,Tuesday,23:00,meh,"USP | home | passeio | physical activity | study | formal | procastination",""
2018,May 22,Tuesday,17:16,meh,"USP | study | work",""
2018,May 22,Tuesday,11:45,satisfied,"USP | caffeine  | physical activity | social | work",""
2018,May 21,Monday,22:00,meh,"USP | home | physical activity | work | sick | a posterior",""
2018,May 21,Monday,17:18,meh,"USP | caffeine  | work | sick",""
2018,May 21,Monday,12:13,good,"USP | home | fasting | caffeine  | physical activity | work | procastination",""
2018,May 20,Sunday,20:00,good,"home | passeio | contact lens | relax | caffeine  | physical activity | social | date | achievement | a posterior",""
2018,May 19,Saturday,23:25,good,"home | passeio | contact lens | relax | physical activity | date | a posterior",""
2018,May 19,Saturday,17:15,bad,"passeio | contact lens | relax | physical activity",""
2018,May 19,Saturday,13:22,rad,"passeio | contact lens | relax | caffeine  | physical activity | social","avistar"
2018,May 18,Friday,23:30,rad,"home | contact lens | social | work | procastination | achievement | a posterior",""
2018,May 18,Friday,17:19,good,"USP | home | passeio | contact lens | physical activity | social | work",""
2018,May 18,Friday,11:48,good,"home | fasting | caffeine  | work",""
2018,May 17,Thursday,22:51,good,"home | passeio | psychologist | contact lens | physical activity | social | work | procastination",""
2018,May 17,Thursday,17:15,good,"USP | contact lens | caffeine  | physical activity | social | study",""
2018,May 17,Thursday,11:56,good,"USP | contact lens | fasting | caffeine  | physical activity | formal",""
2018,May 16,Wednesday,22:45,good,"USP | passeio | contact lens | social | procastination | achievement",""
2018,May 16,Wednesday,17:30,hihi,"USP | passeio | contact lens | caffeine  | physical activity | social | achievement | a posterior","metendo louco na globo"
2018,May 16,Wednesday,11:43,bad,"home | contact lens | fasting | procastination",""
2018,May 15,Tuesday,23:24,bad,"USP | home | contact lens | physical activity | social | work | procastination | treta",""
2018,May 15,Tuesday,17:50,grr,"USP | contact lens | caffeine  | social | work | treta | a posterior","atomol aff"
2018,May 15,Tuesday,12:00,gogo,"USP | home | contact lens | fasting | caffeine  | physical activity | social | work | a posterior",""
2018,May 14,Monday,22:00,good,"home | contact lens | chill | study",""
2018,May 13,Sunday,13:30,good,"home | work | procastination",""
2018,May 12,Saturday,22:30,bad,"home | procastination | sick","enxaqueca"
2018,May 12,Saturday,17:30,aff,"home | caffeine  | chill | procastination | sick | a posterior",""
2018,May 12,Saturday,13:30,zzz,"home | fasting | caffeine  | procastination | a posterior",""
2018,May 12,Saturday,05:30,aff,"USP | contact lens | physical activity | party | a posterior",""
2018,May 11,Friday,23:30,good,"USP | home | contact lens | physical activity | party | social | service | treta | a posterior","câmara de ar furando geral"
2018,May 11,Friday,17:25,gogo,"USP | contact lens | caffeine  | physical activity | social | study | formal",""
2018,May 11,Friday,11:47,good,"home | contact lens | physical activity | procastination",""
2018,May 10,Thursday,22:52,good,"USP | psychologist | contact lens | caffeine  | physical activity | social | study",""
2018,May 10,Thursday,11:30,zzz,"home | contact lens | procastination | a posterior",""
2018,May 9,Wednesday,16:31,zzz,"home | contact lens | chill | procastination | a posterior","greve"
2018,May 9,Wednesday,11:46,good,"home | contact lens | fasting | caffeine  | procastination",""
2018,May 8,Tuesday,17:19,good,"USP | contact lens | caffeine  | physical activity | social | study",""
2018,May 8,Tuesday,11:45,good,"home | contact lens | fasting | caffeine  | study | procastination",""
2018,May 7,Monday,17:15,zzz,"USP | contact lens | caffeine  | physical activity | social | study",""
2018,May 7,Monday,11:45,good,"home | contact lens | fasting | caffeine  | procastination",""
2018,May 6,Sunday,22:30,good,"home | contact lens | chill | date | procastination | a posterior",""
2018,May 6,Sunday,15:00,rad,"home | contact lens | chill | social | a posterior","papo com família do zeca"
2018,May 5,Saturday,23:30,good,"home | contact lens | chill | date | a posterior",""
2018,May 5,Saturday,17:31,good,"passeio | contact lens | relax | physical activity | date | a posterior","feira do mst, que magnífico!"
2018,May 5,Saturday,11:48,good,"home | contact lens | fasting | procastination",""
2018,May 4,Friday,12:22,good,"USP | home | contact lens | fasting | caffeine  | physical activity | social | formal | work | config change","[cc: added contact lens, archived study]"
2018,May 3,Thursday,22:24,meh,"USP | home | caffeine  | physical activity | study | work | class",""
2018,May 3,Thursday,11:45,meh,"home | fasting | study",""
2018,May 2,Wednesday,22:45,meh,"USP | home | physical activity | social | study | procastination",""
2018,May 2,Wednesday,17:30,bad,"USP | fasting | physical activity | procastination",""
2018,May 2,Wednesday,12:30,good,"home | fasting | date | procastination",""
2018,May 1,Tuesday,22:58,good,"home | passeio | chill | date | procastination",""
2018,May 1,Tuesday,14:00,rad,"passeio | fasting | relax | caffeine  | physical activity | cycling | social | date | a posterior","pico do Jaraguá com leticia e rafofo"
2018,April 30,Monday,21:00,good,"home | chill | date | service | procastination",""
2018,April 29,Sunday,23:30,aff,"home | passeio | physical activity | chill | cycling | service",""
2018,April 29,Sunday,18:00,aaa,"home | passeio | caffeine  | physical activity | cycling | social | treta | a posterior","resolvi negocio do rafofo e fui passear para:  perder o celular afff"
2018,April 29,Sunday,12:00,meh,"home | fasting | caffeine  | date | a posterior",""
2018,April 28,Saturday,22:48,good,"home | relax | date",""
2018,April 28,Saturday,17:16,good,"home | social | date",""
2018,April 28,Saturday,12:09,meh,"home | fasting | caffeine  | date | procastination",""
2018,April 27,Friday,23:45,good,"USP | passeio | physical activity | cycling | date | formal",""
2018,April 27,Friday,18:14,meh,"USP | caffeine  | physical activity | social | work | procastination",""
2018,April 27,Friday,12:18,awful,"home | fasting | caffeine  | study | procastination | treta","até o rafofo"
2018,April 26,Thursday,22:45,good,"USP | home | passeio | physical activity | chill | procastination",""
2018,April 26,Thursday,18:24,good,"USP | psychologist | fasting | caffeine  | physical activity | work",""
2018,April 26,Thursday,11:45,shitty,"home | fasting | procastination",""
2018,April 25,Wednesday,17:15,meh,"home | fasting | caffeine  | service | procastination",""
2018,April 25,Wednesday,11:47,shitty,"home | procastination",""
2018,April 24,Tuesday,23:48,good,"USP | home | passeio | physical activity | cycling | procastination",""
2018,April 24,Tuesday,17:43,good,"USP | caffeine  | work | procastination",""
2018,April 24,Tuesday,12:15,meh,"home | caffeine  | procastination",""
2018,April 23,Monday,23:15,good,"USP | home | physical activity | procastination",""
2018,April 23,Monday,17:22,zzz,"USP | caffeine  | physical activity | formal | work | achievement",""
2018,April 23,Monday,11:47,shitty,"home | fasting | caffeine  | service",""
2018,April 22,Sunday,22:47,shitty,"home | service | procastination",""
2018,April 22,Sunday,17:16,good,"home | caffeine  | service",""
2018,April 22,Sunday,04:00,meh,"home | party | social | a posterior",""
2018,April 21,Saturday,22:55,good,"home | physical activity | social | service",""
2018,April 21,Saturday,17:17,good,"passeio | caffeine  | physical activity | cycling | service","fiz passeio de bike, rolezei no shops e vendi coisa"
2018,April 20,Friday,23:30,good,"USP | party | social | work | a posterior",""
2018,April 20,Friday,18:26,gogo,"USP | caffeine  | physical activity | social | work",""
2018,April 19,Thursday,23:10,good,"USP | physical activity | work | procastination",""
2018,April 19,Thursday,19:19,good,"USP | psychologist | fasting | caffeine  | physical activity | chill | procastination",""
2018,April 19,Thursday,12:05,meh,"home | procastination",""
2018,April 18,Wednesday,23:30,meh,"USP | home | physical activity | work | procastination | a posterior","fiquei investigando sobre minerar o bagulhp do onde fui roubado  me sinto pressionado"
2018,April 18,Wednesday,17:29,gogo,"USP | caffeine  | work",""
2018,April 18,Wednesday,11:45,good,"USP | home | fasting | caffeine  | physical activity | formal | procastination | sick | config change","reunião de ic"
2018,April 17,Tuesday,22:51,good,"USP | home | physical activity | social | sick",""
2018,April 17,Tuesday,19:51,good,"USP | passeio | physical activity | social | date | work | sick","aniversário  sai com mayte e pessoal. conheci a ballan me acidentei de bike  teve monitoria tb e recebi boas notícias sobre a ic"
2018,April 17,Tuesday,11:47,aff,"home | passeio | physical activity | formal",""
2018,April 16,Monday,17:24,zzz,"home | caffeine  | work",""
2018,April 16,Monday,11:46,meh,"home | procastination",""
2018,April 15,Sunday,17:22,gogo,"home | fasting | date | work",""
2018,April 15,Sunday,14:47,gogo,"home | fasting | caffeine  | chill | social | date | work | config change",""
2018,April 14,Saturday,17:16,good,"home | caffeine  | social | date | work | procastination",""
2018,April 14,Saturday,06:00,good,"passeio | chill | date",""
2018,April 13,Friday,23:04,good,"chill | social | date | formal | procastination",""
2018,April 13,Friday,17:21,satisfied,"caffeine  | chill | work",""
2018,April 12,Thursday,22:47,meh,"chill | work | procastination",""
2018,April 12,Thursday,17:15,shitty,"passeio | cycling | procastination",""
2018,April 12,Thursday,11:45,zzz,"caffeine  | procastination",""
2018,April 11,Wednesday,22:45,bad,"passeio | cycling | procastination",""
2018,April 11,Wednesday,17:18,zzz,"USP | study | service | config change | class","levei bike na bicicletaria aula de ingles aula de qinfo to zzz"
2018,April 11,Wednesday,11:56,meh,"service",""
2018,April 10,Tuesday,22:59,meh,"work | procastination",""
2018,April 10,Tuesday,17:17,meh,"social | work | class",""
2018,April 9,Monday,22:54,good,"chill | social",""
2018,April 9,Monday,17:15,meh,"study | class",""
2018,April 9,Monday,11:56,meh,"study",""
2018,April 8,Sunday,23:00,meh,"social | a posterior",""
2018,April 8,Sunday,18:00,bad,"study | procastination | a posterior",""
2018,April 8,Sunday,10:00,meh,"party | social | study | work | a posterior",""
2018,April 8,Sunday,00:00,good,"party | social | study | work | a posterior",""
2018,April 7,Saturday,17:17,good,"party | social | work",""
2018,April 6,Friday,17:17,bad,"psychologist | social","eu odeio o cefisma"
2018,April 6,Friday,12:47,good,"social | formal",""
2018,April 5,Thursday,23:20,good,"procastination",""
2018,April 5,Thursday,17:54,good,"work | sick | treta","lab e prova"
2018,April 4,Wednesday,23:45,meh,"chill | study | procastination | a posterior","julgamento lula"
2018,April 4,Wednesday,11:45,good,"procastination",""
2018,April 3,Tuesday,22:47,good,"social | work",""
2018,April 3,Tuesday,17:15,good,"social | study | class",""
2018,April 3,Tuesday,11:45,good,"relax | study",""
2018,April 2,Monday,23:48,meh,"study | procastination",""
2018,April 2,Monday,18:21,meh,"study",""
2018,April 2,Monday,11:45,good,"procastination",""
2018,April 1,Sunday,23:45,meh,"study | service | procastination",""
2018,April 1,Sunday,17:45,meh,"study | procastination",""
2018,March 31,Saturday,17:56,meh,"procastination",""
2018,March 30,Friday,17:48,meh,"study | service | procastination",""
2018,March 29,Thursday,23:45,good,"social | procastination",""
2018,March 29,Thursday,18:59,good,"psychologist | social | work",""
2018,March 29,Thursday,11:45,meh,"study | formal",""
2018,March 28,Wednesday,23:45,good,"social | procastination","socializei com pessoal do ca, conheci família do rafofo e procastinei"
2018,March 28,Wednesday,19:18,good,"social | service | procastination",""
2018,March 28,Wednesday,14:34,good,"service | procastination",""
2018,March 27,Tuesday,23:45,good,"date | service | procastination",""
2018,March 26,Monday,18:38,good,"social | formal | work","ajudei o guto, discuti sobre painel, hackerspace e trampo no lab5"
2018,March 25,Sunday,23:45,rad,"social | work","hackathlon"
2018,March 24,Saturday,18:38,meh,"procastination",""
2018,March 23,Friday,18:08,meh,"social | formal","me sentindo impostor"
2018,March 22,Thursday,17:58,good,"procastination | class",""
2018,March 22,Thursday,11:47,good,"formal | service","cta e postagem nos correios"
2018,March 21,Wednesday,23:45,good,"social | study | service | procastination",""
2018,March 21,Wednesday,17:56,bad,"class","me sentindo assustado com as disciplinas que estou fazendo, tensão pré-conversa com a leticia"
2018,March 20,Tuesday,23:29,meh,"work | procastination | a posterior",""
2018,March 20,Tuesday,14:41,meh,"procastination | class",""
2018,March 20,Tuesday,00:04,good,"social | date | service | procastination",""
2018,March 19,Monday,11:45,good,"date | service | procastination",""
2018,March 18,Sunday,18:44,meh,"passeio | cycling | date",""
2018,March 17,Saturday,17:59,good,"date | work | service",""
2018,March 16,Friday,17:48,good,"formal | procastination",""
2018,March 16,Friday,12:11,meh,"work | service | procastination",""
2018,March 15,Thursday,19:32,good,"social | work",""
2018,March 15,Thursday,11:45,good,"social | work",""
2018,March 14,Wednesday,23:30,meh,"chill | social | procastination | a posterior | bandex",""
2018,March 14,Wednesday,18:47,good,"social | work | class",""
2018,March 14,Wednesday,11:52,good,"social | work","lab5 com rafofo"
2018,March 13,Tuesday,17:52,meh,"social | work | service | procastination | class","ajudei o guto com eth, fui na aula de atomol. meio na bad por causa da tati"
2018,March 13,Tuesday,11:45,meh,"service | procastination",""
2018,March 12,Monday,23:30,meh,"social | procastination | bandex",""
2018,March 12,Monday,17:30,good,"study",""
2018,March 12,Monday,11:53,meh,"social | date | procastination",""
2018,March 11,Sunday,23:30,bad,"chill | date | treta","mandei a real pra tati"
2018,March 11,Sunday,19:02,meh,"social | date | service","fui no bk com familia do zeca e leticia; passei a tarde tentando desenbolar o cabelo sem muito resultado"
2018,March 11,Sunday,11:45,good,"date | service",""
2018,March 10,Saturday,23:30,rad,"passeio | relax | cycling | party | social | date","pedalada pelada e festa do davi"
2018,March 10,Saturday,17:30,meh,"service | procastination",""
2018,March 10,Saturday,11:46,meh,"service | procastination",""
2018,March 9,Friday,20:26,good,"travel | passeio | social | work | procastination",""
2018,March 8,Thursday,16:14,meh,"travel | passeio | relax | treta","AAAAAA"
2018,March 7,Wednesday,16:15,meh,"travel | passeio | procastination | treta",""
2018,March 6,Tuesday,11:25,bad,"",""
2018,March 5,Monday,11:25,meh,"",""
2018,March 4,Sunday,11:01,good,"travel | passeio","to viajando com familia ao plantarum"
2018,March 3,Saturday,23:02,meh,"social | date | treta","mae chegou do nada na lapa"
2018,March 3,Saturday,20:02,good,"passeio | date | procastination","festival das lanternas"
2018,March 3,Saturday,16:07,good,"procastination | treta","ta tudo louco"
2018,March 2,Friday,23:50,meh,"party | social | date | procastination","festa no if, leticia ta aqui"
2018,March 2,Friday,16:00,good,"formal | work",""
2018,March 2,Friday,10:00,meh,"treta","tati foi largada no mt"
2018,March 1,Thursday,21:11,good,"social | study | work",""
2018,February 28,Wednesday,23:50,rad,"party | social","fiquei louco na usp, altas dorga"
2018,February 28,Wednesday,18:00,good,"social | study | work",""
2018,February 27,Tuesday,16:44,good,"social | study | work",""
2018,February 27,Tuesday,11:09,bad,"",""
2018,February 26,Monday,19:00,awful,"","bem chateado por conta do estágio"
2018,February 25,Sunday,09:43,good,"travel | passeio | social | date",""
2018,February 24,Saturday,23:12,good,"date | procastination",""
2018,February 24,Saturday,17:45,meh,"",""
2018,February 23,Friday,16:47,good,"social | procastination","falei com o manfredo sobre bicicletas e conversei com o pessoal da minha sala sobre coisas"
2018,February 23,Friday,12:04,bad,"procastination",""
2018,February 22,Thursday,16:19,meh,"",""
2018,February 22,Thursday,11:00,good,"formal",""
2018,February 21,Wednesday,16:00,good,"",""
2018,February 21,Wednesday,11:11,good,"social | service | procastination",""
2018,February 20,Tuesday,22:00,meh,"social | work","sai com a tieko, apaguei uns incêndios"
2018,February 20,Tuesday,14:00,awful,"date | procastination","to me sentindo muito mal e perdido em relação a familia, a mim mesmo e o social. sai com a Letícia"
2018,February 19,Monday,14:08,bad,"",""
2018,February 18,Sunday,14:06,meh,"",""
2018,February 17,Saturday,22:01,bad,"",""
2018,February 17,Saturday,14:00,awful,"","tô bem estressado e inseguro com minha familia"
2018,February 16,Friday,14:38,good,"",""
2018,February 15,Thursday,08:54,good,"",""
2018,February 14,Wednesday,08:54,meh,"",""
2018,February 13,Tuesday,21:33,good,"date",""
2018,February 12,Monday,21:30,bad,"",""
2018,February 12,Monday,17:31,bad,"","eu odeio o meu pai"
2018,February 12,Monday,13:42,meh,"",""
2018,February 11,Sunday,17:38,meh,"date | work | procastination",""
2018,February 10,Saturday,17:39,meh,"date | work",""
2018,February 9,Friday,21:44,meh,"",""
2018,February 9,Friday,20:11,bad,"work","relatório odeio"
2018,February 8,Thursday,20:11,meh,"",""
2018,February 7,Wednesday,14:44,good,"work | procastination",""
2018,February 6,Tuesday,15:12,meh,"date | work | procastination",""
2018,February 5,Monday,17:47,good,"social | work | service | procastination",""
2018,February 4,Sunday,21:55,good,"passeio | work | procastination",""
2018,February 4,Sunday,17:37,good,"work | procastination",""
2018,February 4,Sunday,13:32,good,"procastination",""
2018,February 3,Saturday,13:32,meh,"",""
2018,February 2,Friday,16:10,bad,"",""
2018,February 1,Thursday,21:36,good,"formal | bandex",""
2018,February 1,Thursday,17:53,good,"psychologist | service | procastination",""
2018,February 1,Thursday,13:48,meh,"service",""
2018,January 31,Wednesday,21:57,good,"procastination | bandex",""
2018,January 31,Wednesday,14:02,good,"work | procastination | bandex",""
2018,January 31,Wednesday,09:30,good,"work",""
2018,January 30,Tuesday,17:34,good,"passeio | social","fiz um passeio com ex"
2018,January 29,Monday,21:38,good,"procastination",""
2018,January 29,Monday,13:42,good,"procastination",""
2018,January 28,Sunday,18:56,good,"passeio | relax | date",""
2018,January 28,Sunday,13:32,good,"passeio | cycling | date",""
2018,January 28,Sunday,09:41,good,"service | procastination",""
2018,January 27,Saturday,17:30,good,"date | service",""
2018,January 27,Saturday,15:01,good,"date | service",""
2018,January 26,Friday,21:30,good,"passeio | date",""
2018,January 26,Friday,17:30,good,"passeio | social | date | procastination","ajudei preparar jaca com zeca, fui passear com leticia no largo da batata"
2018,January 26,Friday,14:07,good,"service","conprei mochila"
2018,January 25,Thursday,17:38,bad,"procastination",""
2018,January 25,Thursday,13:40,meh,"date | procastination",""
2018,January 24,Wednesday,21:30,awful,"passeio | social | date | treta","fui ao ato do lula com a leticia  foi magnífico, mas triste  e teve uma treta financeira com meu pai e eu"
2018,January 24,Wednesday,17:47,meh,"procastination",""
2018,January 24,Wednesday,14:24,good,"social | procastination",""
2018,January 23,Tuesday,21:30,good,"psychologist | work",""
2018,January 23,Tuesday,17:30,good,"social | work | service",""
2018,January 23,Tuesday,13:30,meh,"service | procastination",""
2018,January 22,Monday,21:30,good,"social | procastination",""
2018,January 22,Monday,17:30,good,"social | service | treta","hackerspace"
2018,January 22,Monday,13:30,bad,"service | treta","problema mecânico na bike, correios sendo correios, calor. stress"
2018,January 21,Sunday,17:30,meh,"passeio | date | service | treta","dei passei no hvl com Letícia. problema mecânico na bike"
2018,January 21,Sunday,14:09,good,"passeio | relax | date",""
2018,January 21,Sunday,01:30,good,"passeio | date",""
2018,January 20,Saturday,21:30,good,"passeio | date","sai com a leticia"
2018,January 20,Saturday,17:34,meh,"service | procastination","dei uma geral no quarto"
2018,January 20,Saturday,13:30,meh,"service | procastination",""
2018,January 19,Friday,21:38,bad,"procastination | bandex",""
2018,January 19,Friday,17:35,bad,"formal | procastination",""
2018,January 19,Friday,13:36,good,"psychologist | date | service",""
2018,January 18,Thursday,17:58,good,"date | service | procastination",""
2018,January 17,Wednesday,19:30,good,"passeio | social | date | service","vendi o kindle, fui no ato e encontrei Letícia"
2018,January 17,Wednesday,13:30,meh,"service | procastination","postado chromecast"
2018,January 16,Tuesday,17:33,good,"social | procastination | bandex","falei com a ex, estranho"
2018,January 16,Tuesday,13:37,good,"passeio | service","fui a itaquera vender capa do kindle"
2018,January 15,Monday,21:35,good,"social | procastination",""
2018,January 15,Monday,17:32,meh,"passeio | social | service | procastination","vendi a tv"
2018,January 14,Sunday,21:33,good,"social | procastination",""
2018,January 14,Sunday,17:42,meh,"passeio | procastination",""
2018,January 14,Sunday,13:35,meh,"procastination | bandex",""
2018,January 14,Sunday,10:26,meh,"service | procastination",""
2018,January 13,Saturday,21:30,bad,"passeio | procastination",""
2018,January 13,Saturday,19:09,good,"social | service | procastination",""
2018,January 13,Saturday,13:30,good,"social | service | procastination",""
2018,January 13,Saturday,09:42,good,"procastination",""
2018,January 12,Friday,21:35,good,"social | procastination | bandex",""
2018,January 12,Friday,17:45,good,"social | procastination",""
2018,January 12,Friday,14:44,good,"psychologist | procastination | bandex",""
2018,January 12,Friday,09:30,good,"social | service",""
2018,January 11,Thursday,17:31,good,"passeio | social",""
2018,January 11,Thursday,13:30,good,"travel",""
2018,January 11,Thursday,09:30,good,"travel",""
2018,January 11,Thursday,01:30,rad,"travel | passeio | social | date","conheci uma guria do MS e transei com ela"
2018,January 10,Wednesday,21:34,good,"procastination",""
2018,January 10,Wednesday,18:17,meh,"",""
2018,January 10,Wednesday,14:42,good,"passeio | procastination",""
2018,January 10,Wednesday,09:30,rad,"passeio | relax","rio sucuri"
2018,January 9,Tuesday,17:30,meh,"passeio | relax | treta","talvez deu problema no celular  nascente azul"
2018,January 9,Tuesday,13:30,good,"passeio | relax",""
2018,January 9,Tuesday,09:30,rad,"passeio | relax","estação mimosa em bonito, é muito lindo aqui"
2018,January 8,Monday,13:35,good,"passeio | social","gruta azul"
2018,January 8,Monday,09:42,bad,"","meu pai e minha madrasta estão me deixando maluco"
2018,January 7,Sunday,17:35,good,"travel",""
2018,January 6,Saturday,21:30,good,"social | procastination",""
2018,January 6,Saturday,13:30,meh,"",""
2018,January 5,Friday,17:36,good,"passeio | relax | procastination",""
2018,January 5,Friday,14:07,good,"passeio | cycling",""
2018,January 5,Friday,10:23,rad,"passeio | relax | cycling","tour em maringa de bike"
2018,January 4,Thursday,20:32,good,"cycling | work",""
2018,January 4,Thursday,16:49,meh,"work","trampo trampo"
2018,January 3,Wednesday,20:51,good,"work",""
2018,January 3,Wednesday,14:05,meh,"work | service | procastination",""
2018,January 2,Tuesday,17:37,meh,"passeio | procastination",""
2018,January 2,Tuesday,13:30,bad,"","não aguento mais ficar com minha família, a mentalidade deles é incompatível com a minha e ficar aturando eles me dá agonia"
2018,January 1,Monday,21:51,bad,"procastination","tédio improdutivo"
2018,January 1,Monday,13:42,meh,"",""
2017,December 31,Sunday,21:30,meh,"passeio | social | procastination",""
2017,December 31,Sunday,18:07,meh,"procastination",""
2017,December 31,Sunday,15:40,good,"passeio | social | procastination",""
2017,December 30,Saturday,17:56,good,"passeio | cycling | social | procastination","passei na cachoeira de Marialva e na tia rô"
2017,December 30,Saturday,13:35,meh,"passeio | service | procastination",""
2017,December 29,Friday,20:36,meh,"social | procastination",""
2017,December 28,Thursday,13:33,good,"travel | passeio","fui ao paraguay - fiquei meio decepcionado com a variedade e preços"
2017,December 28,Thursday,09:48,good,"travel | passeio",""
2017,December 27,Wednesday,21:31,good,"travel | passeio | procastination",""
2017,December 27,Wednesday,17:31,good,"travel",""
2017,December 27,Wednesday,13:31,good,"travel | work",""
2017,December 27,Wednesday,09:38,good,"work",""
2017,December 27,Wednesday,01:30,good,"social | procastination","nudes nudes"
2017,December 26,Tuesday,21:30,good,"procastination",""
2017,December 26,Tuesday,17:30,good,"passeio | social | procastination",""
2017,December 26,Tuesday,13:31,good,"passeio",""
2017,December 26,Tuesday,09:02,good,"passeio",""
2017,December 25,Monday,21:37,good,"travel",""
2017,December 25,Monday,17:38,good,"travel | procastination",""
2017,December 25,Monday,13:30,good,"travel | procastination","pegando avião para Maringá"
2017,December 24,Sunday,17:30,good,"passeio | social | date | procastination","tati foi embora   eu e todo mundo tomamos café  eu e tati ficamos ouvindo funk"
2017,December 23,Saturday,22:02,rad,"social | date | service","janta com todo mundo"
2017,December 23,Saturday,18:40,rad,"passeio | relax | cycling | date","eu e tati fomos no mirante da embratel"
2017,December 23,Saturday,14:00,rad,"passeio | cycling | date","eu e tati comemos no el sossego"
2017,December 22,Friday,21:30,rad,"passeio | relax | social | date","sai com faccin e amigos, ficamos doidos"
2017,December 22,Friday,17:32,rad,"passeio | relax | date","balneário com a Tati e mãe"
2017,December 21,Thursday,17:38,meh,"procastination | sick",""
2017,December 21,Thursday,15:35,meh,"procastination",""
2017,December 20,Wednesday,21:30,good,"passeio | social",""
2017,December 20,Wednesday,17:31,meh,"procastination",""
2017,December 20,Wednesday,13:55,good,"passeio | procastination",""
2017,December 20,Wednesday,10:00,good,"travel | service","cheguei em cacoal"
2017,December 20,Wednesday,02:00,good,"passeio | date | service",""
2017,December 19,Tuesday,22:00,meh,"social | service | procastination",""
2017,December 19,Tuesday,18:00,meh,"work | procastination",""
2017,December 19,Tuesday,14:22,good,"work",""
2017,December 19,Tuesday,09:30,good,"date | work",""
2017,December 19,Tuesday,01:30,good,"date | procastination",""
2017,December 18,Monday,21:30,meh,"passeio | date | work | procastination",""
2017,December 18,Monday,17:30,meh,"procastination",""
2017,December 18,Monday,13:30,good,"work | procastination",""
2017,December 18,Monday,09:41,meh,"work",""
2017,December 17,Sunday,23:30,meh,"passeio | social | date","fiz passeio com a tati e conversamos bastante  acho que a leticia me block"
2017,December 17,Sunday,17:41,good,"passeio | date | procastination",""
2017,December 17,Sunday,13:34,rad,"passeio | social | date","churrasco na chácara"
2017,December 17,Sunday,09:30,rad,"passeio | relax | date","acamps na cachoeira"
2017,December 16,Saturday,21:38,rad,"passeio | social | date","ancoradouro"
2017,December 16,Saturday,18:45,rad,"passeio | relax | cycling | date","interpraças"
2017,December 16,Saturday,13:30,good,"date | procastination",""
2017,December 15,Friday,22:00,good,"passeio | date | procastination",""
2017,December 15,Friday,18:00,good,"passeio | date",""
2017,December 15,Friday,14:00,good,"date",""
2017,December 14,Thursday,21:43,good,"social | procastination",""
2017,December 14,Thursday,18:07,good,"work",""
2017,December 14,Thursday,14:05,good,"work",""
2017,December 14,Thursday,10:50,good,"work",""
2017,December 13,Wednesday,21:30,rad,"cycling | social | procastination","futebol"
2017,December 13,Wednesday,18:17,good,"procastination",""
2017,December 13,Wednesday,13:30,good,"work",""
2017,December 13,Wednesday,10:44,good,"date | work",""
2017,December 12,Tuesday,21:38,good,"passeio | social | date",""
2017,December 12,Tuesday,17:35,good,"work | procastination",""
2017,December 12,Tuesday,13:30,good,"work | procastination",""
2017,December 11,Monday,21:37,rad,"social | date | work","comi pizza com teteu e tati"
2017,December 11,Monday,17:30,good,"work | procastination | treta","p1sub de eletromag"
2017,December 11,Monday,13:53,good,"passeio | social",""
2017,December 10,Sunday,21:42,good,"passeio | social | date","fui no peixe/açaí do 2 com pai e tati"
2017,December 10,Sunday,17:30,rad,"passeio | relax | date","cachoeira com a tati"
2017,December 10,Sunday,13:32,meh,"date | procastination",""
2017,December 9,Saturday,21:33,good,"social | date | study | procastination",""
2017,December 9,Saturday,18:22,good,"passeio | date | study",""
2017,December 9,Saturday,13:33,good,"date | study",""
2017,December 9,Saturday,09:36,good,"date | study",""
2017,December 8,Friday,22:07,meh,"passeio | date | study",""
2017,December 8,Friday,18:49,meh,"passeio | date | service | procastination",""
2017,December 8,Friday,13:44,meh,"service | procastination",""
2017,December 7,Thursday,21:30,meh,"date | procastination",""
2017,December 7,Thursday,17:33,meh,"procastination",""
2017,December 7,Thursday,13:38,good,"date | work",""
2017,December 7,Thursday,09:37,rad,"social | date | work","dormi com a tati e tirei nota alta na de eletromag"
2017,December 6,Wednesday,21:26,good,"passeio | date",""
2017,December 6,Wednesday,17:30,good,"passeio | date | service",""
2017,December 6,Wednesday,11:30,meh,"service",""
2017,December 6,Wednesday,09:30,good,"service | procastination",""
2017,December 5,Tuesday,21:49,good,"passeio | social",""
2017,December 5,Tuesday,19:00,good,"social | service",""
2017,December 5,Tuesday,13:30,bad,"travel | sick","Tô meio mal em imaginar que provavelmente a primeira coisa que meu pai vai falar é reclamar do meu cabelo. Acho que a minha febre tá me jogando para baixo"
2017,December 5,Tuesday,09:40,meh,"travel | sick","Continuo doente, mas agora viajando e sonecando"
2017,December 5,Tuesday,05:33,bad,"sick","Tô doente e tá sendo bem chato"
2017,December 4,Monday,22:57,good,"sick | treta","Tive a P2 de eletromagnetismo, acho que fui bem melhor do que eu esperava"
2017,December 4,Monday,17:30,awful,"psychologist | procastination | sick","Tô meio mal por causa da P2 de Eletromagnetismo pois não me preparei nada. To doente também e meio triste"
2017,December 4,Monday,13:39,meh,"cycling | procastination | sick","Comecei a me sentir mal depois que voltei do Ipiranga. Poluição do ar?"
2017,December 4,Monday,09:30,meh,"cycling","Fui ao Ipiranga despachar uma coisa para meu pai"
2017,December 3,Sunday,21:35,meh,"study | service | procastination",""
2017,December 3,Sunday,17:30,meh,"procastination",""
2017,December 3,Sunday,13:30,good,"date | procastination","Peguei a Samira e agente fez de tudo sem proteção"
2017,December 2,Saturday,21:30,good,"passeio | date",""
2017,December 2,Saturday,17:30,meh,"procastination",""
2017,December 2,Saturday,13:30,meh,"social | procastination",""
2017,December 1,Friday,21:30,awful,"procastination","Desânimo com a vida"
2017,December 1,Friday,17:48,meh,"social | procastination",""
2017,December 1,Friday,13:30,meh,"procastination",""
2017,November 30,Thursday,23:24,good,"passeio | date",""
2017,November 30,Thursday,17:37,meh,"procastination",""
2017,November 30,Thursday,13:46,meh,"date | procastination",""
2017,November 29,Wednesday,21:30,meh,"passeio | cycling | date",""
2017,November 29,Wednesday,17:30,bad,"study",""
2017,November 29,Wednesday,13:30,meh,"study | procastination | bandex",""
2017,November 29,Wednesday,09:30,meh,"study | procastination",""
2017,November 28,Tuesday,21:30,meh,"service | procastination",""
2017,November 28,Tuesday,17:30,bad,"procastination","desanimado"
2017,November 28,Tuesday,13:41,meh,"social | study | procastination",""
2017,November 27,Monday,21:31,good,"service | procastination | bandex",""
2017,November 27,Monday,17:57,meh,"formal | procastination",""
2017,November 27,Monday,13:50,meh,"social | study | bandex",""
2017,November 27,Monday,09:30,meh,"social | work | treta","fiz a p2 de quântica valendo tudo, espero que dê certo"
2017,November 26,Sunday,21:30,meh,"procastination",""
2017,November 26,Sunday,17:30,good,"passeio | cycling",""
2017,November 26,Sunday,13:36,good,"social | study",""
2017,November 26,Sunday,01:42,rad,"social | procastination",""
2017,November 25,Saturday,21:34,good,"passeio | social","to no aniversário do cacau"
2017,November 25,Saturday,17:41,good,"relax | cycling | social",""
2017,November 25,Saturday,13:40,good,"passeio | social",""
2017,November 25,Saturday,01:53,good,"social","fui ver o top no aqua88"
2017,November 24,Friday,21:30,meh,"study | procastination",""
2017,November 24,Friday,17:34,meh,"study | work",""
2017,November 24,Friday,13:34,meh,"study",""
2017,November 24,Friday,11:39,meh,"date | formal","toefl"
2017,November 23,Thursday,21:37,good,"social","fiquei papeando com os migos"
2017,November 23,Thursday,19:00,good,"social | formal","falei com um cara do nexohw"
2017,November 23,Thursday,13:33,good,"date",""
2017,November 22,Wednesday,17:34,good,"cycling | date | procastination",""
2017,November 22,Wednesday,13:40,meh,"procastination",""
2017,November 21,Tuesday,21:36,good,"study",""
2017,November 21,Tuesday,17:30,good,"study | class",""
2017,November 21,Tuesday,13:34,good,"study | procastination | bandex",""
2017,November 20,Monday,17:36,bad,"procastination",""
2017,November 20,Monday,15:02,meh,"procastination",""
2017,November 20,Monday,01:30,good,"party | social",""
2017,November 19,Sunday,21:30,good,"party | social",""
2017,November 19,Sunday,17:46,meh,"service | procastination",""
2017,November 19,Sunday,14:24,meh,"procastination",""
2017,November 18,Saturday,21:30,meh,"social",""
2017,November 18,Saturday,17:37,good,"cycling | social | procastination","to no aniversário do adolfo numa casa de jogos na"
2017,November 18,Saturday,13:34,meh,"procastination",""
2017,November 17,Friday,22:50,good,"study",""
2017,November 17,Friday,17:38,meh,"study | service",""
2017,November 17,Friday,13:46,meh,"study | service | procastination",""
2017,November 16,Thursday,22:49,good,"cycling | procastination | class | bandex",""
2017,November 16,Thursday,17:34,meh,"study | work",""
2017,November 16,Thursday,11:30,bad,"study","bati numa árvore enquanto pedalando, me sinto meio desanimado"
2017,November 15,Wednesday,17:54,meh,"date | formal",""
2017,November 15,Wednesday,11:45,meh,"date",""
2017,November 14,Tuesday,23:30,meh,"social | date | work",""
2017,November 14,Tuesday,17:39,meh,"psychologist | date",""
2017,November 13,Monday,23:30,bad,"social | date | treta | bandex",""
2017,November 13,Monday,18:00,awful,"social | treta",""
2017,November 13,Monday,11:32,awful,"treta",""
2017,November 12,Sunday,23:37,meh,"social | formal",""
2017,November 12,Sunday,18:32,good,"social | service","fiquei ajudando o frank e a dimy"
2017,November 12,Sunday,12:07,good,"social | bandex",""
2017,November 11,Saturday,23:33,meh,"social | work | procastination","to cozinhando muito as gurias e acho que não vai rolar eu ser ambicioso no cefisma"
2017,November 11,Saturday,17:42,good,"social | procastination",""
2017,November 11,Saturday,11:36,meh,"service | procastination",""
2017,November 10,Friday,23:59,meh,"service | procastination",""
2017,November 10,Friday,17:49,meh,"psychologist | procastination",""
2017,November 9,Thursday,23:30,good,"social | service | class | bandex",""
2017,November 9,Thursday,17:35,bad,"work","meio desanimado"
2017,November 9,Thursday,11:30,meh,"formal","reunião da fap"
2017,November 8,Wednesday,23:34,good,"work | procastination | bandex","bandejei, fiz coisas do cefisma e enrolei"
2017,November 8,Wednesday,17:41,good,"social | class | bandex","lab6 em essência"
2017,November 7,Tuesday,23:31,bad,"formal | service","teve reunião hj sobre a chapa  me sinto mal com a forma que o pessoal do cefisma me trata - é a velha sensação de se não se sentir bem vindo"
2017,November 7,Tuesday,17:30,meh,"work | service",""
2017,November 6,Monday,23:36,good,"social | service",""
2017,November 6,Monday,17:30,meh,"formal | service | sleep","pepinos de rds, voltei da viagem, sonequei"
2017,November 6,Monday,11:30,good,"travel | date | sleep","voltei da viagem, durmi quase tudo"
2017,November 5,Sunday,23:30,good,"travel | date | alcohol","pegamos carona de uns bêbados em um bar estranho para chegar a eldorado - foi um tanto engraçado a situação"
2017,November 5,Sunday,17:33,rad,"travel | relax | date","cachoeiras"
2017,November 5,Sunday,11:38,good,"travel | relax | date",""
2017,November 4,Saturday,17:30,meh,"travel | relax | date","fui na caverna do diabo. estamos armando a rede numa trilha escondida, mas a chuva tá foda"
2017,November 4,Saturday,12:37,good,"travel | relax | date","acampei na rodovia - estamos andando até a caverna do diabo pegando carona quando possível"
2017,November 3,Friday,23:30,meh,"travel | date","cheguei em eldorado com a leticia, vamos caçar um lugar p acampar por ai e procederemos a caverna do diabo"
2017,November 3,Friday,17:30,good,"travel | date | work | service",""
2017,November 3,Friday,11:34,meh,"procastination",""
2017,November 2,Thursday,23:30,meh,"procastination",""
2017,November 2,Thursday,17:46,meh,"social | work | procastination",""
2017,November 2,Thursday,05:30,meh,"procastination | movies","fiquei maratonando stranger things"
2017,November 1,Wednesday,23:35,meh,"service | bandex","dei umas reguladas na bike"
2017,November 1,Wednesday,17:30,good,"social | formal | work | class","aula de lab 4, teve reunião de articulação dos rds"
2017,November 1,Wednesday,11:39,meh,"work","eu mexi num negócio do alex e não tive a menor lembrança disso. tive pesadelos por causa da treta de ontem. me sinto meio nervoso"
2017,October 31,Tuesday,22:42,meh,"social | work | treta | bandex","teve treta com o advogado do apto. conversei com a carol."
2017,October 31,Tuesday,18:07,good,"cycling | formal | work | bandex","trabalhei na ideia do cetesb e fui ao palácio dos bandeirantes ver o MTST"
2017,October 31,Tuesday,12:27,meh,"social | work | bandex",""
2017,October 30,Monday,22:24,bad,"procastination | bandex",""
2017,October 30,Monday,17:39,bad,"procastination | bandex","to meio desanimadão"
2017,October 30,Monday,11:48,meh,"procastination",""
2017,October 29,Sunday,23:34,good,"date | procastination | movies",""
2017,October 29,Sunday,17:30,good,"date",""
2017,October 29,Sunday,04:00,meh,"party | date | alcohol",""
2017,October 28,Saturday,23:50,good,"party | social | gaming | alcohol",""
2017,October 28,Saturday,18:51,meh,"service | procastination | gaming",""
2017,October 27,Friday,23:32,good,"cycling",""
2017,October 27,Friday,18:33,good,"psychologist | social | bandex",""
2017,October 26,Thursday,23:00,meh,"social | procastination","Teve a treta da chapa alternativa ao CEFISMA"
2017,October 26,Thursday,17:30,good,"social | work",""
2017,October 26,Thursday,11:34,good,"formal | procastination",""
2017,October 26,Thursday,03:00,meh,"procastination",""
2017,October 25,Wednesday,23:30,meh,"passeio | procastination",""
2017,October 25,Wednesday,18:07,good,"social | work | class | bandex",""
2017,October 24,Tuesday,23:35,meh,"date | work | bandex",""
2017,October 24,Tuesday,18:34,good,"work | bandex",""
2017,October 23,Monday,23:32,good,"work | class",""
2017,October 23,Monday,17:30,good,"work | procastination","tomei um susto sobre dst"
2017,October 23,Monday,11:34,good,"work",""
2017,October 22,Sunday,21:54,good,"cycling | procastination",""
2017,October 22,Sunday,17:30,bad,"formal","fui no acredito, acho que não sirvo mesmo para interpessoalidade"
2017,October 21,Saturday,23:31,good,"social | procastination | gaming",""
2017,October 21,Saturday,17:30,rad,"cycling | social",""
2017,October 21,Saturday,13:26,good,"social",""
2017,October 20,Friday,23:30,meh,"social | procastination",""
2017,October 20,Friday,17:30,bad,"social | formal | work","teve reunião de ic, do lfa e lab. zeca teve treta con pm, dei pe atras com leticia"
2017,October 19,Thursday,23:39,bad,"social | class","fui na aula de IRI, conversei um pouco na física e fui ao qib mas ex estava lá. vim dormir na floresta da física"
2017,October 19,Thursday,17:34,bad,"psychologist | procastination | bandex","ex me assombra"
2017,October 19,Thursday,11:34,meh,"social | service",""
2017,October 18,Wednesday,23:33,bad,"work | class","adiantei coisas de eletromag mas sumiram coisas da bike"
2017,October 18,Wednesday,17:45,good,"work",""
2017,October 18,Wednesday,11:34,good,"procastination",""
2017,October 17,Tuesday,23:31,good,"relax | social | bandex",""
2017,October 17,Tuesday,17:34,good,"social | formal | work",""
2017,October 16,Monday,23:30,meh,"work | bandex","ganhei outra flor"
2017,October 16,Monday,17:40,good,"work",""
2017,October 16,Monday,11:59,good,"social | procastination",""
2017,October 15,Sunday,23:38,meh,"social | work",""
2017,October 15,Sunday,18:31,meh,"work | service",""
2017,October 15,Sunday,11:32,meh,"service",""
2017,October 14,Saturday,22:50,meh,"work | procastination",""
2017,October 14,Saturday,17:30,meh,"procastination",""
2017,October 13,Friday,23:33,good,"social | alcohol","sai com zeca & amigos"
2017,October 13,Friday,17:39,meh,"service | procastination",""
2017,October 13,Friday,11:32,good,"procastination",""
2017,October 12,Thursday,23:30,good,"social | procastination",""
2017,October 12,Thursday,18:34,meh,"date | service","fui ao shopping com a leticia e dei uma arrumada no quarto.  me sinto meio só em relação a amigos."
2017,October 12,Thursday,12:00,good,"date | sleep","acampei na USP com a leticia"
2017,October 11,Wednesday,23:32,good,"date | class",""
2017,October 11,Wednesday,17:30,good,"relax | social | class","Fui no lago com o Tito e Antônio, tive aula de lab 6"
2017,October 11,Wednesday,11:30,good,"class",""
2017,October 10,Tuesday,23:00,good,"travel | social","Voltei a SP super pilhado."
2017,October 10,Tuesday,18:45,good,"travel | relax | cycling | social",""
2017,October 10,Tuesday,11:31,good,"travel | relax | cycling | social",""
2017,October 10,Tuesday,06:22,meh,"travel | cycling | social | alcohol","eu e os mlk saimos para a viagem até Bertioga de bike. Na descida da serra houve um acidente com o Ariel."
2017,October 9,Monday,23:30,good,"social","Me chamaram para ir a praia de bike na madrugada"
2017,October 9,Monday,17:49,meh,"social | procastination",""
2017,October 9,Monday,11:32,meh,"procastination",""
2017,October 8,Sunday,23:00,meh,"social | procastination",""
2017,October 8,Sunday,17:33,good,"social | procastination",""
2017,October 8,Sunday,11:30,meh,"procastination",""
2017,October 7,Saturday,23:44,good,"social | procastination",""
2017,October 7,Saturday,17:52,meh,"procastination",""
2017,October 7,Saturday,11:30,good,"procastination | sleep",""
2017,October 6,Friday,23:46,good,"cycling | social | date | work",""
2017,October 6,Friday,17:30,good,"psychologist | work",""
2017,October 6,Friday,11:55,meh,"procastination",""
2017,October 6,Friday,02:00,meh,"party | procastination",""
2017,October 5,Thursday,23:40,bad,"work | procastination",""
2017,October 5,Thursday,17:32,meh,"relax | date","Fui no lago com a Letícia"
2017,October 5,Thursday,11:33,good,"formal | procastination | bandex","acordei 6h. reunião da DFAP"
2017,October 4,Wednesday,22:24,good,"procastination | bandex","Ganhei outra flor na bicicleta"
2017,October 4,Wednesday,17:36,good,"work | class","Adiantei várias coisas da IC"
2017,October 4,Wednesday,11:46,good,"work | procastination",""
2017,October 3,Tuesday,23:32,meh,"date | work | bandex","Sai com a Vulpina, ela se declarou para mim"
2017,October 3,Tuesday,17:33,good,"work | bandex","Ganhei uma flor na bike"
2017,October 2,Monday,23:13,good,"work | class | bandex",""
2017,October 2,Monday,18:22,good,"work | bandex",""
2017,October 2,Monday,11:37,good,"work | class",""
2017,October 1,Sunday,23:30,good,"relax | social | procastination",""
2017,October 1,Sunday,17:30,rad,"relax | social","Almocei com a família do Zeca"
2017,September 30,Saturday,23:34,good,"social",""
2017,September 30,Saturday,17:45,good,"social | work | procastination",""
2017,September 30,Saturday,11:50,good,"cycling | social | work | sleep",""
2017,September 29,Friday,23:34,good,"passeio | cycling | social | procastination",""
2017,September 29,Friday,17:37,good,"psychologist | work",""
2017,September 28,Thursday,23:30,meh,"social","Mudei para a casa do Zeca"
2017,September 28,Thursday,17:30,bad,"date | service",""
2017,September 28,Thursday,11:30,meh,"date | sleep",""
2017,September 27,Wednesday,23:30,meh,"date | work | alcohol","Fiquei preparando para me mudar"
2017,September 27,Wednesday,11:30,good,"date | sleep",""
2017,September 26,Tuesday,23:30,good,"cycling | social | date",""
2017,September 26,Tuesday,11:30,meh,"cycling | class",""
2017,September 25,Monday,23:30,good,"cycling | work | bandex",""
2017,September 25,Monday,11:33,good,"cycling | social | class",""
2017,September 24,Sunday,23:30,meh,"passeio | cycling | work | procastination",""
2017,September 24,Sunday,14:12,meh,"sleep | gaming",""
2017,September 23,Saturday,23:30,meh,"procastination",""
2017,September 23,Saturday,08:00,meh,"gaming",""
2017,September 22,Friday,23:30,good,"psychologist | social | sleep | bandex",""
2017,September 22,Friday,11:30,good,"work | procastination",""
2017,September 21,Thursday,23:30,good,"social | bandex",""
2017,September 21,Thursday,15:01,good,"sleep",""
2017,September 20,Wednesday,23:32,good,"relax | social | date | class | bandex",""
2017,September 20,Wednesday,14:12,meh,"work | service",""
2017,September 19,Tuesday,23:33,meh,"work | service | procastination",""
2017,September 19,Tuesday,11:36,meh,"work | procastination",""
2017,September 18,Monday,20:01,bad,"work | bandex",""
2017,September 18,Monday,11:43,meh,"work | class",""
2017,September 17,Sunday,23:30,good,"date | procastination",""
2017,September 16,Saturday,23:30,meh,"work",""
2017,September 15,Friday,23:30,good,"psychologist | social | date | bandex | movies",""
2017,September 14,Thursday,23:30,bad,"party | date | procastination | class",""
2017,September 13,Wednesday,23:58,good,"date | movies",""
2017,September 13,Wednesday,19:13,awful,"cycling | procastination",""
2017,September 12,Tuesday,23:30,bad,"cycling | work | procastination",""