V(canais);V(calib);i(canais);E(i);n(i)
0;0.0000;-6.1950;60.8918;200;
1;0.1947;-29.1950;177.2654;200;
2;0.3893;-16.2400;100.8892;200;
3;0.5840;-5.0900;47.4004;200;
4;0.7786;-4.0000;46.6176;200;
5;0.9733;-3.4500;42.3639;200;
6;1.1680;-1.7100;27.2960;200;
7;1.3626;-2.7250;29.6866;200;
8;1.5573;-2.4750;34.8573;200;
9;1.7519;-2.1154;45.6640;26;
10;1.9466;-1.9444;0.8416;18;
11;2.1413;0.3529;23.6194;17;
12;2.3359;-2.2857;7.5517;14;
13;2.5306;-2.0000;9.7730;16;
14;2.7252;-2.1429;0.4362;14;
15;2.9199;-2.0000;12.4264;14;
16;3.1146;-2.1111;0.3143;9;
17;3.3092;-2.0000;0.2357;17;
18;3.5039;-2.1111;42.0806;9;
19;3.6985;-2.0000;0.2801;12;
20;3.8932;-2.0000;0.2481;15;
21;4.0879;-2.0588;0.6306;17;
22;4.2825;-2.0000;1.2815;8;
23;4.4772;-2.0000;1.0873;10;
24;4.6718;-2.0000;1.1358;9;
25;4.8665;-2.0000;0.8473;18;
26;5.0612;-2.0000;1.2712;9;
27;5.2558;-2.0000;1.1748;13;
28;5.4505;-2.0000;1.0918;13;
29;5.6451;-2.0000;1.1538;14;
30;5.8398;-2.0000;1.0171;17;
31;6.0345;-2.0000;0.7970;11;
32;6.2291;-2.0000;0.9000;14;
33;6.4238;-2.0000;1.0018;7;
34;6.6184;-2.0000;0.6714;18;
35;6.8131;-2.0000;0.9166;13;
36;7.0078;-2.0000;0.9058;13;
37;7.2024;-2.0000;0.8168;16;
38;7.3971;-2.0000;0.7335;16;
39;7.5917;-2.0000;1.0361;10;
40;7.7864;-2.0000;1.1374;11;
41;7.9811;-2.0000;4.7718;19;
42;8.1757;-2.0000;0.9495;16;
43;8.3704;-2.0000;1.3215;10;
44;8.5650;-1.5833;1.1791;12;
45;8.7597;-1.4286;1.5728;7;
46;8.9544;-1.1667;0.8680;18;
47;9.1490;-1.0909;1.1869;11;
48;9.3437;-1.0000;0.8840;18;
49;9.5383;-1.0000;1.4165;12;
50;9.7330;-1.0000;0.9549;14;
51;9.9277;-1.0000;0.8858;17;
52;10.1223;-1.0000;1.2151;12;
53;10.3170;-1.0000;0.9861;13;
54;10.5117;-1.0000;0.7440;13;
55;10.7063;-1.0000;1.2111;11;
56;10.9010;-0.7143;1.1933;14;
57;11.0956;-0.1500;1.1638;20;
58;11.2903;0.0000;1.3506;10;
59;11.4850;-0.0769;1.7884;13;
60;11.6796;0.0556;1.8506;18;
61;11.8743;0.0714;1.8160;14;
62;12.0689;0.6250;2.3712;8;
63;12.2636;1.0000;1.6663;12;
64;12.4583;0.9091;1.5550;11;
65;12.6529;1.0000;1.2985;15;
66;12.8476;1.0000;0.9482;16;
67;13.0422;1.0000;1.1766;11;
68;13.2369;1.0000;0.9609;15;
69;13.4316;1.0000;0.6865;18;
70;13.6262;1.0000;0.6483;15;
71;13.8209;1.0000;1.2837;4;
72;14.0155;1.0000;0.6316;13;
73;14.2102;1.0455;0.6378;22;
74;14.4049;1.0000;0.5732;19;
75;14.5995;1.0000;0.7013;19;
76;14.7942;1.0000;0.6306;27;
77;14.9888;1.0000;0.9022;19;
78;15.1835;1.0000;1.2884;22;
79;15.3782;1.0000;1.3827;16;
80;15.5728;1.0588;1.6675;17;
81;15.7675;1.6818;1.6288;22;
82;15.9621;1.9333;2.1394;15;
83;16.1568;2.3333;2.1961;21;
84;16.3515;2.9500;2.4554;20;
85;16.5461;3.6000;2.4432;20;
86;16.7408;4.0000;1.9226;21;
87;16.9354;4.5294;1.7750;17;
88;17.1301;4.9565;1.4950;23;
89;17.3248;5.0000;1.2859;18;
90;17.5194;5.0000;0.7618;22;
91;17.7141;4.8696;1.1901;23;
92;17.9087;5.0000;1.2007;18;
93;18.1034;4.7500;1.7873;16;
94;18.2981;4.1154;1.3831;26;
95;18.4927;3.9412;1.4771;17;
96;18.6874;3.6087;1.5553;23;
97;18.8820;3.0000;1.9994;11;
98;19.0767;3.0000;1.4560;14;
99;19.2714;2.7391;1.1337;23;
100;19.4660;2.2000;1.0452;15;
101;19.6607;2.0870;1.0591;23;
102;19.8553;2.4000;1.4831;20;
103;20.0500;3.0000;1.8798;12;
104;20.2447;3.0000;2.1505;21;
105;20.4393;3.7727;2.6790;22;
106;20.6340;4.3478;3.9797;23;
107;20.8286;5.2857;4.0980;21;
108;21.0233;6.5714;5.0102;14;
109;21.2180;7.0000;4.0570;24;
110;21.4126;8.5263;3.5209;19;
111;21.6073;9.0667;3.0605;15;
112;21.8019;9.5263;2.1824;19;
113;21.9966;9.9286;1.1002;28;
114;22.1913;9.8889;2.8304;18;
115;22.3859;9.8333;4.1305;6;
116;22.5806;9.1333;2.4673;15;
117;22.7752;8.7391;2.2250;23;
118;22.9699;7.9565;2.6763;23;
119;23.1646;7.3571;2.5118;14;
120;23.3592;6.6364;3.5952;22;
121;23.5539;5.8500;2.6591;20;
122;23.7485;5.0000;2.8100;13;
123;23.9432;4.6250;1.8251;24;
124;24.1379;4.1765;1.9348;17;
125;24.3325;4.0000;1.6971;22;
126;24.5272;4.0952;1.7963;21;
127;24.7218;4.3333;2.3970;12;
128;24.9165;4.9000;3.6341;20;
129;25.1112;5.4583;4.0903;24;
130;25.3058;6.8182;4.9397;22;
131;25.5005;8.0000;3.6821;24;
132;25.6951;9.8125;5.6740;16;
133;25.8898;11.0625;6.7373;16;
134;26.0845;12.3000;6.8197;20;
135;26.2791;14.2105;5.1533;19;
136;26.4738;14.8095;4.3327;21;
137;26.6684;15.8571;2.1131;21;
138;26.8631;15.8500;1.5836;20;
139;27.0578;15.8889;1.7209;27;
140;27.2524;15.1250;3.7171;16;
141;27.4471;14.4286;4.9902;21;
142;27.6417;13.3684;4.7059;19;
143;27.8364;12.3750;4.8929;16;
144;28.0311;11.4706;5.6140;17;
145;28.2257;10.1304;4.0953;23;
146;28.4204;8.8421;3.9428;19;
147;28.6150;7.9286;2.2819;28;
148;28.8097;7.0000;3.0368;13;
149;29.0044;6.5769;2.2427;26;
150;29.1990;6.1667;1.7619;18;
151;29.3937;6.3684;1.9695;19;
152;29.5883;6.7857;4.2063;14;
153;29.7830;7.9231;5.5726;26;
154;29.9777;9.1481;5.8428;27;
155;30.1723;11.2500;11.6990;16;
156;30.3670;11.9375;9.0084;16;
157;30.5616;14.7917;7.6627;24;
158;30.7563;16.6364;9.3275;22;
159;30.9510;18.3750;7.5834;16;
160;31.1456;20.7143;6.3873;21;
161;31.3403;22.4167;3.9576;24;
162;31.5350;23.5789;4.8072;19;
163;31.7296;23.7895;2.1307;19;
164;31.9243;23.7273;2.9216;22;
165;32.1189;22.8750;4.6325;24;
166;32.3136;21.8421;5.6678;19;
167;32.5083;20.4000;5.4136;15;
168;32.7029;18.9048;7.3700;21;
169;32.8976;17.3043;7.5116;23;
170;33.0922;15.3333;6.0193;21;
171;33.2869;13.7000;5.8894;20;
172;33.4816;13.4286;7.0727;7;
173;33.6762;11.0800;2.7369;25;
174;33.8709;10.5000;3.6957;22;
175;34.0655;10.0526;2.0661;19;
176;34.2602;10.0909;2.7764;22;
177;34.4549;10.6250;4.1603;24;
178;34.6495;11.4091;5.6815;22;
179;34.8442;12.8095;7.1872;21;
180;35.0388;14.9286;11.8258;14;
181;35.2335;17.7727;10.5324;22;
182;35.4282;20.4706;13.2835;17;
183;35.6228;23.1667;10.5647;12;
184;35.8175;25.7000;12.8444;10;
185;36.0121;28.0000;9.3288;18;
186;36.2068;30.4762;4.5696;21;
187;36.4015;32.1111;4.1134;18;
188;36.5961;32.9474;2.0365;19;
189;36.7908;32.9375;3.7847;16;
190;36.9854;32.5000;4.4861;24;
191;37.1801;31.3000;7.7277;10;
192;37.3748;30.1481;5.2035;27;
193;37.5694;27.0455;8.8971;22;
194;37.7641;25.4000;7.2960;20;
195;37.9587;23.5909;9.0626;22;
196;38.1534;20.5789;7.3831;19;
197;38.3481;18.7200;5.9589;25;
198;38.5427;16.6667;6.0830;15;
199;38.7374;15.6250;3.8312;16;
200;38.9320;14.8800;2.2714;25;
201;39.1267;14.2273;5.6597;22;
202;39.3214;14.4500;3.7699;20;
203;39.5160;15.4000;6.3844;20;
204;39.7107;16.3500;8.1175;20;
205;39.9053;18.5000;11.0068;20;
206;40.1000;21.2273;10.0063;22;
207;40.2947;23.5556;10.3137;18;
208;40.4893;27.4643;8.6870;28;
209;40.6840;30.5833;11.0392;12;
210;40.8786;34.7200;6.9355;25;
211;41.0733;36.5625;8.1848;16;
212;41.2680;39.6667;4.0952;24;
213;41.4626;41.2941;4.5861;17;
214;41.6573;41.8095;2.2657;21;
215;41.8519;41.8462;2.5548;26;
216;42.0466;41.4375;4.5646;16;
217;42.2413;39.7391;7.1961;23;
218;42.4359;38.6087;5.5918;23;
219;42.6306;35.5909;6.3279;22;
220;42.8252;33.3125;8.9432;16;
221;43.0199;30.3182;7.5593;22;
222;43.2146;27.5833;5.3965;24;
223;43.4092;25.7333;7.0353;15;
224;43.6039;23.3750;5.9430;16;
225;43.7985;22.5652;3.8562;23;
226;43.9932;21.1538;3.0041;26;
227;44.1879;20.6316;3.6645;19;
228;44.3825;20.8000;5.2410;25;
229;44.5772;22.1429;7.2816;28;
230;44.7718;23.4737;11.5677;19;
231;44.9665;26.1250;7.8327;16;
232;45.1612;28.0000;11.4874;20;
233;45.3558;31.2609;8.6692;23;
234;45.5505;35.9048;9.2963;21;
235;45.7451;39.2727;10.3473;22;
236;45.9398;43.0952;9.4798;21;
237;46.1345;46.1481;6.2894;27;
238;46.3291;49.0625;4.0327;16;
239;46.5238;51.0588;2.2650;17;
240;46.7184;51.5217;2.2426;23;
241;46.9131;52.0000;4.3660;17;
242;47.1078;51.6400;4.4972;25;
243;47.3024;50.6667;5.1946;24;
244;47.4971;48.7391;4.6312;23;
245;47.6917;46.3500;5.8619;20;
246;47.8864;44.0909;7.2295;11;
247;48.0811;43.7500;11.2283;4;
248;48.2757;43.0000;16.1548;1;
249;48.4704;0.0000;0.0000;0;
250;48.6650;0.0000;0.0000;0;
251;48.8597;0.0000;0.0000;0;
252;49.0544;0.0000;0.0000;0;
253;49.2490;0.0000;0.0000;0;
254;49.4437;0.0000;0.0000;0;
Canal 206 = 40.1000V
Fundo de escala(A)= 3.00 nA
Fator de calib=0.1947