0 	 -4.00000000 	 6.00000000 
1 	 -4.00000000 	 -2.00000000 
2 	 -12.00000000 	 6.00000000 
3 	 -16.00000000 	 -10.00000000 
4 	 -8.00000000 	 10.00000000 
5 	 -8.00000000 	 4.00000000 
6 	 0.00000000 	 -4.00000000 
7 	 -4.00000000 	 6.00000000 
8 	 -4.00000000 	 -6.00000000 
9 	 -4.00000000 	 -2.00000000 
